0.072134 0.053436 0.292520 0.427451 0.349020 0.392157 0.000000 
0.009990 -0.005121 0.279381 0.999020 0.868627 0.682353 0.000000 
0.019666 -0.004309 0.276115 1.000000 0.909804 0.784314 0.000000 
0.068480 0.035724 0.281520 0.570588 0.313726 0.225490 0.000000 
0.026118 -0.008054 0.265134 1.000000 0.890196 0.810196 0.000000 
0.006646 -0.013524 0.257318 1.000000 0.767647 0.637255 0.000000 
0.044908 0.017234 0.255696 1.000000 0.943137 0.980392 0.000000 
0.016366 -0.012691 0.247507 0.975490 0.694118 0.643137 0.000000 
-0.029592 -0.013148 0.236711 1.000000 0.754902 0.547059 0.000000 
-0.001689 -0.019396 0.234305 1.000000 0.709804 0.600000 0.000000 
-0.066705 -0.016669 0.222960 0.468627 0.345098 0.191503 0.000000 
-0.005131 -0.024714 0.216732 1.000000 0.738235 0.630392 0.000000 
-0.022961 -0.025668 0.213065 1.000000 0.713726 0.492157 0.000000 
-0.020653 -0.028969 0.209750 0.676471 0.384314 0.182353 0.000000 
-0.009071 -0.028766 0.203406 1.000000 0.770588 0.658824 0.000000 
-0.035427 -0.026522 0.199456 1.000000 0.768627 0.482353 0.000000 
0.024008 0.114912 0.216564 0.306863 0.276471 0.355882 0.000000 
-0.028305 -0.040135 0.178955 0.976471 0.797386 0.457516 0.000000 
0.045945 0.114711 0.208653 0.258824 0.129412 0.168627 0.000000 
0.040094 0.117396 0.207491 0.827451 0.778431 0.823529 0.000000 
-0.011187 -0.043111 0.170990 0.703922 0.446078 0.156863 0.000000 
-0.026417 -0.058758 0.151233 1.000000 0.871569 0.513726 0.000000 
0.039258 0.117996 0.190609 0.325490 0.188235 0.078431 0.000000 
-0.117531 -0.012959 0.149304 1.000000 0.982353 0.913725 0.000000 
-0.011873 -0.069140 0.137194 0.980392 0.643137 0.643137 0.000000 
-0.052333 -0.052815 0.125285 1.000000 0.790196 0.484314 0.000000 
-0.037734 -0.062367 0.115992 0.441176 0.137255 0.000000 0.000000 
-0.052580 -0.054718 0.106962 1.000000 0.794118 0.515686 0.000000 
-0.039117 -0.063118 0.094334 1.000000 0.786928 0.654902 0.000000 
-0.061167 -0.052648 0.095893 0.997059 0.743137 0.519608 0.000000 
-0.054371 -0.055713 0.090332 1.000000 0.786274 0.584314 0.000000 
-0.044625 -0.061337 0.092379 0.937255 0.683660 0.492810 0.000000 
-0.058691 -0.053225 0.087787 0.572549 0.266667 0.101961 0.000000 
-0.035633 -0.066048 0.081240 0.849020 0.584314 0.460784 0.000000 
-0.134166 -0.020353 0.091766 0.962745 0.909804 0.868627 0.000000 
-0.041976 -0.063009 0.077747 0.882353 0.586928 0.464052 0.000000 
-0.056692 -0.059212 0.071619 1.000000 0.823529 0.568627 0.000000 
-0.140640 -0.018920 0.099878 0.986275 0.897255 0.817255 0.400000 
-0.051064 -0.060731 0.071636 1.000000 0.764706 0.581699 0.000000 
-0.052809 -0.060783 0.062494 0.974510 0.666667 0.519608 0.000000 
-0.043499 -0.063259 0.062350 0.558824 0.278431 0.101961 0.000000 
0.014203 -0.103130 0.049674 0.617647 0.303922 0.309804 0.000000 
-0.044474 -0.064736 0.058359 0.478431 0.194118 0.072549 0.000000 
-0.051967 -0.061295 0.064459 0.522876 0.228105 0.062092 0.000000 
-0.048262 -0.063057 0.062896 0.987582 0.765359 0.616993 0.000000 
-0.023026 -0.064900 0.053321 0.965686 0.814706 0.752941 0.000000 
-0.046757 -0.063803 0.054280 0.436275 0.182353 0.016667 0.000000 
-0.038859 -0.067014 0.048657 0.956863 0.717647 0.588235 0.000000 
-0.068329 -0.054389 0.051271 1.000000 0.752941 0.527451 0.000000 
-0.056031 -0.062674 0.049996 0.925490 0.650980 0.456209 0.000000 
-0.097260 -0.023781 0.052719 0.478431 0.213725 0.060784 0.000000 
-0.043453 -0.068413 0.043343 0.965686 0.712745 0.550980 0.000000 
-0.076944 -0.051805 0.038183 0.592157 0.294118 0.080392 0.000000 
0.049955 -0.084723 0.026764 0.596078 0.286275 0.256863 0.000000 
-0.095461 -0.028193 0.042119 0.900000 0.588235 0.429412 0.000000 
-0.044196 -0.068697 0.035772 0.984314 0.745882 0.589804 0.000000 
-0.048027 -0.068235 0.031379 0.563399 0.274510 0.120261 0.000000 
-0.077072 -0.052932 0.032137 1.000000 0.745098 0.521569 0.000000 
-0.042904 -0.069322 0.029971 0.454902 0.196078 0.017647 0.000000 
-0.119377 0.079434 0.126467 0.301471 0.323039 0.531373 0.750000 
-0.132052 -0.027730 0.037068 0.894118 0.860784 0.817647 0.000000 
-0.050395 -0.070840 0.011744 0.981699 0.739869 0.487582 0.000000 
-0.044133 -0.074022 0.013453 0.999020 0.789216 0.580882 0.000000 
-0.051915 -0.074663 -0.000519 0.998039 0.698039 0.472549 0.000000 
-0.042829 -0.076703 -0.001300 0.547059 0.254902 0.076471 0.000000 
-0.074463 -0.061521 0.002805 0.962745 0.715686 0.466667 0.000000 
-0.149519 -0.023491 0.034555 0.995294 0.876471 0.582353 0.400000 
-0.076383 -0.060549 -0.000598 1.000000 0.823529 0.545098 0.000000 
-0.053877 -0.077020 -0.008468 1.000000 0.762745 0.525490 0.000000 
-0.299527 0.043915 0.012439 0.437255 0.398039 0.603922 1.000000 
-0.062271 -0.083227 -0.039594 0.915686 0.615686 0.488235 0.000000 
0.001981 -0.087118 -0.046135 0.694118 0.411765 0.272549 0.000000 
-0.085266 -0.063575 -0.038016 0.958824 0.674510 0.535294 0.000000 
-0.028435 -0.096515 -0.053554 1.000000 0.780392 0.570588 0.000000 
-0.082637 -0.065424 -0.043001 0.496078 0.196078 0.066667 0.000000 
-0.021909 -0.096735 -0.055770 1.000000 0.788235 0.590196 0.000000 
-0.079749 -0.068303 -0.046347 0.896078 0.588235 0.480392 0.000000 
-0.286525 0.021879 -0.017023 0.962745 0.656863 0.533333 1.000000 
-0.078379 -0.069443 -0.056495 0.907843 0.607843 0.531373 0.000000 
-0.040167 -0.096578 -0.070163 1.000000 0.792157 0.658824 0.000000 
-0.282245 0.022160 -0.021322 0.484314 0.188235 0.119608 1.000000 
-0.091619 -0.054036 -0.058638 0.937255 0.627451 0.564706 0.000000 
0.011406 -0.091449 -0.074306 0.811765 0.533333 0.463726 0.000000 
-0.007566 -0.098516 -0.075385 0.473333 0.186667 0.069020 0.000000 
-0.046289 -0.093141 -0.078633 0.952941 0.672549 0.492157 0.000000 
-0.010055 -0.100997 -0.083051 0.871895 0.594771 0.452288 0.000000 
-0.022302 -0.104430 -0.090140 0.868627 0.594118 0.496078 0.000000 
-0.003151 -0.100504 -0.087743 0.887582 0.615686 0.508497 0.000000 
-0.074794 -0.070261 -0.078449 0.876471 0.590196 0.537255 0.000000 
-0.034274 -0.103144 -0.094519 0.990196 0.750980 0.627451 0.000000 
-0.099201 -0.050329 -0.076189 0.886275 0.590196 0.486275 0.000000 
-0.093700 -0.054980 -0.081072 0.941176 0.701961 0.517647 0.000000 
-0.107000 -0.043324 -0.079511 0.725490 0.452941 0.200000 0.000000 
-0.089698 -0.057728 -0.072524 0.912418 0.635294 0.445752 0.000000 
-0.009006 -0.102518 -0.107424 0.492810 0.209150 0.159477 0.000000 
-0.094437 -0.052438 -0.069705 0.537908 0.266667 0.075817 0.000000 
-0.247538 0.010025 -0.060601 0.701961 0.564706 0.649020 1.000000 
-0.280091 0.021019 -0.056418 0.821569 0.550980 0.505882 1.000000 
-0.092376 -0.056429 -0.085578 0.902941 0.636275 0.436275 0.000000 
-0.260974 0.003893 -0.074396 0.845098 0.556863 0.468627 1.000000 
-0.245789 -0.003594 -0.080318 0.460784 0.290196 0.201961 1.000000 
-0.113040 -0.051477 -0.093057 0.390686 0.142157 0.058824 0.250000 
-0.007328 -0.099847 -0.149086 0.734314 0.473529 0.486275 0.000000 
-0.007175 -0.097925 -0.163759 0.888235 0.600000 0.515686 0.000000 
-0.111019 -0.053655 -0.144754 0.943137 0.633333 0.537255 0.000000 
-0.162318 -0.026769 -0.123472 0.849020 0.768627 0.788235 0.000000 
-0.114419 -0.052287 -0.137630 0.990196 0.724510 0.549020 0.500000 
-0.238513 -0.015799 -0.137878 0.929412 0.676471 0.531373 1.000000 
-0.272436 0.013871 -0.111232 0.875490 0.603922 0.455882 1.000000 
0.006927 -0.108106 -0.210574 1.000000 0.816993 0.583007 0.000000 
-0.141914 -0.048982 -0.182525 0.574510 0.288235 0.045098 0.000000 
-0.149290 -0.037518 -0.181197 0.894118 0.647059 0.386275 0.000000 
-0.113011 -0.058100 -0.185100 0.976471 0.708824 0.647059 0.000000 
-0.248095 -0.011941 -0.145325 0.903268 0.611765 0.551634 1.000000 
-0.208796 -0.025792 -0.185883 0.858824 0.569608 0.497059 0.500000 
-0.250680 -0.007995 -0.198130 0.782353 0.523529 0.501961 1.000000 
-0.194548 -0.037883 -0.217768 0.939216 0.692157 0.431373 0.000000 
-0.146125 -0.051453 -0.211594 0.928431 0.622549 0.516667 0.000000 
-0.236229 -0.013581 -0.208925 0.801961 0.529412 0.484314 1.000000 
0.018870 -0.114895 -0.272721 0.907843 0.627451 0.458824 0.000000 
-0.166879 -0.047812 -0.215083 0.933333 0.631373 0.516340 0.333333 
-0.233066 -0.022422 -0.177382 0.956863 0.669935 0.541176 1.000000 
-0.021699 -0.097024 -0.265818 0.858824 0.723529 0.666667 0.000000 
-0.161181 -0.053501 -0.239319 0.433333 0.149020 0.082353 0.000000 
-0.146592 -0.056017 -0.225015 0.400000 0.111111 0.056209 0.333333 
-0.206108 -0.039596 -0.237013 0.509804 0.237255 0.145098 0.000000 
-0.162309 -0.053819 -0.249832 0.815686 0.545098 0.525490 0.000000 
-0.153257 -0.052923 -0.215108 0.544444 0.249020 0.261438 0.000000 
-0.240588 -0.011249 -0.198597 0.929412 0.670588 0.589542 1.000000 
-0.184850 -0.042549 -0.245935 0.850980 0.564706 0.464706 0.000000 
-0.219714 -0.030645 -0.240695 0.933333 0.662745 0.641176 1.000000 
-0.168853 -0.052281 -0.256947 0.780392 0.494118 0.503922 0.000000 
0.016443 -0.132387 -0.312822 0.992157 0.750980 0.498039 0.000000 
0.037011 -0.119391 -0.319550 0.591177 0.297059 0.184314 0.000000 
0.044044 -0.114489 -0.316204 0.488235 0.213725 0.129412 0.000000 
0.059685 -0.119817 -0.331228 0.443137 0.177124 0.168627 0.000000 
0.017907 -0.127022 -0.328512 0.843137 0.579085 0.461438 0.000000 
-0.257476 -0.002915 -0.268317 0.731373 0.756863 0.962745 1.000000 
0.015760 0.034535 0.315251 0.894118 0.752941 0.588235 0.000000 
0.035425 0.019399 0.307404 1.000000 0.950980 0.635294 0.000000 
0.060179 0.048280 0.300310 0.370588 0.335294 0.460784 0.000000 
0.040056 0.013149 0.301048 0.976471 0.719608 0.523529 0.000000 
0.057728 0.044825 0.296523 0.939216 0.739216 0.514379 0.000000 
0.047650 0.027675 0.299907 0.470588 0.166667 0.115686 0.000000 
0.062308 0.047162 0.301293 0.947059 0.782353 0.647059 0.000000 
0.065255 0.048933 0.294818 0.415033 0.328105 0.392157 0.000000 
-0.000790 -0.014712 0.244227 1.000000 0.717647 0.596078 0.000000 
0.007718 -0.019807 0.230751 0.516993 0.198693 0.146405 0.000000 
-0.009857 -0.022046 0.229377 1.000000 0.734641 0.594771 0.000000 
-0.063779 -0.015986 0.226609 1.000000 0.901176 0.514118 0.000000 
-0.050857 -0.029273 0.188539 1.000000 0.841176 0.527451 0.000000 
0.036645 0.101118 0.208357 0.311765 0.147059 0.100000 0.000000 
0.043703 0.118209 0.206733 0.935294 0.888235 0.923529 0.000000 
-0.006853 -0.047542 0.166294 0.979412 0.741176 0.406863 0.000000 
0.036290 0.118368 0.193399 0.970588 0.901961 0.913725 0.000000 
-0.061247 -0.035462 0.150216 0.986274 0.782353 0.488235 0.000000 
-0.025336 -0.067617 0.116064 0.852941 0.590196 0.572549 0.000000 
-0.040642 -0.064427 0.062684 0.996078 0.779412 0.612745 0.000000 
-0.037553 -0.067506 0.058463 0.412745 0.161765 0.040196 0.000000 
-0.055562 -0.062387 0.053622 1.000000 0.852941 0.594118 0.000000 
-0.027526 -0.067181 0.041891 0.329412 0.111765 0.050980 0.000000 
-0.046668 -0.069056 0.040849 0.474510 0.200000 0.029412 0.000000 
-0.029929 -0.069923 0.036540 0.446405 0.209150 0.119608 0.000000 
-0.030487 -0.070161 0.028028 0.415686 0.174510 0.069935 0.000000 
-0.047363 -0.069247 0.027711 1.000000 0.805490 0.583922 0.000000 
0.059097 -0.077566 0.004499 0.327451 0.164706 0.252941 0.000000 
-0.009489 -0.058830 0.009828 0.903922 0.723529 0.568627 0.000000 
-0.046116 -0.074503 0.003488 0.997647 0.798823 0.609412 0.000000 
0.094610 -0.062701 0.000665 0.554902 0.325490 0.292157 0.000000 
-0.099703 -0.041442 -0.004148 0.637255 0.325490 0.092157 0.000000 
-0.063637 -0.075363 -0.007228 1.000000 0.849020 0.596732 0.000000 
-0.058072 -0.080858 -0.023541 1.000000 0.840523 0.605229 0.000000 
-0.097795 -0.049924 -0.005088 0.633824 0.402451 0.162255 0.000000 
-0.066290 -0.076040 -0.017370 0.998431 0.812941 0.583529 0.000000 
-0.017971 -0.091312 -0.034105 0.950980 0.728431 0.512745 0.000000 
-0.031291 -0.087110 -0.031409 1.000000 0.795098 0.528431 0.000000 
-0.101233 -0.050085 -0.016563 0.590196 0.338235 0.172549 0.000000 
-0.284954 0.023321 -0.010998 0.950980 0.684314 0.480392 1.000000 
-0.027702 -0.097779 -0.059595 0.979085 0.711111 0.537255 0.000000 
-0.022922 -0.100295 -0.067369 0.564706 0.278431 0.124183 0.000000 
-0.141470 -0.030264 -0.018439 0.882353 0.682843 0.660294 0.250000 
-0.076393 -0.069531 -0.060899 0.537255 0.229412 0.190196 0.000000 
-0.259916 0.011084 0.014331 0.901176 0.771765 0.805882 1.000000 
-0.304707 0.045970 -0.018227 0.380392 0.186275 0.258824 1.000000 
-0.289366 0.016520 0.020612 0.948529 0.646078 0.544118 1.000000 
-0.260185 0.004107 -0.023436 1.000000 0.913725 0.729412 1.000000 
-0.299594 0.029791 0.011940 0.392810 0.151634 0.174510 1.000000 
-0.291711 0.026353 -0.014546 0.836275 0.567647 0.508824 1.000000 
0.013715 -0.091934 -0.096223 0.447059 0.170588 0.111765 0.000000 
-0.102226 -0.050145 -0.082719 0.999020 0.766667 0.520588 0.000000 
-0.247334 -0.007426 -0.077485 1.000000 0.858824 0.701961 1.000000 
-0.257460 0.006336 -0.076264 0.549020 0.276471 0.200000 1.000000 
-0.099872 -0.059182 -0.161198 0.490196 0.201961 0.170588 0.000000 
0.027995 -0.090823 -0.179783 0.564706 0.286275 0.190196 0.000000 
-0.128462 -0.053485 -0.178244 0.519608 0.229412 0.162745 0.000000 
-0.155569 -0.035967 -0.169283 0.607843 0.311765 0.141176 0.000000 
-0.147533 -0.041356 -0.166368 0.954902 0.693137 0.401961 0.000000 
-0.165501 -0.044557 -0.187819 1.000000 0.847059 0.637255 0.000000 
-0.149054 -0.045839 -0.163088 0.485784 0.201961 0.062745 0.250000 
-0.229383 -0.013186 -0.156532 0.900980 0.627451 0.545098 1.000000 
-0.249684 -0.010648 -0.179233 0.943137 0.668627 0.572549 1.000000 
-0.261950 0.004070 -0.146422 0.430392 0.166667 0.158824 1.000000 
-0.212516 -0.030918 -0.194300 0.986274 0.776471 0.578431 0.000000 
-0.235598 -0.017939 -0.178877 0.866667 0.581373 0.550980 1.000000 
-0.218522 -0.022702 -0.206832 0.958824 0.686275 0.511765 1.000000 
-0.220237 -0.033909 -0.228241 0.580392 0.300000 0.250980 1.000000 
0.023810 -0.118317 -0.286608 0.552288 0.284314 0.188235 0.000000 
0.021859 -0.117312 -0.301448 0.668627 0.405882 0.213725 0.000000 
-0.000379 -0.125344 -0.317943 0.674510 0.423529 0.207843 0.000000 
0.060448 0.032577 0.289105 0.668627 0.401961 0.249020 0.000000 
-0.012038 -0.031497 0.196314 0.610458 0.302614 0.151634 0.000000 
-0.036541 -0.063182 0.135811 0.992157 0.814706 0.437255 0.000000 
-0.117242 -0.018712 0.144803 0.581699 0.441830 0.269281 0.000000 
-0.072872 -0.030219 0.130743 0.964706 0.729412 0.445098 0.000000 
-0.042668 -0.063045 0.096259 0.525490 0.241176 0.054902 0.000000 
-0.005918 -0.058368 0.015390 0.303922 0.133333 0.101961 0.000000 
-0.012386 -0.062239 0.013299 0.298039 0.101961 0.070588 0.000000 
-0.017816 -0.067120 0.014513 0.357516 0.128105 0.084967 0.000000 
0.091376 -0.048687 0.017877 0.472549 0.207843 0.215686 0.000000 
-0.022828 -0.074359 0.010316 0.414379 0.159477 0.109804 0.000000 
-0.031141 -0.089813 -0.015593 0.972549 0.723529 0.500000 0.000000 
0.097079 -0.066008 -0.023541 0.285621 0.118301 0.130065 0.000000 
-0.296250 0.023819 0.038810 0.666176 0.384314 0.202941 1.000000 
0.022056 -0.083943 -0.094551 0.555556 0.281046 0.231373 0.000000 
-0.246261 -0.000514 -0.076134 0.421569 0.142157 0.119608 1.000000 
-0.008282 -0.094573 -0.154480 0.411765 0.176471 0.190196 0.000000 
-0.134494 -0.019111 -0.119713 0.923529 0.756863 0.627451 0.000000 
-0.119605 -0.047590 -0.128487 0.995098 0.781373 0.486275 0.250000 
0.002271 -0.097075 -0.181559 0.539216 0.250980 0.209804 0.000000 
0.019351 -0.099109 -0.182420 0.480392 0.194608 0.106373 0.000000 
-0.137290 -0.034196 -0.151985 0.984314 0.794118 0.552941 0.000000 
-0.095321 -0.060966 -0.166593 0.470588 0.200000 0.196078 0.000000 
0.000552 -0.109523 -0.217822 0.776471 0.515686 0.262745 0.000000 
0.033959 -0.091898 -0.209714 0.492157 0.227451 0.194118 0.000000 
-0.253172 -0.005751 -0.173443 0.484314 0.201961 0.223529 1.000000 
-0.147940 -0.056104 -0.223298 0.601961 0.296078 0.192157 0.000000 
0.010677 -0.127530 -0.315411 0.652941 0.389216 0.209314 0.000000 
0.276394 0.160393 0.332292 0.313726 0.351634 0.424837 0.000000 
0.032794 -0.005466 0.270095 0.933333 0.720261 0.606536 0.000000 
0.030789 0.113507 0.197489 0.281373 0.156863 0.075490 0.000000 
0.045537 0.115662 0.195926 0.314706 0.148039 0.104902 0.000000 
0.033480 0.117138 0.184722 0.396078 0.214379 0.156863 0.000000 
0.082295 -0.030235 0.046054 1.000000 0.958824 0.915686 0.000000 
-0.086952 -0.060167 0.018872 0.662745 0.394118 0.217647 0.000000 
-0.031235 -0.077360 0.006887 0.461275 0.172549 0.137255 0.000000 
-0.042327 -0.075209 -0.004375 0.611275 0.285784 0.220588 0.000000 
0.091779 -0.061285 -0.013667 0.876471 0.711765 0.670588 0.000000 
-0.257491 0.007484 -0.050012 0.549020 0.249020 0.164706 1.000000 
-0.105681 -0.047710 -0.087305 0.987745 0.738725 0.466176 0.000000 
-0.248258 -0.010539 -0.170935 0.464706 0.196078 0.188235 1.000000 
-0.226053 -0.011917 -0.137385 0.611111 0.324837 0.276471 1.000000 
-0.179417 -0.042463 -0.202057 0.896078 0.668627 0.431373 0.000000 
-0.007409 -0.114662 -0.280638 0.974510 0.863725 0.586275 0.000000 
0.047287 0.027497 0.296674 0.479216 0.161961 0.155294 0.000000 
0.044530 0.015371 0.292147 0.980392 0.714706 0.456863 0.000000 
-0.072763 -0.033329 0.115909 0.958824 0.717647 0.415686 0.000000 
-0.085581 -0.041610 0.036765 0.907843 0.680392 0.345098 0.000000 
-0.092697 -0.042794 -0.002585 0.950980 0.711765 0.396078 0.000000 
-0.049872 -0.080081 -0.017999 0.576797 0.276144 0.231699 0.000000 
-0.097754 -0.050308 -0.026296 0.560784 0.286275 0.219608 0.000000 
-0.261634 0.000010 -0.136597 0.439216 0.160784 0.164706 1.000000 
-0.164154 -0.026703 -0.143619 0.693137 0.399020 0.286275 0.500000 
-0.187748 -0.037693 -0.188097 0.541176 0.241176 0.238235 0.000000 
0.072723 -0.084397 -0.289884 0.817647 0.670588 0.535294 0.000000 
0.047360 0.005948 0.275143 0.938235 0.706863 0.494118 0.000000 
-0.065477 -0.014156 0.229892 0.853333 0.649804 0.264314 0.000000 
-0.127065 -0.041419 -0.143147 0.923529 0.743137 0.435294 0.000000 
-0.045275 -0.020706 0.199981 0.935294 0.762745 0.378431 0.000000 
-0.065734 -0.032686 0.150421 0.881863 0.673039 0.345588 0.000000 
-0.014420 -0.083042 0.122143 0.962745 0.651961 0.639216 0.000000 
-0.035801 -0.081537 -0.019993 0.987059 0.783922 0.491373 0.000000 
-0.071055 -0.036738 0.109327 0.984314 0.784314 0.447059 0.000000 
-0.307073 0.042165 0.026188 0.895425 0.630065 0.367320 1.000000 
-0.305832 0.041738 0.005794 0.555882 0.327451 0.337255 1.000000 
-0.156271 -0.046308 -0.226647 0.161176 0.126667 0.236078 0.400000 
-0.002450 -0.109015 -0.286910 0.723529 0.473203 0.218301 0.000000 
0.053364 -0.082506 -0.275894 0.903922 0.664706 0.378431 0.000000 
0.034269 0.004812 0.251222 0.467974 0.275817 0.328105 0.000000 
-0.018279 -0.076358 -0.019540 0.727451 0.486275 0.236275 0.000000 
-0.184658 -0.047318 -0.236252 0.733333 0.433333 0.315686 0.000000 
-0.197657 -0.021898 -0.234453 0.189542 0.137255 0.252288 0.333333 
0.022097 -0.003873 0.282270 0.772549 0.552941 0.403922 0.000000 
0.027241 -0.006219 0.264442 0.588235 0.343137 0.319608 0.000000 
-0.066882 -0.011947 0.230898 0.829412 0.719608 0.643137 0.000000 
-0.062189 -0.054844 0.075806 1.000000 0.786274 0.519608 0.000000 
-0.306787 0.037367 0.010989 0.556863 0.286275 0.194118 1.000000 
-0.005027 -0.101690 -0.110446 0.878431 0.607843 0.513726 0.000000 
-0.095331 -0.056560 -0.123024 0.900980 0.620588 0.518627 0.000000 
-0.247677 -0.005894 -0.117284 0.607843 0.323529 0.192157 1.000000 
-0.125696 -0.054893 -0.170856 0.968627 0.671569 0.588235 0.500000 
-0.219614 -0.023763 -0.144517 0.606863 0.319608 0.162745 1.000000 
-0.153814 -0.050229 -0.197705 0.977451 0.702941 0.592157 0.500000 
-0.149650 -0.051951 -0.193744 0.884314 0.586275 0.506863 0.500000 
-0.143708 -0.051069 -0.198199 0.928105 0.633987 0.554902 0.333333 
-0.230061 -0.107519 -0.326832 0.605882 0.633333 0.907190 1.000000 
0.244699 0.203997 0.332957 0.330719 0.366667 0.420915 0.000000 
-0.101961 -0.017914 0.164945 0.862745 0.831373 0.813725 0.000000 
-0.110320 -0.023196 0.152170 0.551961 0.354902 0.207843 0.000000 
-0.024363 -0.069952 0.019377 0.398039 0.152941 0.091176 0.000000 
-0.055534 -0.081081 -0.017501 1.000000 0.825490 0.535294 0.000000 
0.019313 -0.114964 -0.261857 0.841176 0.562745 0.413725 0.000000 
0.051500 0.034162 0.301208 0.809804 0.615686 0.484314 0.000000 
-0.069622 -0.013907 0.229281 0.922549 0.800000 0.708824 0.000000 
0.023292 -0.110625 -0.235609 1.000000 0.795098 0.628431 0.000000 
0.017354 -0.090233 -0.185299 0.931373 0.680392 0.464706 0.000000 
-0.198868 0.730709 0.327628 0.229412 0.180392 0.298039 1.000000 
0.043960 0.039526 0.310094 0.352941 0.303922 0.366667 0.000000 
0.043906 0.019381 0.301140 1.000000 0.733333 0.500000 0.000000 
0.055949 0.042798 0.300283 0.350980 0.286275 0.368627 0.000000 
0.028023 -0.003913 0.271708 0.803922 0.578431 0.474510 0.000000 
-0.003578 -0.016301 0.256152 0.704902 0.426471 0.237255 0.000000 
0.022697 -0.012403 0.252847 0.986274 0.741176 0.703922 0.000000 
0.010507 -0.014469 0.250477 0.982353 0.736274 0.668628 0.000000 
-0.003142 -0.016915 0.247067 0.694118 0.369608 0.247059 0.000000 
0.009191 -0.012907 0.244738 1.000000 0.713726 0.639216 0.000000 
-0.054028 -0.014215 0.235759 0.988235 0.870588 0.678431 0.000000 
0.004746 -0.019245 0.233328 0.951634 0.641830 0.576471 0.000000 
-0.016969 -0.023172 0.228650 1.000000 0.713726 0.549020 0.000000 
-0.053809 -0.017771 0.209687 0.558824 0.225490 0.035294 0.000000 
0.003270 -0.023399 0.208078 0.515686 0.231373 0.164706 0.000000 
-0.083599 -0.018146 0.197243 1.000000 0.903922 0.491176 0.000000 
-0.087201 -0.017074 0.191147 0.468627 0.315686 0.137255 0.000000 
0.042939 0.121616 0.208637 0.884314 0.760784 0.696078 0.000000 
0.010319 0.095409 0.199057 0.824510 0.654902 0.719608 0.000000 
0.014996 0.092377 0.193771 0.512745 0.266667 0.194118 0.000000 
-0.019056 -0.048033 0.166573 1.000000 0.803922 0.447059 0.000000 
-0.052953 -0.040956 0.158879 0.982353 0.770588 0.519608 0.000000 
0.003564 -0.047665 0.155934 0.927451 0.645098 0.459804 0.000000 
-0.026631 -0.061177 0.149361 1.000000 0.804902 0.513726 0.000000 
-0.050267 -0.048292 0.147986 1.000000 0.872549 0.523529 0.000000 
0.010359 -0.047139 0.147121 0.351961 0.097059 0.027451 0.000000 
-0.059298 -0.049638 0.116222 1.000000 0.878431 0.574510 0.000000 
0.000903 -0.089755 0.094896 0.968627 0.627451 0.641176 0.000000 
-0.138040 -0.021981 0.096495 0.490196 0.294118 0.094118 0.000000 
-0.138201 -0.023518 0.101337 0.977778 0.832680 0.600000 0.333333 
-0.037796 -0.064394 0.078829 0.973856 0.718954 0.616993 0.000000 
-0.035327 -0.066636 0.070758 0.468627 0.221569 0.119608 0.000000 
-0.119721 -0.021515 0.087360 0.519608 0.298039 0.164706 0.000000 
-0.068874 -0.050713 0.079977 0.983333 0.699020 0.496078 0.000000 
-0.049364 -0.065303 0.054022 0.964706 0.784314 0.580392 0.000000 
-0.077093 -0.050235 0.057884 0.939216 0.641176 0.474510 0.000000 
-0.038027 -0.066901 0.049896 0.951634 0.739869 0.579085 0.000000 
-0.122132 -0.033290 0.058497 0.867647 0.793137 0.767647 0.000000 
-0.034749 -0.067531 0.034852 1.000000 0.780392 0.671896 0.000000 
-0.023909 -0.066482 0.033652 0.346078 0.140196 0.059804 0.000000 
-0.025497 -0.065084 0.028259 0.327451 0.129412 0.054902 0.000000 
-0.046026 -0.074815 0.020243 0.486275 0.186275 0.000000 0.000000 
-0.021561 -0.066226 0.022241 0.837255 0.589216 0.542157 0.000000 
-0.048475 -0.074010 0.010970 0.601961 0.305882 0.107843 0.000000 
-0.038150 -0.071817 0.010433 1.000000 0.796078 0.672549 0.000000 
-0.035649 -0.073168 0.011021 0.475817 0.185621 0.151634 0.000000 
-0.319518 0.036523 0.068515 0.764706 0.499020 0.320588 1.000000 
-0.281380 0.030808 0.035744 0.817647 0.701961 0.705882 1.000000 
0.002498 -0.084486 -0.027360 0.611765 0.345098 0.152941 0.000000 
-0.291660 0.019848 0.050591 0.623529 0.329412 0.194771 1.000000 
-0.264664 0.014683 0.010360 0.852941 0.705882 0.719608 1.000000 
-0.025759 -0.096024 -0.050908 0.535294 0.247059 0.045098 0.000000 
-0.294849 0.018423 0.034703 0.871895 0.572549 0.501961 1.000000 
-0.134770 -0.026965 -0.016309 0.876471 0.641176 0.409804 0.000000 
-0.278395 0.014460 0.005532 0.821569 0.525490 0.503922 1.000000 
-0.274045 0.011750 -0.000591 0.888235 0.598039 0.517647 1.000000 
-0.279377 0.012267 -0.002227 0.421569 0.129412 0.096078 1.000000 
-0.274402 0.012025 -0.008347 0.607843 0.303922 0.243137 1.000000 
-0.096009 -0.052601 -0.055603 0.550980 0.258824 0.133333 0.000000 
-0.275640 0.012582 -0.015750 0.641176 0.331373 0.260784 1.000000 
-0.028590 -0.102909 -0.085993 0.900000 0.619608 0.513726 0.000000 
-0.264159 0.005163 -0.043403 0.931373 0.635294 0.609804 1.000000 
-0.080428 -0.060142 -0.084475 0.821569 0.560784 0.470588 0.000000 
0.029760 -0.087476 -0.118203 0.788235 0.527451 0.468627 0.000000 
-0.247938 -0.008802 -0.040835 0.998039 0.788235 0.645098 1.000000 
0.001987 -0.098827 -0.135166 0.791176 0.507843 0.457843 0.000000 
0.013275 0.100080 -0.041003 0.378431 0.382353 0.603922 0.000000 
-0.005481 -0.100646 -0.140013 0.750980 0.496078 0.496078 0.000000 
-0.071632 -0.060208 -0.118659 0.743137 0.496078 0.500000 0.000000 
-0.069052 -0.058935 -0.121013 0.358824 0.123529 0.123529 0.000000 
-0.088255 -0.056187 -0.116836 0.964706 0.697059 0.643137 0.000000 
-0.272119 0.003517 -0.061163 0.454902 0.181373 0.180392 1.000000 
-0.002223 -0.095893 -0.160002 0.954902 0.656863 0.564706 0.000000 
0.037346 0.086706 -0.067751 0.307843 0.332353 0.556863 0.000000 
-0.264440 -0.001837 -0.066661 0.866667 0.564706 0.463726 1.000000 
-0.267774 0.009119 -0.086462 0.915686 0.633333 0.509804 1.000000 
-0.132611 -0.044459 -0.127100 0.980392 0.752941 0.466667 0.000000 
-0.128551 -0.047237 -0.117607 0.569608 0.288235 0.127451 0.000000 
-0.091977 -0.058244 -0.134206 0.734314 0.448039 0.448039 0.000000 
-0.113253 -0.055973 -0.147811 0.864706 0.568627 0.441176 0.000000 
-0.104436 -0.055840 -0.137509 0.963399 0.715033 0.618301 0.333333 
0.023380 0.061906 -0.097270 0.690196 0.460784 0.421569 0.000000 
-0.229614 -0.013385 -0.115236 1.000000 0.839216 0.643137 1.000000 
-0.250187 -0.006612 -0.090222 0.549020 0.250980 0.237255 1.000000 
-0.242467 -0.008396 -0.119469 0.872549 0.590196 0.490196 1.000000 
-0.008872 -0.097816 -0.191680 0.964706 0.735294 0.505882 0.000000 
-0.115800 -0.054627 -0.160967 0.970588 0.682353 0.556863 0.000000 
-0.089829 -0.054983 -0.154387 0.896078 0.621569 0.607843 0.000000 
-0.109214 -0.053680 -0.159543 0.938235 0.647059 0.600980 0.000000 
-0.246117 -0.008114 -0.135819 0.913725 0.639216 0.590196 1.000000 
0.015561 -0.109539 -0.218986 0.513726 0.223529 0.078431 0.000000 
-0.191621 -0.028691 -0.154725 0.950980 0.707843 0.547059 0.000000 
-0.251936 -0.010792 -0.115706 0.520588 0.223529 0.184314 1.000000 
-0.189060 -0.031442 -0.160088 0.450980 0.149020 0.084314 0.000000 
-0.115118 -0.054841 -0.168075 0.983333 0.704902 0.641176 0.000000 
-0.228523 -0.017395 -0.156268 0.972549 0.700000 0.533333 1.000000 
-0.164709 -0.041526 -0.180306 1.000000 0.705882 0.556863 0.000000 
0.020888 -0.113957 -0.247602 0.804902 0.524510 0.400000 0.000000 
-0.247663 -0.009817 -0.137593 0.704575 0.427451 0.449673 1.000000 
-0.242936 -0.010346 -0.166101 0.452941 0.200000 0.168627 1.000000 
-0.199695 -0.034040 -0.186292 0.956863 0.670588 0.523529 0.000000 
-0.190713 -0.037210 -0.191644 0.968627 0.670588 0.556863 0.000000 
-0.245770 -0.002658 -0.172175 0.350980 0.176471 0.243137 1.000000 
0.046796 -0.122515 -0.323853 1.000000 0.792157 0.613725 0.000000 
0.066246 -0.115668 -0.329250 0.870588 0.574510 0.515686 0.000000 
0.014805 -0.007930 0.273407 1.000000 0.852288 0.718954 0.000000 
-0.023036 -0.013274 0.250501 1.000000 0.782353 0.511765 0.000000 
0.013436 -0.014022 0.249640 0.525490 0.223529 0.172549 0.000000 
0.053272 0.036907 0.242409 1.000000 0.939216 0.970588 0.000000 
0.051982 0.039870 0.235059 0.323529 0.125490 0.152941 0.000000 
-0.030920 -0.026537 0.222041 1.000000 0.776471 0.527451 0.000000 
-0.023218 -0.034428 0.202450 1.000000 0.899020 0.638235 0.000000 
-0.020611 -0.037064 0.188620 1.000000 0.836601 0.562092 0.000000 
-0.021722 -0.040946 0.182572 0.996078 0.772549 0.479739 0.000000 
0.017960 0.091337 0.185324 0.362745 0.200000 0.117647 0.000000 
0.026680 0.117123 0.182375 0.319608 0.203922 0.178431 0.000000 
-0.031741 -0.065432 0.046611 0.986928 0.800000 0.712418 0.000000 
-0.027342 -0.065699 0.036153 0.999020 0.799020 0.712745 0.000000 
-0.040659 -0.070042 0.030351 0.996078 0.794771 0.577778 0.000000 
-0.000063 -0.053967 0.017654 0.274510 0.098039 0.064706 0.000000 
-0.002854 -0.066258 0.004656 0.488235 0.276471 0.103922 0.000000 
-0.050956 -0.077632 -0.006699 1.000000 0.800000 0.566667 0.000000 
0.094018 -0.073149 -0.043954 0.401961 0.268627 0.352941 0.000000 
-0.016971 -0.093163 -0.042581 0.956863 0.671895 0.475817 0.000000 
-0.273665 0.016841 0.007927 0.494118 0.178431 0.141176 1.000000 
-0.284907 0.012942 0.023154 0.875490 0.597059 0.550000 1.000000 
-0.253132 0.006310 -0.023067 0.413725 0.129412 0.035294 1.000000 
-0.278567 0.016726 -0.022891 0.501961 0.207843 0.166667 1.000000 
-0.280265 0.010332 -0.007644 0.981373 0.697059 0.545098 1.000000 
-0.127253 -0.020088 -0.056432 0.960784 0.850980 0.653922 0.000000 
0.015276 -0.098596 -0.111184 0.566667 0.292157 0.172549 0.000000 
-0.273126 0.012131 -0.082070 0.474510 0.186275 0.184314 1.000000 
-0.124702 -0.047639 -0.120655 0.977778 0.724183 0.636601 0.333333 
-0.086678 -0.052754 -0.150094 0.421569 0.164706 0.215686 0.000000 
-0.212429 -0.023627 -0.126919 0.478431 0.190196 0.142157 1.000000 
-0.155004 -0.048498 -0.174985 0.917647 0.613725 0.558824 0.000000 
-0.123054 -0.056462 -0.188721 0.472549 0.198039 0.166667 0.000000 
-0.226850 -0.016524 -0.194664 0.374510 0.172549 0.231373 1.000000 
0.060859 -0.058930 -0.258599 1.000000 0.949020 0.954902 0.000000 
0.038259 -0.111437 -0.306344 0.997059 0.774510 0.500980 0.000000 
0.051743 0.018481 0.284225 0.719608 0.425490 0.301961 0.000000 
-0.019168 -0.059443 0.155255 0.996078 0.811765 0.462745 0.000000 
0.018825 0.096693 0.176067 0.273203 0.175163 0.168627 0.000000 
-0.276190 0.013709 0.013919 1.000000 0.711765 0.566667 1.000000 
0.002111 -0.098800 -0.091896 0.525490 0.249020 0.168627 0.000000 
0.036146 0.084518 -0.087340 0.512418 0.332026 0.266667 0.000000 
-0.176104 -0.021023 -0.124831 0.935294 0.805882 0.590196 0.000000 
-0.183729 -0.021536 -0.145562 0.596078 0.303922 0.198039 0.000000 
-0.239039 -0.010151 -0.168026 0.900000 0.672549 0.537255 1.000000 
-0.015621 -0.104651 -0.274290 0.555882 0.296078 0.044118 0.000000 
0.076018 -0.080210 -0.303800 0.134314 0.068627 0.133333 0.000000 
0.038429 -0.124410 -0.333036 0.722876 0.465359 0.441830 0.000000 
-0.047265 -0.049333 0.150457 1.000000 0.858824 0.511765 0.000000 
0.007113 0.091838 0.173847 0.299020 0.160784 0.135294 0.000000 
0.093401 -0.054867 0.009911 0.856863 0.623529 0.596078 0.000000 
0.096413 -0.065422 -0.045182 0.986274 0.894118 0.874510 0.000000 
-0.160232 -0.031822 -0.129695 0.979412 0.777451 0.515686 0.000000 
-0.181376 -0.034036 -0.168944 0.547059 0.247059 0.200000 0.000000 
-0.088050 -0.018666 0.201575 0.989542 0.996078 0.647059 0.000000 
0.020783 0.107229 0.184620 0.658824 0.552941 0.419608 0.000000 
-0.060992 -0.081924 -0.065258 0.509804 0.272549 0.286275 0.000000 
0.025825 0.101828 -0.060876 0.558824 0.343137 0.267647 0.000000 
-0.187968 -0.039129 -0.203345 0.223529 0.138562 0.214379 0.333333 
-0.080870 -0.041167 0.085457 0.890196 0.650980 0.333333 0.000000 
-0.057603 -0.075554 -0.008631 0.825490 0.603922 0.286275 0.000000 
-0.266325 -0.002230 -0.070672 0.916340 0.624837 0.453595 1.000000 
0.034185 -0.117297 -0.307449 0.978431 0.739216 0.480392 0.000000 
0.021465 0.094448 0.190309 0.436601 0.226144 0.198693 0.000000 
0.034869 0.031800 0.307508 0.874510 0.722876 0.305882 0.000000 
-0.115852 -0.049179 -0.092755 0.587255 0.309804 0.345098 0.000000 
0.027061 -0.106106 -0.278982 0.601961 0.339216 0.290196 0.000000 
-0.111968 -0.033864 -0.057925 0.708824 0.405882 0.232353 0.000000 
-0.006441 -0.067753 0.026099 0.370588 0.180392 0.149020 0.000000 
0.013701 -0.009317 0.276658 0.798039 0.598039 0.437255 0.000000 
-0.103880 -0.018767 0.164421 1.000000 0.801961 0.511765 0.000000 
0.004627 -0.100264 -0.108195 0.878431 0.607843 0.500000 0.000000 
-0.253854 -0.005449 -0.070559 0.549020 0.256863 0.131373 1.000000 
-0.241197 -0.013736 -0.130911 0.531373 0.243137 0.211765 1.000000 
-0.141976 -0.050386 -0.182366 0.484314 0.178431 0.111765 1.000000 
0.028389 -0.111495 -0.240381 0.545098 0.256863 0.166667 0.000000 
-0.190808 -0.040247 -0.167754 0.628431 0.321569 0.204902 0.500000 
-0.200776 -0.034155 -0.176814 0.901961 0.609804 0.566667 1.000000 
0.068659 -0.118538 -0.329076 0.576471 0.300000 0.190196 0.000000 
-0.165642 -0.039778 -0.138745 0.452941 0.160784 0.117647 1.000000 
0.020976 0.106332 0.177189 0.341176 0.243137 0.201961 0.000000 
0.250061 0.229273 0.170298 0.413725 0.449020 0.685294 0.000000 
0.153586 0.374355 0.112704 0.501961 0.535294 0.758824 1.000000 
0.018096 0.033925 0.312326 0.245098 0.196078 0.266667 0.000000 
0.039475 0.018738 0.292326 0.982353 0.694118 0.541176 0.000000 
0.053529 0.040740 0.292708 0.937255 0.762745 0.629412 0.000000 
0.026220 -0.004206 0.279489 1.000000 0.856863 0.703922 0.000000 
-0.004744 -0.017296 0.259055 1.000000 0.762745 0.566667 0.000000 
0.017723 -0.011320 0.253871 0.980392 0.701961 0.654902 0.000000 
-0.030795 -0.010041 0.255186 0.915686 0.696078 0.554902 0.000000 
-0.036159 -0.009964 0.254262 0.919608 0.829412 0.794118 0.000000 
-0.002854 -0.022971 0.239298 0.641176 0.327451 0.190196 0.000000 
-0.049415 -0.014815 0.239896 0.901961 0.784314 0.694118 0.000000 
-0.044548 -0.016272 0.238461 0.917647 0.723529 0.611765 0.000000 
-0.000884 -0.023007 0.232857 0.998039 0.696078 0.592157 0.000000 
0.000164 -0.023226 0.226236 0.998039 0.711765 0.625490 0.000000 
-0.009246 -0.030485 0.225021 0.954902 0.609804 0.488235 0.000000 
-0.028028 -0.038089 0.190489 1.000000 0.943137 0.625490 0.000000 
-0.014097 -0.036845 0.188261 1.000000 0.758824 0.568627 0.000000 
-0.004045 -0.037999 0.175718 0.739216 0.460784 0.205882 0.000000 
-0.003929 -0.042919 0.171038 0.986274 0.717647 0.429412 0.000000 
0.011284 0.092748 0.192368 0.807843 0.578431 0.484314 0.000000 
-0.015811 -0.057074 0.160523 1.000000 0.776471 0.447059 0.000000 
-0.112566 -0.025155 0.164263 0.994118 0.815686 0.511765 0.000000 
0.009086 0.086667 0.178168 0.378431 0.194118 0.107843 0.000000 
0.008065 -0.052089 0.146538 0.821569 0.533333 0.472549 0.000000 
0.004163 0.080706 0.176047 0.817647 0.627451 0.531373 0.000000 
0.001528 0.079889 0.173582 0.315686 0.121569 0.049020 0.000000 
0.035272 0.127699 0.176761 0.345098 0.174510 0.096078 0.000000 
-0.006827 0.077449 0.165398 0.270588 0.147059 0.117647 0.000000 
0.039744 0.130170 0.174040 0.250980 0.121569 0.123529 0.000000 
0.017153 -0.090120 0.077581 0.976471 0.686275 0.650980 0.000000 
-0.126307 -0.027367 0.103550 0.564706 0.409804 0.305882 0.000000 
0.010729 -0.100044 0.066522 0.968627 0.645098 0.621569 0.000000 
0.007593 -0.101135 0.065152 0.637255 0.311765 0.296078 0.000000 
-0.072546 -0.052490 0.072161 0.619608 0.319608 0.166667 0.000000 
-0.039310 -0.066299 0.061968 0.970588 0.713726 0.578431 0.000000 
-0.097466 -0.029649 0.077944 0.450980 0.160784 0.070588 0.000000 
-0.321327 0.032864 0.097587 0.409804 0.386275 0.623529 1.000000 
-0.313597 0.020715 0.078467 0.931373 0.660784 0.498039 1.000000 
-0.015115 -0.073912 0.006091 0.856863 0.605882 0.390196 0.000000 
-0.012630 -0.073620 -0.000387 1.000000 0.868627 0.649020 0.000000 
0.009807 -0.067200 -0.009726 0.952941 0.737255 0.600000 0.000000 
-0.289121 0.007193 0.050653 0.864706 0.554902 0.488235 1.000000 
-0.282020 0.005114 0.037425 0.874510 0.549020 0.501961 1.000000 
0.010321 -0.083548 -0.040333 1.000000 0.794118 0.656863 0.000000 
0.099748 -0.070682 -0.046521 0.407843 0.415686 0.611765 0.000000 
0.094414 -0.085892 -0.054429 0.464706 0.260784 0.301961 0.000000 
-0.268142 -0.000451 0.014859 0.886275 0.576471 0.521569 1.000000 
-0.255839 -0.001475 0.006767 0.452941 0.217647 0.145098 1.000000 
-0.004297 -0.097666 -0.069796 0.864706 0.594118 0.505882 0.000000 
-0.020371 -0.099988 -0.070227 0.535294 0.245098 0.100000 0.000000 
-0.017664 -0.099733 -0.074445 0.917647 0.631373 0.505882 0.000000 
-0.283800 0.005481 0.004085 0.950980 0.656863 0.566667 1.000000 
-0.073418 -0.067253 -0.060202 0.401961 0.141176 0.105882 0.000000 
-0.011965 -0.100731 -0.090750 0.892157 0.609804 0.511765 0.000000 
-0.264728 -0.000925 -0.012205 0.866667 0.558824 0.482353 1.000000 
-0.269466 -0.004614 -0.019096 0.656863 0.350980 0.250980 1.000000 
0.009989 -0.095668 -0.110569 0.821569 0.543137 0.468627 0.000000 
0.001779 -0.101769 -0.120027 0.874510 0.598039 0.513726 0.000000 
0.032715 -0.077377 -0.113759 0.447059 0.180392 0.158824 0.000000 
0.023470 -0.092776 -0.129011 0.735294 0.452941 0.411765 0.000000 
0.029318 -0.090889 -0.129682 0.768627 0.490196 0.439216 0.000000 
0.019972 -0.094246 -0.140921 0.537255 0.260784 0.221569 0.000000 
-0.094863 -0.055120 -0.111295 0.390196 0.119608 0.047059 0.000000 
-0.270409 -0.004506 -0.064576 0.849020 0.556863 0.447059 1.000000 
0.011227 0.065298 -0.091204 0.766667 0.537255 0.478431 0.000000 
-0.231266 -0.018705 -0.090517 0.529412 0.239216 0.237255 1.000000 
-0.218919 -0.016089 -0.091969 0.554902 0.296078 0.152941 1.000000 
0.009224 0.061922 -0.094664 0.535294 0.300000 0.227451 0.000000 
0.002750 -0.098823 -0.175936 0.521569 0.233333 0.139216 0.000000 
0.021613 0.066716 -0.096708 0.666667 0.443137 0.386275 0.000000 
-0.245689 -0.014790 -0.092544 0.609804 0.325490 0.262745 1.000000 
-0.124731 -0.049608 -0.132375 0.923529 0.621569 0.460784 0.000000 
-0.233200 -0.016818 -0.096426 0.560784 0.243137 0.268627 1.000000 
-0.102490 -0.055103 -0.141699 0.933333 0.666667 0.635294 0.000000 
-0.106896 -0.055643 -0.142704 0.441176 0.150980 0.115686 0.000000 
-0.096742 -0.053211 -0.149111 0.876471 0.603922 0.613725 0.000000 
0.015333 0.057162 -0.112325 0.752941 0.531373 0.468627 0.000000 
-0.092636 -0.057444 -0.154491 0.468627 0.203922 0.215686 0.000000 
-0.211978 -0.022130 -0.116098 0.525490 0.229412 0.176471 1.000000 
-0.240316 -0.019757 -0.112765 0.474510 0.172549 0.101961 1.000000 
-0.246939 -0.011794 -0.109082 0.839216 0.531373 0.513726 1.000000 
-0.127852 -0.054560 -0.155091 0.439216 0.149020 0.074510 0.000000 
-0.244669 -0.014620 -0.115040 0.527451 0.205882 0.207843 1.000000 
-0.144894 -0.052874 -0.156260 0.903922 0.590196 0.519608 0.000000 
-0.116560 -0.054159 -0.164979 0.705882 0.460784 0.484314 0.000000 
-0.240378 -0.018564 -0.125238 0.962745 0.727451 0.592157 1.000000 
-0.214954 -0.031441 -0.145741 0.956863 0.666667 0.562745 1.000000 
0.040257 0.037770 0.310393 0.325490 0.282353 0.356863 0.000000 
0.035738 0.026032 0.305388 0.872549 0.721569 0.305882 0.000000 
0.048010 0.025272 0.289447 0.370588 0.064706 0.011765 0.000000 
0.025797 -0.012171 0.273359 1.000000 0.896078 0.756863 0.000000 
0.035276 -0.005096 0.270490 1.000000 0.894118 0.713726 0.000000 
0.073512 0.046111 0.268401 0.882353 0.647059 0.552941 0.000000 
0.071228 0.053372 0.266596 0.521569 0.403922 0.427451 0.000000 
0.031852 -0.002884 0.245837 0.400000 0.158824 0.200000 0.000000 
0.045789 0.014075 0.244745 1.000000 0.949020 0.921569 0.000000 
0.009063 -0.017018 0.226040 0.976471 0.676471 0.613725 0.000000 
0.005915 -0.019547 0.197628 0.488235 0.211765 0.203922 0.000000 
-0.081553 -0.023560 0.196558 0.478431 0.360784 0.258824 0.000000 
-0.110243 -0.021249 0.177815 1.000000 0.986274 0.805882 0.000000 
-0.013458 -0.054352 0.161799 1.000000 0.766667 0.470588 0.000000 
0.012376 -0.043041 0.149901 0.923529 0.662745 0.513726 0.000000 
-0.058027 -0.042936 0.152132 0.974510 0.762745 0.425490 0.000000 
-0.047240 -0.059845 0.112422 0.862745 0.576471 0.360784 0.000000 
-0.131034 -0.023949 0.127121 0.947059 0.945098 0.850980 0.000000 
-0.057242 -0.057575 0.089628 0.984314 0.731373 0.496078 0.000000 
-0.056571 -0.060007 0.071764 1.000000 0.815686 0.531373 0.000000 
-0.028572 -0.064013 0.054018 0.335294 0.123529 0.049020 0.000000 
-0.024670 -0.064227 0.051403 0.754902 0.531373 0.476471 0.000000 
-0.017236 -0.064635 0.037824 0.303922 0.086275 0.027451 0.000000 
-0.129423 -0.025556 0.044133 0.472549 0.256863 0.207843 0.000000 
0.005084 -0.053017 0.011703 0.635294 0.415686 0.341176 0.000000 
0.101002 -0.062180 -0.016198 0.431373 0.288235 0.270588 0.000000 
0.007160 -0.084539 -0.037009 0.625490 0.364706 0.184314 0.000000 
-0.108226 -0.045681 -0.017209 0.982353 0.782353 0.539216 0.000000 
0.007873 -0.093280 -0.060067 0.933333 0.654902 0.509804 0.000000 
-0.084660 -0.058985 -0.063366 0.978431 0.719608 0.588235 0.000000 
-0.087701 -0.060034 -0.071645 0.919608 0.635294 0.525490 0.000000 
0.024181 -0.094300 -0.119657 0.747059 0.468627 0.401961 0.000000 
-0.262506 -0.006646 -0.045403 0.905882 0.600000 0.488235 1.000000 
-0.255508 -0.009251 -0.050479 0.921569 0.621569 0.500000 1.000000 
-0.253881 -0.011127 -0.056816 0.650980 0.341176 0.294118 1.000000 
-0.139936 -0.042503 -0.113704 0.423529 0.160784 0.158824 0.000000 
-0.256857 -0.009913 -0.077056 0.982353 0.735294 0.629412 1.000000 
-0.187964 -0.022032 -0.102557 0.845098 0.713726 0.539216 0.000000 
-0.195930 -0.022006 -0.101630 0.611765 0.329412 0.184314 0.000000 
-0.171483 -0.035472 -0.114536 1.000000 0.868627 0.660784 0.000000 
-0.215941 -0.022496 -0.100426 0.970588 0.727451 0.550980 1.000000 
-0.151512 -0.042839 -0.173181 0.998039 0.715686 0.709804 0.000000 
-0.161120 -0.044177 -0.172711 0.884314 0.594118 0.605882 0.000000 
-0.011235 -0.112653 -0.282375 0.964706 0.721569 0.456863 0.000000 
0.070661 -0.051078 -0.271235 0.284314 0.264706 0.505882 0.000000 
0.069643 -0.053722 -0.277150 0.884314 0.768627 0.803922 0.000000 
0.033389 0.033559 0.310163 1.000000 0.886275 0.611765 0.000000 
0.043040 0.039268 0.300276 0.882353 0.645098 0.456863 0.000000 
0.063099 0.043583 0.287612 0.998039 0.811765 0.549020 0.000000 
0.061423 0.029729 0.276420 0.635294 0.374510 0.203922 0.000000 
-0.003011 -0.021523 0.250569 0.996078 0.719608 0.547059 0.000000 
-0.007698 -0.021344 0.241258 0.968627 0.698039 0.513726 0.000000 
0.040618 0.119935 0.195809 0.227451 0.101961 0.031373 0.000000 
-0.318103 0.030353 0.094966 0.845098 0.690196 0.625490 1.000000 
-0.308505 0.015100 0.070540 0.923529 0.613725 0.488235 1.000000 
-0.289514 0.009364 0.062837 0.984314 0.729412 0.501961 1.000000 
-0.294846 0.009187 0.062351 0.570588 0.260784 0.213725 1.000000 
-0.287814 0.008904 0.034000 0.905882 0.611765 0.554902 1.000000 
-0.276402 -0.000999 -0.008780 0.550980 0.243137 0.231373 1.000000 
0.014045 -0.093601 -0.095395 0.533333 0.247059 0.188235 0.000000 
-0.268636 -0.004359 -0.014897 0.854902 0.539216 0.484314 1.000000 
-0.258610 -0.004577 -0.069147 0.509804 0.201961 0.215686 1.000000 
-0.200757 -0.028897 -0.127287 0.970588 0.731373 0.498039 0.000000 
-0.131080 -0.050460 -0.182414 0.394118 0.188235 0.249020 0.000000 
-0.036553 -0.014600 0.236836 1.000000 0.792157 0.588235 0.000000 
0.028960 0.121287 0.180631 0.819608 0.688235 0.558824 0.000000 
-0.307140 0.027077 0.063855 0.798039 0.509804 0.458824 1.000000 
-0.113217 -0.039243 -0.041431 0.958824 0.754902 0.443137 0.000000 
-0.127777 -0.040560 -0.092987 1.000000 0.843137 0.484314 0.000000 
0.024128 0.070188 -0.092494 0.523529 0.319608 0.247059 0.000000 
-0.252646 -0.012720 -0.084611 0.635294 0.341176 0.296078 1.000000 
-0.236932 -0.017985 -0.115525 0.964706 0.711765 0.513726 1.000000 
0.069343 0.047328 0.277137 0.898039 0.623529 0.437255 0.000000 
0.085908 -0.042523 0.018802 1.000000 0.954902 0.939216 0.000000 
0.032787 0.085323 -0.084354 1.000000 0.956863 0.921569 0.000000 
-0.224884 -0.021266 -0.102882 0.956863 0.711765 0.425490 1.000000 
0.100474 -0.064498 -0.026176 1.000000 0.958824 0.923529 0.000000 
0.077124 -0.102243 -0.341196 0.166667 0.111765 0.207843 0.000000 
-0.020130 -0.007992 0.262486 0.976471 0.721569 0.490196 0.000000 
0.061568 0.036265 0.279161 0.958824 0.733333 0.464706 0.000000 
0.046196 -0.062784 -0.274433 0.925490 0.678431 0.392157 0.000000 
