0.072134 0.053436 0.292520 0.427451 0.349020 0.392157 0.000000 
0.009990 -0.005121 0.279381 0.999020 0.868627 0.682353 0.000000 
0.019666 -0.004309 0.276115 1.000000 0.909804 0.784314 0.000000 
0.068480 0.035724 0.281520 0.570588 0.313726 0.225490 0.000000 
0.026722 -0.009394 0.263568 1.000000 0.884874 0.804762 0.000000 
0.006646 -0.013524 0.257318 1.000000 0.767647 0.637255 0.000000 
0.044908 0.017234 0.255696 1.000000 0.943137 0.980392 0.000000 
0.016846 -0.013536 0.245495 0.983193 0.696639 0.642297 0.000000 
-0.029592 -0.013148 0.236711 1.000000 0.754902 0.547059 0.000000 
-0.001689 -0.019396 0.234305 1.000000 0.709804 0.600000 0.000000 
-0.066705 -0.016669 0.222960 0.468627 0.345098 0.191503 0.000000 
-0.005131 -0.024714 0.216732 1.000000 0.738235 0.630392 0.000000 
-0.022961 -0.025668 0.213065 1.000000 0.713726 0.492157 0.000000 
-0.020653 -0.028969 0.209750 0.676471 0.384314 0.182353 0.000000 
-0.009071 -0.028766 0.203406 1.000000 0.770588 0.658824 0.000000 
-0.035427 -0.026522 0.199456 1.000000 0.768627 0.482353 0.000000 
0.024008 0.114912 0.216564 0.306863 0.276471 0.355882 0.000000 
-0.028305 -0.040135 0.178955 0.976471 0.797386 0.457516 0.000000 
0.045945 0.114711 0.208653 0.258824 0.129412 0.168627 0.000000 
0.040094 0.117396 0.207491 0.827451 0.778431 0.823529 0.000000 
-0.011187 -0.043111 0.170990 0.703922 0.446078 0.156863 0.000000 
-0.026602 -0.057301 0.149820 1.000000 0.868627 0.505882 0.000000 
0.039258 0.117996 0.190609 0.325490 0.188235 0.078431 0.000000 
-0.117531 -0.012959 0.149304 1.000000 0.982353 0.913725 0.000000 
-0.011873 -0.069140 0.137194 0.980392 0.643137 0.643137 0.000000 
-0.052333 -0.052815 0.125285 1.000000 0.790196 0.484314 0.000000 
-0.037734 -0.062367 0.115992 0.441176 0.137255 0.000000 0.000000 
-0.052580 -0.054718 0.106962 1.000000 0.794118 0.515686 0.000000 
-0.039117 -0.063118 0.094334 1.000000 0.786928 0.654902 0.000000 
-0.061167 -0.052648 0.095893 0.997059 0.743137 0.519608 0.000000 
-0.054371 -0.055713 0.090332 1.000000 0.786274 0.584314 0.000000 
-0.044625 -0.061337 0.092379 0.937255 0.683660 0.492810 0.000000 
-0.058691 -0.053225 0.087787 0.572549 0.266667 0.101961 0.000000 
-0.035633 -0.066048 0.081240 0.849020 0.584314 0.460784 0.000000 
-0.134166 -0.020353 0.091766 0.962745 0.909804 0.868627 0.000000 
-0.041976 -0.063009 0.077747 0.882353 0.586928 0.464052 0.000000 
-0.056692 -0.059212 0.071619 1.000000 0.823529 0.568627 0.000000 
-0.138822 -0.026010 0.121039 0.915490 0.834118 0.771765 0.100000 
-0.062285 -0.054983 0.073472 1.000000 0.808824 0.540196 0.000000 
-0.051064 -0.060731 0.071636 1.000000 0.764706 0.581699 0.000000 
-0.052809 -0.060783 0.062494 0.974510 0.666667 0.519608 0.000000 
-0.043499 -0.063259 0.062350 0.558824 0.278431 0.101961 0.000000 
0.014203 -0.103130 0.049674 0.617647 0.303922 0.309804 0.000000 
-0.044474 -0.064736 0.058359 0.478431 0.194118 0.072549 0.000000 
-0.051967 -0.061295 0.064459 0.522876 0.228105 0.062092 0.000000 
-0.048153 -0.063184 0.061958 0.990686 0.774020 0.626961 0.000000 
-0.022976 -0.065136 0.051241 0.931373 0.774510 0.715686 0.000000 
-0.046757 -0.063803 0.054280 0.436275 0.182353 0.016667 0.000000 
-0.038859 -0.067014 0.048657 0.956863 0.717647 0.588235 0.000000 
-0.068329 -0.054389 0.051271 1.000000 0.752941 0.527451 0.000000 
-0.056031 -0.062674 0.049996 0.925490 0.650980 0.456209 0.000000 
-0.097260 -0.023781 0.052719 0.478431 0.213725 0.060784 0.000000 
-0.043453 -0.068413 0.043343 0.965686 0.712745 0.550980 0.000000 
-0.076944 -0.051805 0.038183 0.592157 0.294118 0.080392 0.000000 
0.049955 -0.084723 0.026764 0.596078 0.286275 0.256863 0.000000 
-0.095461 -0.028193 0.042119 0.900000 0.588235 0.429412 0.000000 
-0.044196 -0.068697 0.035772 0.984314 0.745882 0.589804 0.000000 
-0.048027 -0.068235 0.031379 0.563399 0.274510 0.120261 0.000000 
-0.077072 -0.052932 0.032137 1.000000 0.745098 0.521569 0.000000 
-0.042904 -0.069322 0.029971 0.454902 0.196078 0.017647 0.000000 
-0.119377 0.079434 0.126467 0.301471 0.323039 0.531373 0.750000 
-0.132052 -0.027730 0.037068 0.894118 0.860784 0.817647 0.000000 
-0.024433 -0.069830 0.018181 0.402941 0.168627 0.098039 0.000000 
-0.050395 -0.070840 0.011744 0.981699 0.739869 0.487582 0.000000 
-0.044133 -0.074022 0.013453 0.999020 0.789216 0.580882 0.000000 
-0.051915 -0.074663 -0.000519 0.998039 0.698039 0.472549 0.000000 
-0.042829 -0.076703 -0.001300 0.547059 0.254902 0.076471 0.000000 
-0.074463 -0.061521 0.002805 0.962745 0.715686 0.466667 0.000000 
-0.149519 -0.023491 0.034555 0.995294 0.876471 0.582353 0.400000 
-0.076383 -0.060549 -0.000598 1.000000 0.823529 0.545098 0.000000 
-0.053877 -0.077020 -0.008468 1.000000 0.762745 0.525490 0.000000 
-0.299527 0.043915 0.012439 0.437255 0.398039 0.603922 1.000000 
-0.062271 -0.083227 -0.039594 0.915686 0.615686 0.488235 0.000000 
0.001981 -0.087118 -0.046135 0.694118 0.411765 0.272549 0.000000 
-0.085266 -0.063575 -0.038016 0.958824 0.674510 0.535294 0.000000 
-0.028435 -0.096515 -0.053554 1.000000 0.780392 0.570588 0.000000 
-0.082637 -0.065424 -0.043001 0.496078 0.196078 0.066667 0.000000 
-0.021909 -0.096735 -0.055770 1.000000 0.788235 0.590196 0.000000 
-0.079749 -0.068303 -0.046347 0.896078 0.588235 0.480392 0.000000 
-0.286525 0.021879 -0.017023 0.962745 0.656863 0.533333 1.000000 
-0.078379 -0.069443 -0.056495 0.907843 0.607843 0.531373 0.000000 
-0.040167 -0.096578 -0.070163 1.000000 0.792157 0.658824 0.000000 
-0.091619 -0.054036 -0.058638 0.937255 0.627451 0.564706 0.000000 
0.011531 -0.091927 -0.073983 0.815033 0.534641 0.460131 0.000000 
-0.007806 -0.098048 -0.072016 0.478431 0.191503 0.071569 0.000000 
-0.046289 -0.093141 -0.078633 0.952941 0.672549 0.492157 0.000000 
-0.010055 -0.100997 -0.083051 0.871895 0.594771 0.452288 0.000000 
-0.022302 -0.104430 -0.090140 0.868627 0.594118 0.496078 0.000000 
-0.003357 -0.099490 -0.087721 0.886275 0.615686 0.512745 0.000000 
-0.074794 -0.070261 -0.078449 0.876471 0.590196 0.537255 0.000000 
-0.034274 -0.103144 -0.094519 0.990196 0.750980 0.627451 0.000000 
-0.042690 -0.098509 -0.094055 0.476471 0.188235 0.086275 0.000000 
-0.099201 -0.050329 -0.076189 0.886275 0.590196 0.486275 0.000000 
-0.093700 -0.054980 -0.081072 0.941176 0.701961 0.517647 0.000000 
-0.089698 -0.057728 -0.072524 0.912418 0.635294 0.445752 0.000000 
-0.009006 -0.102518 -0.107424 0.492810 0.209150 0.159477 0.000000 
-0.094437 -0.052438 -0.069705 0.537908 0.266667 0.075817 0.000000 
-0.247538 0.010025 -0.060601 0.701961 0.564706 0.649020 1.000000 
-0.280091 0.021019 -0.056418 0.821569 0.550980 0.505882 1.000000 
-0.092097 -0.056416 -0.085498 0.922876 0.658824 0.456209 0.000000 
-0.260974 0.003893 -0.074396 0.845098 0.556863 0.468627 1.000000 
-0.245789 -0.003594 -0.080318 0.460784 0.290196 0.201961 1.000000 
-0.113476 -0.051568 -0.084945 0.379608 0.132941 0.057647 0.200000 
-0.007253 -0.099855 -0.148811 0.729412 0.467974 0.482353 0.000000 
-0.007175 -0.097925 -0.163759 0.888235 0.600000 0.515686 0.000000 
-0.111019 -0.053655 -0.144754 0.943137 0.633333 0.537255 0.000000 
-0.162941 -0.027848 -0.103968 0.837255 0.764706 0.798039 0.333333 
-0.115665 -0.051337 -0.119819 0.977124 0.709150 0.537908 0.333333 
-0.238513 -0.015799 -0.137878 0.929412 0.676471 0.531373 1.000000 
-0.272436 0.013871 -0.111232 0.875490 0.603922 0.455882 1.000000 
0.006927 -0.108106 -0.210574 1.000000 0.816993 0.583007 0.000000 
-0.149290 -0.037518 -0.181197 0.894118 0.647059 0.386275 0.000000 
-0.113011 -0.058100 -0.185100 0.976471 0.708824 0.647059 0.000000 
-0.245281 -0.009039 -0.168570 0.871569 0.587255 0.521569 1.000000 
-0.208796 -0.025792 -0.185883 0.858824 0.569608 0.497059 0.000000 
-0.250680 -0.007995 -0.198130 0.782353 0.523529 0.501961 1.000000 
-0.194548 -0.037883 -0.217768 0.939216 0.692157 0.431373 0.000000 
-0.146125 -0.051453 -0.211594 0.928431 0.622549 0.516667 0.000000 
-0.236229 -0.013581 -0.208925 0.801961 0.529412 0.484314 1.000000 
0.018870 -0.114895 -0.272721 0.907843 0.627451 0.458824 0.000000 
-0.166879 -0.047812 -0.215083 0.933333 0.631373 0.516340 0.333333 
-0.230088 -0.027380 -0.221330 0.986274 0.698039 0.598039 1.000000 
-0.021699 -0.097024 -0.265818 0.858824 0.723529 0.666667 0.000000 
-0.161181 -0.053501 -0.239319 0.433333 0.149020 0.082353 0.000000 
-0.146592 -0.056017 -0.225015 0.400000 0.111111 0.056209 0.333333 
-0.206108 -0.039596 -0.237013 0.509804 0.237255 0.145098 0.000000 
-0.162309 -0.053819 -0.249832 0.815686 0.545098 0.525490 0.000000 
-0.155193 -0.052890 -0.181463 0.505882 0.219608 0.228627 0.000000 
-0.240588 -0.011249 -0.198597 0.929412 0.670588 0.589542 1.000000 
-0.184850 -0.042549 -0.245935 0.850980 0.564706 0.464706 0.000000 
-0.219714 -0.030645 -0.240695 0.933333 0.662745 0.641176 1.000000 
-0.168853 -0.052281 -0.256947 0.780392 0.494118 0.503922 0.000000 
0.016443 -0.132387 -0.312822 0.992157 0.750980 0.498039 0.000000 
0.036351 -0.116185 -0.315705 0.570588 0.282353 0.178431 0.000000 
0.044044 -0.114489 -0.316204 0.488235 0.213725 0.129412 0.000000 
0.059685 -0.119817 -0.331228 0.443137 0.177124 0.168627 0.000000 
0.017907 -0.127022 -0.328512 0.843137 0.579085 0.461438 0.000000 
-0.257476 -0.002915 -0.268317 0.731373 0.756863 0.962745 1.000000 
0.015760 0.034535 0.315251 0.894118 0.752941 0.588235 0.000000 
0.035425 0.019399 0.307404 1.000000 0.950980 0.635294 0.000000 
0.060446 0.047804 0.295156 0.368627 0.330065 0.443137 0.000000 
0.040056 0.013149 0.301048 0.976471 0.719608 0.523529 0.000000 
0.058713 0.042657 0.291749 0.952157 0.749020 0.511765 0.000000 
0.047650 0.027675 0.299907 0.470588 0.166667 0.115686 0.000000 
0.062308 0.047162 0.301293 0.947059 0.782353 0.647059 0.000000 
0.065255 0.048933 0.294818 0.415033 0.328105 0.392157 0.000000 
0.002399 -0.022086 0.243214 0.982073 0.684314 0.556022 0.000000 
0.007882 -0.020388 0.230329 0.533824 0.210294 0.159804 0.000000 
-0.009896 -0.022053 0.229340 1.000000 0.726471 0.585294 0.000000 
-0.063426 -0.017035 0.228312 1.000000 0.905229 0.521895 0.000000 
-0.050857 -0.029273 0.188539 1.000000 0.841176 0.527451 0.000000 
0.036645 0.101118 0.208357 0.311765 0.147059 0.100000 0.000000 
0.043703 0.118209 0.206733 0.935294 0.888235 0.923529 0.000000 
-0.006399 -0.048431 0.168883 0.970588 0.722059 0.411765 0.000000 
0.036290 0.118368 0.193399 0.970588 0.901961 0.913725 0.000000 
-0.061247 -0.035462 0.150216 0.986274 0.782353 0.488235 0.000000 
-0.025336 -0.067617 0.116064 0.852941 0.590196 0.572549 0.000000 
-0.040642 -0.064427 0.062684 0.996078 0.779412 0.612745 0.000000 
-0.037553 -0.067506 0.058463 0.412745 0.161765 0.040196 0.000000 
-0.055562 -0.062387 0.053622 1.000000 0.852941 0.594118 0.000000 
-0.027526 -0.067181 0.041891 0.329412 0.111765 0.050980 0.000000 
-0.046668 -0.069056 0.040849 0.474510 0.200000 0.029412 0.000000 
-0.030279 -0.068826 0.042583 0.456078 0.209412 0.115686 0.000000 
-0.030288 -0.070872 0.024426 0.404902 0.162745 0.055882 0.000000 
-0.047888 -0.068919 0.034593 0.990476 0.781232 0.558824 0.000000 
-0.041225 -0.069672 0.036914 0.987675 0.771989 0.555182 0.000000 
0.059097 -0.077566 0.004499 0.327451 0.164706 0.252941 0.000000 
-0.046116 -0.074503 0.003488 0.997647 0.798823 0.609412 0.000000 
0.094610 -0.062701 0.000665 0.554902 0.325490 0.292157 0.000000 
-0.099703 -0.041442 -0.004148 0.637255 0.325490 0.092157 0.000000 
-0.063637 -0.075363 -0.007228 1.000000 0.849020 0.596732 0.000000 
-0.058072 -0.080858 -0.023541 1.000000 0.840523 0.605229 0.000000 
-0.097795 -0.049924 -0.005088 0.633824 0.402451 0.162255 0.000000 
-0.066290 -0.076040 -0.017370 0.998431 0.812941 0.583529 0.000000 
-0.017972 -0.092014 -0.038259 0.950980 0.739216 0.505882 0.000000 
-0.031291 -0.087110 -0.031409 1.000000 0.795098 0.528431 0.000000 
-0.101233 -0.050085 -0.016563 0.590196 0.338235 0.172549 0.000000 
-0.284954 0.023321 -0.010998 0.950980 0.684314 0.480392 1.000000 
-0.027508 -0.098001 -0.060450 0.984314 0.718137 0.544608 0.000000 
-0.022922 -0.100295 -0.067369 0.564706 0.278431 0.124183 0.000000 
-0.138175 -0.038580 0.017938 0.889706 0.702941 0.679167 0.250000 
-0.076393 -0.069531 -0.060899 0.537255 0.229412 0.190196 0.000000 
-0.259916 0.011084 0.014331 0.901176 0.771765 0.805882 1.000000 
-0.304707 0.045970 -0.018227 0.380392 0.186275 0.258824 1.000000 
-0.290478 0.003797 0.048116 0.948366 0.640850 0.535948 1.000000 
-0.260185 0.004107 -0.023436 1.000000 0.913725 0.729412 1.000000 
-0.299594 0.029791 0.011940 0.392810 0.151634 0.174510 1.000000 
-0.291711 0.026353 -0.014546 0.836275 0.567647 0.508824 1.000000 
0.013715 -0.091934 -0.096223 0.447059 0.170588 0.111765 0.000000 
-0.102226 -0.050145 -0.082719 0.999020 0.766667 0.520588 0.000000 
-0.247334 -0.007426 -0.077485 1.000000 0.858824 0.701961 1.000000 
-0.261220 0.003913 -0.043660 0.557843 0.275490 0.190196 1.000000 
-0.115311 -0.047871 -0.131186 0.501961 0.235294 0.170588 0.000000 
-0.099872 -0.059182 -0.161198 0.490196 0.201961 0.170588 0.000000 
0.027995 -0.090823 -0.179783 0.564706 0.286275 0.190196 0.000000 
-0.128462 -0.053485 -0.178244 0.519608 0.229412 0.162745 0.000000 
-0.155569 -0.035967 -0.169283 0.607843 0.311765 0.141176 0.000000 
-0.147533 -0.041356 -0.166368 0.954902 0.693137 0.401961 0.000000 
-0.165501 -0.044557 -0.187819 1.000000 0.847059 0.637255 0.000000 
-0.150266 -0.045786 -0.143925 0.498039 0.214379 0.082353 0.333333 
-0.229383 -0.013186 -0.156532 0.900980 0.627451 0.545098 1.000000 
-0.249684 -0.010648 -0.179233 0.943137 0.668627 0.572549 1.000000 
-0.261950 0.004070 -0.146422 0.430392 0.166667 0.158824 1.000000 
-0.212516 -0.030918 -0.194300 0.986274 0.776471 0.578431 0.000000 
-0.235598 -0.017939 -0.178877 0.866667 0.581373 0.550980 1.000000 
-0.218522 -0.022702 -0.206832 0.958824 0.686275 0.511765 1.000000 
-0.220237 -0.033909 -0.228241 0.580392 0.300000 0.250980 0.000000 
0.023055 -0.116965 -0.283637 0.560784 0.289706 0.192647 0.000000 
0.021859 -0.117312 -0.301448 0.668627 0.405882 0.213725 0.000000 
-0.000379 -0.125344 -0.317943 0.674510 0.423529 0.207843 0.000000 
0.060448 0.032577 0.289105 0.668627 0.401961 0.249020 0.000000 
-0.012019 -0.032002 0.198671 0.583754 0.275910 0.128852 0.000000 
-0.036541 -0.063182 0.135811 0.992157 0.814706 0.437255 0.000000 
-0.117242 -0.018712 0.144803 0.581699 0.441830 0.269281 0.000000 
-0.072872 -0.030219 0.130743 0.964706 0.729412 0.445098 0.000000 
-0.042668 -0.063045 0.096259 0.525490 0.241176 0.054902 0.000000 
-0.006270 -0.056121 0.017054 0.307843 0.124510 0.097059 0.000000 
-0.012386 -0.062239 0.013299 0.298039 0.101961 0.070588 0.000000 
-0.017945 -0.066808 0.017393 0.369608 0.132843 0.098039 0.000000 
0.091376 -0.048687 0.017877 0.472549 0.207843 0.215686 0.000000 
-0.023654 -0.072430 0.017903 0.420000 0.151765 0.099216 0.000000 
0.094567 -0.056117 -0.005874 0.260784 0.094118 0.139216 0.000000 
-0.297429 0.017566 0.052165 0.681569 0.396078 0.224314 1.000000 
0.022164 -0.083911 -0.094777 0.550000 0.272549 0.226471 0.000000 
-0.246261 -0.000514 -0.076134 0.421569 0.142157 0.119608 1.000000 
-0.008282 -0.094573 -0.154480 0.411765 0.176471 0.190196 0.000000 
-0.134494 -0.019111 -0.119713 0.923529 0.756863 0.627451 0.000000 
-0.120125 -0.047586 -0.118270 0.996078 0.777255 0.488235 0.200000 
0.002271 -0.097075 -0.181559 0.539216 0.250980 0.209804 0.000000 
0.019115 -0.098621 -0.179902 0.480784 0.194510 0.100784 0.000000 
-0.137290 -0.034196 -0.151985 0.984314 0.794118 0.552941 0.000000 
-0.095321 -0.060966 -0.166593 0.470588 0.200000 0.196078 0.000000 
0.000552 -0.109523 -0.217822 0.776471 0.515686 0.262745 0.000000 
0.033959 -0.091898 -0.209714 0.492157 0.227451 0.194118 0.000000 
-0.253172 -0.005751 -0.173443 0.484314 0.201961 0.223529 1.000000 
-0.147940 -0.056104 -0.223298 0.601961 0.296078 0.192157 0.000000 
0.009519 -0.124649 -0.309166 0.657516 0.395752 0.217320 0.000000 
0.160892 0.251749 0.332289 0.308279 0.346841 0.414379 0.000000 
0.032794 -0.005466 0.270095 0.933333 0.720261 0.606536 0.000000 
0.030789 0.113507 0.197489 0.281373 0.156863 0.075490 0.000000 
0.045537 0.115662 0.195926 0.314706 0.148039 0.104902 0.000000 
0.033480 0.117138 0.184722 0.396078 0.214379 0.156863 0.000000 
-0.031235 -0.077360 0.006887 0.461275 0.172549 0.137255 0.000000 
-0.043371 -0.074086 0.009773 0.624650 0.298319 0.239496 0.000000 
0.091779 -0.061285 -0.013667 0.876471 0.711765 0.670588 0.000000 
-0.257491 0.007484 -0.050012 0.549020 0.249020 0.164706 1.000000 
-0.105493 -0.049422 -0.069719 0.992402 0.754412 0.480392 0.000000 
-0.248258 -0.010539 -0.170935 0.464706 0.196078 0.188235 1.000000 
-0.223707 -0.036243 -0.061837 0.543627 0.269853 0.224755 0.625000 
-0.179417 -0.042463 -0.202057 0.896078 0.668627 0.431373 0.000000 
-0.007152 -0.114638 -0.280313 0.966013 0.843137 0.560784 0.000000 
0.047287 0.027497 0.296674 0.479216 0.161961 0.155294 0.000000 
0.044530 0.015371 0.292147 0.980392 0.714706 0.456863 0.000000 
-0.072763 -0.033329 0.115909 0.958824 0.717647 0.415686 0.000000 
-0.085581 -0.041610 0.036765 0.907843 0.680392 0.345098 0.000000 
-0.092697 -0.042794 -0.002585 0.950980 0.711765 0.396078 0.000000 
-0.050383 -0.076662 -0.002172 0.592647 0.289216 0.252941 0.000000 
-0.097754 -0.050308 -0.026296 0.560784 0.286275 0.219608 0.000000 
-0.261634 0.000010 -0.136597 0.439216 0.160784 0.164706 1.000000 
-0.165269 -0.035262 -0.104955 0.665686 0.362745 0.260294 0.250000 
-0.187748 -0.037693 -0.188097 0.541176 0.241176 0.238235 0.000000 
0.072723 -0.084397 -0.289884 0.817647 0.670588 0.535294 0.000000 
0.050098 -0.000461 0.262352 0.960784 0.747339 0.536134 0.000000 
-0.065064 -0.015357 0.231548 0.860131 0.660458 0.276144 0.000000 
-0.127065 -0.041419 -0.143147 0.923529 0.743137 0.435294 0.000000 
-0.045275 -0.020706 0.199981 0.935294 0.762745 0.378431 0.000000 
-0.065734 -0.032686 0.150421 0.881863 0.673039 0.345588 0.000000 
-0.035761 -0.081437 -0.016866 0.977124 0.776144 0.483333 0.000000 
-0.071055 -0.036738 0.109327 0.984314 0.784314 0.447059 0.000000 
-0.307073 0.042165 0.026188 0.895425 0.630065 0.367320 1.000000 
-0.305832 0.041738 0.005794 0.555882 0.327451 0.337255 1.000000 
-0.157799 -0.048747 -0.193249 0.185839 0.135730 0.229412 0.444444 
-0.002524 -0.109463 -0.282999 0.747549 0.499510 0.229412 0.000000 
0.053364 -0.082506 -0.275894 0.903922 0.664706 0.378431 0.000000 
0.034269 0.004812 0.251222 0.467974 0.275817 0.328105 0.000000 
-0.018279 -0.076358 -0.019540 0.727451 0.486275 0.236275 0.000000 
-0.184658 -0.047318 -0.236252 0.733333 0.433333 0.315686 0.000000 
-0.194974 -0.046144 -0.146836 0.202317 0.179144 0.326203 0.454545 
0.025238 -0.008567 0.275760 0.793627 0.577451 0.435784 0.000000 
0.027241 -0.006219 0.264442 0.588235 0.343137 0.319608 0.000000 
-0.066882 -0.011947 0.230898 0.829412 0.719608 0.643137 0.000000 
-0.306787 0.037367 0.010989 0.556863 0.286275 0.194118 1.000000 
-0.095968 -0.056423 -0.111251 0.894771 0.614379 0.522222 0.000000 
-0.247677 -0.005894 -0.117284 0.607843 0.323529 0.192157 1.000000 
-0.125696 -0.054893 -0.170856 0.968627 0.671569 0.588235 0.500000 
-0.219771 -0.037599 -0.091503 0.609314 0.326471 0.162745 0.750000 
-0.155541 -0.048370 -0.182767 0.973856 0.701307 0.587582 0.333333 
-0.151523 -0.051112 -0.174203 0.888889 0.588235 0.509804 0.333333 
-0.144994 -0.050810 -0.177996 0.932549 0.636078 0.561961 0.400000 
-0.234946 -0.097343 -0.284670 0.599020 0.627778 0.896732 1.000000 
0.184511 0.251420 0.333089 0.332598 0.369608 0.416912 0.000000 
-0.101961 -0.017914 0.164945 0.862745 0.831373 0.813725 0.000000 
-0.110320 -0.023196 0.152170 0.551961 0.354902 0.207843 0.000000 
-0.055534 -0.081081 -0.017501 1.000000 0.825490 0.535294 0.000000 
-0.289250 0.015309 0.031747 0.554902 0.248039 0.195098 1.000000 
0.019313 -0.114964 -0.261857 0.841176 0.562745 0.413725 0.000000 
0.051500 0.034162 0.301208 0.809804 0.615686 0.484314 0.000000 
-0.069622 -0.013907 0.229281 0.922549 0.800000 0.708824 0.000000 
0.021317 -0.108239 -0.222767 0.993137 0.775000 0.618382 0.000000 
0.017354 -0.090233 -0.185299 0.931373 0.680392 0.464706 0.000000 
-0.198868 0.730709 0.327628 0.229412 0.180392 0.298039 1.000000 
0.043960 0.039526 0.310094 0.352941 0.303922 0.366667 0.000000 
0.043906 0.019381 0.301140 1.000000 0.733333 0.500000 0.000000 
0.055949 0.042798 0.300283 0.350980 0.286275 0.368627 0.000000 
0.028023 -0.003913 0.271708 0.803922 0.578431 0.474510 0.000000 
-0.003578 -0.016301 0.256152 0.704902 0.426471 0.237255 0.000000 
0.022697 -0.012403 0.252847 0.986274 0.741176 0.703922 0.000000 
0.011274 -0.015918 0.249748 0.956209 0.688889 0.621569 0.000000 
-0.003142 -0.016915 0.247067 0.694118 0.369608 0.247059 0.000000 
0.010063 -0.015304 0.243627 0.985294 0.688235 0.617647 0.000000 
-0.054028 -0.014215 0.235759 0.988235 0.870588 0.678431 0.000000 
0.004746 -0.019245 0.233328 0.951634 0.641830 0.576471 0.000000 
-0.016969 -0.023172 0.228650 1.000000 0.713726 0.549020 0.000000 
-0.053809 -0.017771 0.209687 0.558824 0.225490 0.035294 0.000000 
-0.083599 -0.018146 0.197243 1.000000 0.903922 0.491176 0.000000 
-0.087201 -0.017074 0.191147 0.468627 0.315686 0.137255 0.000000 
0.042939 0.121616 0.208637 0.884314 0.760784 0.696078 0.000000 
0.014453 0.093217 0.190679 0.505882 0.260784 0.192810 0.000000 
-0.018198 -0.050603 0.168499 1.000000 0.803922 0.452941 0.000000 
-0.052953 -0.040956 0.158879 0.982353 0.770588 0.519608 0.000000 
0.004784 -0.049297 0.158064 0.964052 0.693464 0.507190 0.000000 
-0.026147 -0.062230 0.151534 0.994118 0.786928 0.497386 0.000000 
-0.050267 -0.048292 0.147986 1.000000 0.872549 0.523529 0.000000 
0.010502 -0.047504 0.147813 0.327451 0.087451 0.014118 0.000000 
-0.059298 -0.049638 0.116222 1.000000 0.878431 0.574510 0.000000 
0.000903 -0.089755 0.094896 0.968627 0.627451 0.641176 0.000000 
-0.138040 -0.021981 0.096495 0.490196 0.294118 0.094118 0.000000 
-0.137442 -0.027772 0.116919 0.980952 0.833893 0.647059 0.000000 
-0.037796 -0.064394 0.078829 0.973856 0.718954 0.616993 0.000000 
-0.035327 -0.066636 0.070758 0.468627 0.221569 0.119608 0.000000 
-0.119721 -0.021515 0.087360 0.519608 0.298039 0.164706 0.000000 
-0.068874 -0.050713 0.079977 0.983333 0.699020 0.496078 0.000000 
-0.049364 -0.065303 0.054022 0.964706 0.784314 0.580392 0.000000 
-0.077093 -0.050235 0.057884 0.939216 0.641176 0.474510 0.000000 
-0.038391 -0.066379 0.053130 0.935784 0.707353 0.550490 0.000000 
-0.122132 -0.033290 0.058497 0.867647 0.793137 0.767647 0.000000 
-0.035464 -0.066534 0.042816 0.987745 0.748529 0.634804 0.000000 
-0.023655 -0.066995 0.036726 0.354902 0.133987 0.066667 0.000000 
-0.025497 -0.065084 0.028259 0.327451 0.129412 0.054902 0.000000 
-0.046026 -0.074815 0.020243 0.486275 0.186275 0.000000 0.000000 
-0.021673 -0.065864 0.025614 0.884314 0.629412 0.579739 0.000000 
-0.048475 -0.074010 0.010970 0.601961 0.305882 0.107843 0.000000 
-0.038150 -0.071817 0.010433 1.000000 0.796078 0.672549 0.000000 
-0.035870 -0.072955 0.015506 0.488627 0.198431 0.159216 0.000000 
-0.131297 -0.024721 0.028815 0.992157 0.800000 0.598039 0.000000 
-0.319518 0.036523 0.068515 0.764706 0.499020 0.320588 1.000000 
-0.283114 0.020507 0.044751 0.833333 0.695425 0.696732 1.000000 
0.002498 -0.084486 -0.027360 0.611765 0.345098 0.152941 0.000000 
-0.291660 0.019848 0.050591 0.623529 0.329412 0.194771 1.000000 
-0.311776 0.041372 0.032514 0.741176 0.474510 0.450980 1.000000 
-0.264664 0.014683 0.010360 0.852941 0.705882 0.719608 1.000000 
-0.025759 -0.096024 -0.050908 0.535294 0.247059 0.045098 0.000000 
-0.294849 0.018423 0.034703 0.871895 0.572549 0.501961 1.000000 
-0.134770 -0.026965 -0.016309 0.876471 0.641176 0.409804 0.000000 
-0.018962 -0.097956 -0.057346 0.586275 0.307843 0.143137 0.000000 
-0.278395 0.014460 0.005532 0.821569 0.525490 0.503922 1.000000 
-0.274045 0.011750 -0.000591 0.888235 0.598039 0.517647 1.000000 
-0.279377 0.012267 -0.002227 0.421569 0.129412 0.096078 1.000000 
-0.274402 0.012025 -0.008347 0.607843 0.303922 0.243137 1.000000 
-0.096009 -0.052601 -0.055603 0.550980 0.258824 0.133333 0.000000 
-0.278402 0.004102 0.012685 0.682353 0.364706 0.290196 1.000000 
-0.028590 -0.102909 -0.085993 0.900000 0.619608 0.513726 0.000000 
-0.264159 0.005163 -0.043403 0.931373 0.635294 0.609804 1.000000 
-0.080872 -0.059755 -0.075905 0.823529 0.557516 0.471895 0.000000 
0.029814 -0.087400 -0.117646 0.820588 0.553922 0.494118 0.000000 
-0.245528 -0.006704 -0.061139 0.998039 0.772549 0.629412 1.000000 
-0.276243 0.016558 -0.049507 0.531373 0.235294 0.166667 1.000000 
0.001932 -0.098664 -0.137365 0.790196 0.515686 0.464706 0.000000 
0.013275 0.100080 -0.041003 0.378431 0.382353 0.603922 0.000000 
-0.071632 -0.060208 -0.118659 0.743137 0.496078 0.500000 0.000000 
-0.069541 -0.057167 -0.108636 0.312745 0.087255 0.086275 0.000000 
-0.087777 -0.056261 -0.126275 1.000000 0.733333 0.678431 0.000000 
-0.002223 -0.095893 -0.160002 0.954902 0.656863 0.564706 0.000000 
0.036841 0.088253 -0.068765 0.298039 0.319608 0.545098 0.000000 
-0.264440 -0.001837 -0.066661 0.866667 0.564706 0.463726 1.000000 
-0.267774 0.009119 -0.086462 0.915686 0.633333 0.509804 1.000000 
-0.132611 -0.044459 -0.127100 0.980392 0.752941 0.466667 0.000000 
-0.128551 -0.047237 -0.117607 0.569608 0.288235 0.127451 0.000000 
-0.091977 -0.058244 -0.134206 0.734314 0.448039 0.448039 0.000000 
-0.113253 -0.055973 -0.147811 0.864706 0.568627 0.441176 0.000000 
-0.104436 -0.055840 -0.137509 0.963399 0.715033 0.618301 0.000000 
0.023380 0.061906 -0.097270 0.690196 0.460784 0.421569 0.000000 
-0.250187 -0.006612 -0.090222 0.549020 0.250980 0.237255 1.000000 
-0.242467 -0.008396 -0.119469 0.872549 0.590196 0.490196 1.000000 
-0.008872 -0.097816 -0.191680 0.964706 0.735294 0.505882 0.000000 
-0.115800 -0.054627 -0.160967 0.970588 0.682353 0.556863 0.000000 
-0.089829 -0.054983 -0.154387 0.896078 0.621569 0.607843 0.000000 
-0.109214 -0.053680 -0.159543 0.938235 0.647059 0.600980 0.000000 
-0.246117 -0.008114 -0.135819 0.913725 0.639216 0.590196 1.000000 
0.015561 -0.109539 -0.218986 0.513726 0.223529 0.078431 0.000000 
-0.191621 -0.028691 -0.154725 0.950980 0.707843 0.547059 0.000000 
-0.251936 -0.010792 -0.115706 0.520588 0.223529 0.184314 1.000000 
-0.189060 -0.031442 -0.160088 0.450980 0.149020 0.084314 0.000000 
-0.114324 -0.058632 -0.121954 0.902745 0.625098 0.567843 0.200000 
-0.228523 -0.017395 -0.156268 0.972549 0.700000 0.533333 1.000000 
-0.164709 -0.041526 -0.180306 1.000000 0.705882 0.556863 0.000000 
0.020888 -0.113957 -0.247602 0.804902 0.524510 0.400000 0.000000 
-0.193100 -0.035699 -0.182430 0.958824 0.678431 0.476471 0.000000 
-0.247663 -0.009817 -0.137593 0.704575 0.427451 0.449673 1.000000 
-0.242936 -0.010346 -0.166101 0.452941 0.200000 0.168627 1.000000 
-0.199695 -0.034040 -0.186292 0.956863 0.670588 0.523529 0.000000 
-0.190713 -0.037210 -0.191644 0.968627 0.670588 0.556863 0.000000 
-0.190268 -0.039896 -0.177676 0.620915 0.316340 0.193464 0.333333 
-0.245770 -0.002658 -0.172175 0.350980 0.176471 0.243137 1.000000 
-0.022063 -0.107575 -0.285139 0.905882 0.731373 0.619608 0.000000 
0.046796 -0.122515 -0.323853 1.000000 0.792157 0.613725 0.000000 
0.066232 -0.115716 -0.332613 0.894118 0.596078 0.549020 0.000000 
0.014966 -0.007871 0.273454 1.000000 0.852941 0.717647 0.000000 
-0.020794 -0.008461 0.269814 0.952941 0.833333 0.729412 0.000000 
-0.023036 -0.013274 0.250501 1.000000 0.782353 0.511765 0.000000 
0.013436 -0.014022 0.249640 0.525490 0.223529 0.172549 0.000000 
0.053272 0.036907 0.242409 1.000000 0.939216 0.970588 0.000000 
0.052649 0.038487 0.231205 0.321569 0.133987 0.165359 0.000000 
-0.030920 -0.026537 0.222041 1.000000 0.776471 0.527451 0.000000 
-0.022087 -0.036478 0.204519 1.000000 0.837745 0.576961 0.000000 
-0.020611 -0.037064 0.188620 1.000000 0.836601 0.562092 0.000000 
-0.021722 -0.040946 0.182572 0.996078 0.772549 0.479739 0.000000 
0.017960 0.091337 0.185324 0.362745 0.200000 0.117647 0.000000 
0.026680 0.117123 0.182375 0.319608 0.203922 0.178431 0.000000 
0.003124 0.085908 0.172889 0.307843 0.162745 0.145098 0.000000 
-0.031857 -0.065411 0.049413 0.953431 0.747549 0.657353 0.000000 
-0.020799 -0.062169 0.037215 0.933333 0.711765 0.641176 0.000000 
-0.027342 -0.065699 0.036153 0.999020 0.799020 0.712745 0.000000 
-0.000063 -0.053967 0.017654 0.274510 0.098039 0.064706 0.000000 
-0.002854 -0.066258 0.004656 0.488235 0.276471 0.103922 0.000000 
0.094018 -0.073149 -0.043954 0.401961 0.268627 0.352941 0.000000 
-0.017179 -0.092552 -0.038311 0.944314 0.660000 0.465490 0.000000 
-0.273665 0.016841 0.007927 0.494118 0.178431 0.141176 1.000000 
-0.278649 -0.027249 0.082710 0.928011 0.632493 0.596359 0.714286 
-0.253132 0.006310 -0.023067 0.413725 0.129412 0.035294 1.000000 
-0.278567 0.016726 -0.022891 0.501961 0.207843 0.166667 1.000000 
-0.280265 0.010332 -0.007644 0.981373 0.697059 0.545098 1.000000 
-0.127253 -0.020088 -0.056432 0.960784 0.850980 0.653922 0.000000 
0.015276 -0.098596 -0.111184 0.566667 0.292157 0.172549 0.000000 
-0.273126 0.012131 -0.082070 0.474510 0.186275 0.184314 1.000000 
-0.125529 -0.048879 -0.096631 0.950980 0.677311 0.594958 0.428571 
-0.086678 -0.052754 -0.150094 0.421569 0.164706 0.215686 0.000000 
-0.212429 -0.023627 -0.126919 0.478431 0.190196 0.142157 0.000000 
-0.155004 -0.048498 -0.174985 0.917647 0.613725 0.558824 0.000000 
-0.123054 -0.056462 -0.188721 0.472549 0.198039 0.166667 0.000000 
-0.226850 -0.016524 -0.194664 0.374510 0.172549 0.231373 1.000000 
0.060859 -0.058930 -0.258599 1.000000 0.949020 0.954902 0.000000 
0.038259 -0.111437 -0.306344 0.997059 0.774510 0.500980 0.000000 
0.051743 0.018481 0.284225 0.719608 0.425490 0.301961 0.000000 
-0.019168 -0.059443 0.155255 0.996078 0.811765 0.462745 0.000000 
0.017537 0.098508 0.173855 0.271078 0.174510 0.165686 0.000000 
-0.276190 0.013709 0.013919 1.000000 0.711765 0.566667 1.000000 
0.002111 -0.098800 -0.091896 0.525490 0.249020 0.168627 0.000000 
0.033559 0.086991 -0.097490 0.495425 0.307516 0.257843 0.000000 
-0.176104 -0.021023 -0.124831 0.935294 0.805882 0.590196 0.000000 
-0.183729 -0.021536 -0.145562 0.596078 0.303922 0.198039 0.000000 
-0.242067 -0.026774 -0.107721 0.903268 0.661438 0.541830 1.000000 
-0.015621 -0.104651 -0.274290 0.555882 0.296078 0.044118 0.000000 
0.036560 -0.122146 -0.322964 0.706373 0.446569 0.415441 0.000000 
-0.047265 -0.049333 0.150457 1.000000 0.858824 0.511765 0.000000 
0.007113 0.091838 0.173847 0.299020 0.160784 0.135294 0.000000 
0.093401 -0.054867 0.009911 0.856863 0.623529 0.596078 0.000000 
0.098684 -0.069370 -0.052407 0.984314 0.897386 0.881046 0.000000 
-0.160232 -0.031822 -0.129695 0.979412 0.777451 0.515686 0.000000 
-0.181376 -0.034036 -0.168944 0.547059 0.247059 0.200000 0.000000 
-0.087841 -0.019452 0.204521 0.988235 0.993137 0.635294 0.000000 
0.019828 0.108710 0.180963 0.663399 0.551634 0.411111 0.000000 
-0.060992 -0.081924 -0.065258 0.509804 0.272549 0.286275 0.000000 
0.025825 0.101828 -0.060876 0.558824 0.343137 0.267647 0.000000 
-0.187968 -0.039129 -0.203345 0.223529 0.138562 0.214379 0.333333 
-0.014848 -0.080309 0.124841 0.962745 0.650980 0.643137 0.000000 
-0.080870 -0.041167 0.085457 0.890196 0.650980 0.333333 0.000000 
-0.057603 -0.075554 -0.008631 0.825490 0.603922 0.286275 0.000000 
-0.266325 -0.002230 -0.070672 0.916340 0.624837 0.453595 1.000000 
0.034185 -0.117297 -0.307449 0.978431 0.739216 0.480392 0.000000 
0.021465 0.094448 0.190309 0.436601 0.226144 0.198693 0.000000 
0.036055 0.029922 0.301190 0.926362 0.773421 0.346405 0.000000 
-0.116084 -0.050681 -0.081386 0.576471 0.296078 0.326797 0.000000 
0.027061 -0.106106 -0.278982 0.601961 0.339216 0.290196 0.000000 
-0.110669 -0.038791 -0.050434 0.705229 0.397386 0.222222 0.000000 
-0.006441 -0.067753 0.026099 0.370588 0.180392 0.149020 0.000000 
0.015089 -0.011686 0.274909 0.803922 0.600980 0.440196 0.000000 
-0.103880 -0.018767 0.164421 1.000000 0.801961 0.511765 0.000000 
-0.257326 -0.024333 -0.015128 0.550980 0.247549 0.122059 1.000000 
-0.114903 -0.052192 -0.136535 0.911765 0.619608 0.490196 1.000000 
-0.241197 -0.013736 -0.130911 0.531373 0.243137 0.211765 1.000000 
-0.141976 -0.050386 -0.182366 0.484314 0.178431 0.111765 1.000000 
0.028389 -0.111495 -0.240381 0.545098 0.256863 0.166667 0.000000 
-0.204397 -0.037130 -0.146883 0.900000 0.612745 0.564706 0.500000 
0.020626 0.106716 0.171543 0.343137 0.246078 0.197059 0.000000 
0.185737 0.269561 0.168372 0.411274 0.447059 0.691176 0.000000 
0.031444 0.363369 0.136486 0.495009 0.524777 0.754367 0.636364 
0.018983 0.032454 0.310591 0.236275 0.181373 0.245098 0.000000 
0.042139 0.014486 0.289605 0.989216 0.689216 0.534314 0.000000 
0.053529 0.040740 0.292708 0.937255 0.762745 0.629412 0.000000 
0.026220 -0.004206 0.279489 1.000000 0.856863 0.703922 0.000000 
-0.004744 -0.017296 0.259055 1.000000 0.762745 0.566667 0.000000 
0.017723 -0.011320 0.253871 0.980392 0.701961 0.654902 0.000000 
-0.030795 -0.010041 0.255186 0.915686 0.696078 0.554902 0.000000 
-0.035198 -0.011853 0.256429 0.881176 0.769020 0.779216 0.000000 
-0.002854 -0.022971 0.239298 0.641176 0.327451 0.190196 0.000000 
-0.048343 -0.017007 0.241567 0.912745 0.799020 0.692157 0.000000 
-0.044548 -0.016272 0.238461 0.917647 0.723529 0.611765 0.000000 
-0.000884 -0.023007 0.232857 0.998039 0.696078 0.592157 0.000000 
0.000391 -0.023677 0.226505 0.998693 0.715033 0.630065 0.000000 
-0.009453 -0.030075 0.226157 0.955882 0.621569 0.496078 0.000000 
-0.028028 -0.038089 0.190489 1.000000 0.943137 0.625490 0.000000 
-0.013920 -0.037200 0.189465 1.000000 0.754248 0.554248 0.000000 
-0.010109 -0.040022 0.181377 0.968627 0.676471 0.452941 0.000000 
-0.003647 -0.038808 0.176409 0.733333 0.454902 0.201307 0.000000 
-0.004249 -0.042336 0.172136 0.986274 0.716667 0.437255 0.000000 
0.009767 0.096554 0.196733 0.819608 0.664706 0.741176 0.000000 
0.010688 0.093460 0.189145 0.811765 0.578431 0.495098 0.000000 
-0.015779 -0.057950 0.165132 1.000000 0.779739 0.456863 0.000000 
0.039330 0.111312 0.189975 0.294118 0.180392 0.172549 0.000000 
-0.112566 -0.025155 0.164263 0.994118 0.815686 0.511765 0.000000 
0.009086 0.086667 0.178168 0.378431 0.194118 0.107843 0.000000 
0.008065 -0.052089 0.146538 0.821569 0.533333 0.472549 0.000000 
0.004163 0.080706 0.176047 0.817647 0.627451 0.531373 0.000000 
0.001579 0.079430 0.171966 0.316667 0.126471 0.052941 0.000000 
0.033160 0.130129 0.171794 0.353922 0.173529 0.098039 0.000000 
-0.006899 0.077484 0.163316 0.255882 0.137255 0.121569 0.000000 
0.039744 0.130170 0.174040 0.250980 0.121569 0.123529 0.000000 
0.017153 -0.090120 0.077581 0.976471 0.686275 0.650980 0.000000 
-0.126307 -0.027367 0.103550 0.564706 0.409804 0.305882 0.000000 
0.010729 -0.100044 0.066522 0.968627 0.645098 0.621569 0.000000 
0.007593 -0.101135 0.065152 0.637255 0.311765 0.296078 0.000000 
-0.072546 -0.052490 0.072161 0.619608 0.319608 0.166667 0.000000 
-0.039310 -0.066299 0.061968 0.970588 0.713726 0.578431 0.000000 
-0.097466 -0.029649 0.077944 0.450980 0.160784 0.070588 0.000000 
-0.321327 0.032864 0.097587 0.409804 0.386275 0.623529 1.000000 
-0.313597 0.020715 0.078467 0.931373 0.660784 0.498039 1.000000 
-0.016525 -0.071628 0.014415 0.922876 0.675163 0.447059 0.000000 
-0.012290 -0.074345 0.002193 1.000000 0.872549 0.666667 0.000000 
-0.289463 -0.002370 0.066613 0.887582 0.575163 0.503268 1.000000 
-0.282020 0.005114 0.037425 0.874510 0.549020 0.501961 1.000000 
0.010034 -0.083263 -0.035191 0.960131 0.730065 0.592810 0.000000 
0.099748 -0.070682 -0.046521 0.407843 0.415686 0.611765 0.000000 
-0.268328 -0.009507 0.030823 0.897059 0.584314 0.528431 1.000000 
-0.254198 -0.015665 0.018294 0.478922 0.217157 0.149020 0.750000 
-0.004297 -0.097666 -0.069796 0.864706 0.594118 0.505882 0.000000 
-0.020371 -0.099988 -0.070227 0.535294 0.245098 0.100000 0.000000 
-0.017664 -0.099733 -0.074445 0.917647 0.631373 0.505882 0.000000 
-0.283800 0.005481 0.004085 0.950980 0.656863 0.566667 1.000000 
-0.073418 -0.067253 -0.060202 0.401961 0.141176 0.105882 0.000000 
-0.013149 -0.099263 -0.079797 0.920261 0.636601 0.535948 0.000000 
-0.264728 -0.000925 -0.012205 0.866667 0.558824 0.482353 1.000000 
-0.269466 -0.004614 -0.019096 0.656863 0.350980 0.250980 1.000000 
-0.063023 -0.059854 -0.083445 0.654902 0.439216 0.435294 0.000000 
0.009989 -0.095668 -0.110569 0.821569 0.543137 0.468627 0.000000 
0.000953 -0.100294 -0.115370 0.908823 0.631373 0.544118 0.000000 
0.033540 -0.079218 -0.108175 0.473950 0.193277 0.161064 0.000000 
0.023470 -0.092776 -0.129011 0.735294 0.452941 0.411765 0.000000 
0.029318 -0.090889 -0.129682 0.768627 0.490196 0.439216 0.000000 
0.019972 -0.094246 -0.140921 0.537255 0.260784 0.221569 0.000000 
-0.094863 -0.055120 -0.111295 0.390196 0.119608 0.047059 0.000000 
-0.270409 -0.004506 -0.064576 0.849020 0.556863 0.447059 1.000000 
0.010842 0.065675 -0.095344 0.748039 0.519608 0.462745 0.000000 
-0.232448 -0.022548 -0.071728 0.526471 0.239216 0.231373 1.000000 
-0.218919 -0.016089 -0.091969 0.554902 0.296078 0.152941 0.000000 
0.021613 0.066716 -0.096708 0.666667 0.443137 0.386275 0.000000 
-0.246410 -0.021755 -0.074109 0.637255 0.351961 0.285294 1.000000 
-0.124731 -0.049608 -0.132375 0.923529 0.621569 0.460784 0.000000 
-0.233200 -0.016818 -0.096426 0.560784 0.243137 0.268627 1.000000 
-0.102490 -0.055103 -0.141699 0.933333 0.666667 0.635294 0.000000 
-0.107162 -0.056372 -0.120109 0.452941 0.164314 0.124314 0.400000 
-0.096742 -0.053211 -0.149111 0.876471 0.603922 0.613725 0.000000 
0.014586 0.057476 -0.118826 0.732353 0.514706 0.456863 0.000000 
-0.092636 -0.057444 -0.154491 0.468627 0.203922 0.215686 0.000000 
-0.212244 -0.028039 -0.099351 0.527451 0.234314 0.188235 0.000000 
-0.238708 -0.036289 -0.066789 0.501569 0.199608 0.134510 0.800000 
-0.247491 -0.019635 -0.090660 0.846078 0.540196 0.523529 1.000000 
-0.127852 -0.054560 -0.155091 0.439216 0.149020 0.074510 0.000000 
-0.244669 -0.014620 -0.115040 0.527451 0.205882 0.207843 1.000000 
-0.240683 -0.032657 -0.082465 0.888889 0.600000 0.462092 1.000000 
-0.145926 -0.053161 -0.141217 0.915686 0.602941 0.525490 0.000000 
-0.116560 -0.054159 -0.164979 0.705882 0.460784 0.484314 0.000000 
-0.240378 -0.018564 -0.125238 0.962745 0.727451 0.592157 1.000000 
-0.214954 -0.031441 -0.145741 0.956863 0.666667 0.562745 1.000000 
0.040309 0.036631 0.303292 0.303922 0.264052 0.343791 0.000000 
0.036299 0.024906 0.303176 0.878431 0.721569 0.311111 0.000000 
0.052959 0.018593 0.278484 0.306536 0.022876 0.003704 0.000000 
0.027435 -0.013664 0.269570 0.997549 0.885784 0.761765 0.000000 
0.035566 -0.005603 0.269006 1.000000 0.902941 0.722549 0.000000 
0.075587 0.043410 0.251996 0.953221 0.721289 0.640616 0.000000 
0.071228 0.053372 0.266596 0.521569 0.403922 0.427451 0.000000 
0.031852 -0.002884 0.245837 0.400000 0.158824 0.200000 0.000000 
0.050382 0.008723 0.232754 1.000000 0.968137 0.941177 0.000000 
0.011660 -0.020029 0.224754 0.948366 0.634967 0.570588 0.000000 
0.006615 -0.020775 0.197082 0.479412 0.199020 0.188235 0.000000 
-0.081553 -0.023560 0.196558 0.478431 0.360784 0.258824 0.000000 
-0.110118 -0.021628 0.180534 0.947059 0.924510 0.750980 0.000000 
-0.012653 -0.055421 0.167091 0.988235 0.737255 0.455556 0.000000 
0.014324 -0.045670 0.151051 0.938431 0.696863 0.560784 0.000000 
-0.058027 -0.042936 0.152132 0.974510 0.762745 0.425490 0.000000 
-0.126684 -0.033100 0.148778 0.911204 0.887675 0.831092 0.000000 
-0.057856 -0.056636 0.094768 0.992157 0.745098 0.522549 0.000000 
-0.028572 -0.064013 0.054018 0.335294 0.123529 0.049020 0.000000 
-0.024670 -0.064227 0.051403 0.754902 0.531373 0.476471 0.000000 
-0.017236 -0.064635 0.037824 0.303922 0.086275 0.027451 0.000000 
-0.129423 -0.025556 0.044133 0.472549 0.256863 0.207843 0.000000 
0.005084 -0.053017 0.011703 0.635294 0.415686 0.341176 0.000000 
0.101002 -0.062180 -0.016198 0.431373 0.288235 0.270588 0.000000 
0.007160 -0.084539 -0.037009 0.625490 0.364706 0.184314 0.000000 
-0.108680 -0.045869 -0.007976 0.976471 0.753922 0.529412 0.000000 
0.007873 -0.093280 -0.060067 0.933333 0.654902 0.509804 0.000000 
-0.084660 -0.058985 -0.063366 0.978431 0.719608 0.588235 0.000000 
-0.087701 -0.060034 -0.071645 0.919608 0.635294 0.525490 0.000000 
0.022918 -0.092203 -0.113019 0.754412 0.466176 0.387745 0.000000 
-0.275753 -0.008519 -0.020225 0.468627 0.179412 0.198039 1.000000 
-0.258234 -0.036684 0.009090 0.929412 0.623922 0.510196 0.800000 
-0.255508 -0.009251 -0.050479 0.921569 0.621569 0.500000 1.000000 
-0.253881 -0.011127 -0.056816 0.650980 0.341176 0.294118 1.000000 
-0.139914 -0.044161 -0.100639 0.423529 0.162092 0.139869 0.333333 
-0.257198 -0.017434 -0.058607 0.988235 0.737255 0.620915 1.000000 
-0.187964 -0.022032 -0.102557 0.845098 0.713726 0.539216 0.000000 
-0.195930 -0.022006 -0.101630 0.611765 0.329412 0.184314 0.000000 
-0.171483 -0.035472 -0.114536 1.000000 0.868627 0.660784 0.000000 
-0.215941 -0.022496 -0.100426 0.970588 0.727451 0.550980 0.000000 
-0.151512 -0.042839 -0.173181 0.998039 0.715686 0.709804 0.000000 
-0.160658 -0.048304 -0.150415 0.875490 0.594118 0.602941 0.500000 
-0.011235 -0.112653 -0.282375 0.964706 0.721569 0.456863 0.000000 
0.070661 -0.051078 -0.271235 0.284314 0.264706 0.505882 0.000000 
0.070833 -0.055632 -0.284880 0.923039 0.792157 0.821569 0.000000 
0.033389 0.033559 0.310163 1.000000 0.886275 0.611765 0.000000 
0.045450 0.035507 0.297274 0.869608 0.624510 0.423529 0.000000 
0.062225 0.043997 0.280828 0.989542 0.792157 0.571242 0.000000 
0.061423 0.029729 0.276420 0.635294 0.374510 0.203922 0.000000 
-0.003977 -0.019798 0.251004 0.996078 0.722549 0.546078 0.000000 
-0.006324 -0.023629 0.241623 0.972549 0.687255 0.512255 0.000000 
0.040618 0.119935 0.195809 0.227451 0.101961 0.031373 0.000000 
-0.318570 0.018173 0.110794 0.813725 0.657843 0.634314 1.000000 
-0.309273 0.004977 0.087227 0.949020 0.644118 0.525490 1.000000 
-0.280740 -0.029021 0.112234 0.971078 0.718627 0.486520 0.750000 
0.100188 -0.075760 -0.040500 0.325490 0.149020 0.127451 0.000000 
-0.288055 -0.001802 0.050091 0.919608 0.627451 0.551961 1.000000 
-0.276402 -0.000999 -0.008780 0.550980 0.243137 0.231373 1.000000 
0.014055 -0.093638 -0.093080 0.553922 0.268627 0.202941 0.000000 
-0.268636 -0.004359 -0.014897 0.854902 0.539216 0.484314 1.000000 
-0.258610 -0.004577 -0.069147 0.509804 0.201961 0.215686 1.000000 
-0.201221 -0.033273 -0.110578 0.985294 0.752941 0.512745 0.000000 
-0.131080 -0.050460 -0.182414 0.394118 0.188235 0.249020 0.000000 
0.003982 -0.116086 -0.289102 1.000000 0.916667 0.650000 0.000000 
0.076105 -0.080859 -0.310216 0.135294 0.078431 0.107843 0.000000 
-0.036553 -0.014600 0.236836 1.000000 0.792157 0.588235 0.000000 
0.028960 0.121287 0.180631 0.819608 0.688235 0.558824 0.000000 
-0.306947 0.010261 0.078017 0.828758 0.530719 0.492810 1.000000 
-0.113217 -0.039243 -0.041431 0.958824 0.754902 0.443137 0.000000 
-0.125885 -0.047473 -0.062443 0.998529 0.815686 0.486275 0.000000 
0.024128 0.070188 -0.092494 0.523529 0.319608 0.247059 0.000000 
-0.253009 -0.019489 -0.066029 0.645752 0.347712 0.300654 1.000000 
-0.235989 -0.032814 -0.081227 0.956078 0.700784 0.507843 1.000000 
0.069343 0.047328 0.277137 0.898039 0.623529 0.437255 0.000000 
0.093921 -0.052461 -0.000529 0.984034 0.978151 0.948739 0.000000 
0.032787 0.085323 -0.084354 1.000000 0.956863 0.921569 0.000000 
-0.218359 -0.047879 -0.042291 0.910588 0.662353 0.410588 0.400000 
0.100474 -0.064498 -0.026176 1.000000 0.958824 0.923529 0.000000 
0.080387 -0.107621 -0.348323 0.172059 0.103431 0.199510 0.000000 
-0.017611 -0.013132 0.260694 0.970588 0.716667 0.475980 0.000000 
0.062817 0.034735 0.267155 0.951765 0.716471 0.443529 0.000000 
0.045793 -0.062071 -0.274755 0.908823 0.657843 0.412745 0.000000 
0.005138 -0.021253 0.225797 0.958824 0.664706 0.560784 0.000000 
-0.304143 -0.026697 0.126777 0.538562 0.234641 0.222222 0.666667 
-0.004927 -0.094078 -0.054312 0.525490 0.231373 0.115686 0.000000 
-0.082452 -0.056217 -0.101065 0.729412 0.468627 0.421569 0.000000 
-0.194983 -0.041377 -0.087204 0.504902 0.222549 0.143137 0.500000 
-0.217724 -0.033721 -0.124346 0.927451 0.635294 0.549020 1.000000 
0.009179 -0.112377 -0.268681 1.000000 0.852941 0.588235 0.000000 
-0.016724 -0.032944 0.210952 0.980392 0.700000 0.505882 0.000000 
-0.282646 -0.017903 0.093667 0.604902 0.281373 0.189216 1.000000 
0.099386 -0.073639 -0.024051 0.440196 0.209804 0.196078 0.000000 
0.062794 -0.122544 -0.327865 0.902941 0.632353 0.432353 0.000000 
0.037243 -0.028577 0.295637 0.279739 0.279739 0.372549 0.000000 
0.008951 0.009448 0.301191 0.792157 0.698039 0.603922 0.000000 
0.027334 -0.010146 0.236982 0.447059 0.164706 0.181373 0.000000 
0.056531 0.017940 0.222401 0.956209 0.862745 0.827451 0.000000 
0.012033 -0.021726 0.208709 0.864314 0.557647 0.525882 0.000000 
-0.004616 -0.030371 0.201978 0.945098 0.664706 0.564706 0.000000 
0.001660 -0.028185 0.179506 0.623529 0.323529 0.221569 0.000000 
-0.000442 -0.037218 0.176719 0.987255 0.723529 0.501961 0.000000 
0.002366 -0.035488 0.170927 0.976471 0.700000 0.494118 0.000000 
0.025931 0.104403 0.194030 0.919608 0.758824 0.782353 0.000000 
0.032045 0.105335 0.172801 0.735294 0.495425 0.367320 0.000000 
-0.015738 0.068571 0.176385 0.656863 0.462745 0.364706 0.000000 
-0.004557 0.073875 0.175526 0.788235 0.596078 0.484314 0.000000 
0.018027 0.107842 0.176286 0.549020 0.456863 0.374510 0.000000 
-0.007353 0.033610 0.152471 0.460131 0.450327 0.624837 0.000000 
0.032553 0.133784 0.168955 0.933333 0.850980 0.939216 0.000000 
-0.137697 -0.028282 0.129170 0.617647 0.378431 0.180392 0.000000 
0.013570 -0.104155 0.054730 0.637255 0.317647 0.288235 0.000000 
-0.092125 -0.085456 0.073781 0.998039 0.919608 0.813725 0.000000 
-0.091081 -0.046161 0.077711 1.000000 0.804902 0.611765 0.000000 
-0.150747 -0.029148 0.084461 0.923529 0.866667 0.886275 0.000000 
0.032019 -0.108981 0.030839 0.841176 0.519608 0.474510 0.000000 
0.043114 -0.103931 0.026474 0.636275 0.322549 0.256863 0.000000 
-0.021711 -0.064639 0.040242 0.929412 0.686275 0.639216 0.000000 
-0.300894 -0.006792 0.101416 0.978431 0.662745 0.525490 1.000000 
-0.137850 -0.034769 0.063685 0.541176 0.345098 0.266667 0.000000 
-0.025577 -0.067913 0.034896 0.431373 0.172549 0.078431 0.000000 
0.091140 -0.042445 0.011599 0.276471 0.270588 0.519608 0.000000 
-0.270459 -0.042319 0.105061 0.486667 0.176863 0.158431 0.600000 
-0.061115 -0.075008 0.008777 0.964706 0.723529 0.492157 0.000000 
-0.004601 -0.075442 -0.002304 0.519608 0.301961 0.074510 0.000000 
0.102993 -0.075853 -0.023496 0.905882 0.600000 0.598039 0.000000 
-0.135460 -0.038077 0.040578 0.994118 0.784706 0.593726 0.400000 
-0.020121 -0.087448 -0.012415 0.943137 0.668628 0.478431 0.000000 
-0.284672 -0.012855 0.057109 0.976471 0.668627 0.578431 1.000000 
0.104425 -0.054524 -0.035917 0.307843 0.329412 0.554902 0.000000 
-0.270703 -0.027869 0.060776 0.964706 0.631373 0.547059 1.000000 
-0.137122 -0.033310 0.014025 0.531373 0.274510 0.301961 0.000000 
-0.054521 -0.079619 -0.020660 0.892157 0.627451 0.503922 0.000000 
-0.011882 -0.096954 -0.064380 0.958824 0.680392 0.541176 0.000000 
-0.021863 -0.097361 -0.066618 0.456863 0.172549 0.066667 0.000000 
-0.077114 -0.059406 -0.046441 0.772549 0.517647 0.450980 0.000000 
-0.271185 -0.021058 0.004555 0.807843 0.509804 0.433333 1.000000 
-0.268219 -0.030024 0.011012 0.484314 0.174510 0.162745 1.000000 
0.003587 -0.098856 -0.098945 0.978431 0.703922 0.572549 0.000000 
0.013976 -0.094956 -0.101885 0.637255 0.356863 0.249020 0.000000 
0.031175 -0.086681 -0.110515 0.511765 0.233333 0.190196 0.000000 
0.016416 -0.095752 -0.120498 0.935294 0.645098 0.566667 0.000000 
-0.074430 -0.055277 -0.083996 0.782353 0.549020 0.539216 0.000000 
-0.069318 -0.053375 -0.089944 0.594118 0.392157 0.401961 0.000000 
-0.275192 -0.012843 -0.031274 0.429412 0.158824 0.166667 1.000000 
-0.147731 -0.050229 -0.079398 0.960784 0.772549 0.694118 0.000000 
-0.065244 -0.052052 -0.100997 0.264706 0.113725 0.125490 0.000000 
-0.099807 -0.054823 -0.094877 0.843137 0.556863 0.515686 0.000000 
-0.091832 -0.056058 -0.087988 0.454902 0.191176 0.160784 0.000000 
-0.076178 -0.055356 -0.096246 0.766013 0.541176 0.542484 0.000000 
0.005142 -0.098612 -0.144517 0.545098 0.256863 0.198039 0.000000 
-0.234039 -0.044950 -0.024253 0.978431 0.692811 0.573856 0.333333 
-0.121478 -0.052096 -0.081205 0.895425 0.586928 0.498039 0.333333 
0.033210 -0.085928 -0.146416 0.451961 0.150000 0.089216 0.000000 
0.039546 -0.079129 -0.143531 0.871242 0.578105 0.522876 0.000000 
-0.076805 -0.054518 -0.109707 0.323529 0.111765 0.139216 0.000000 
0.035339 -0.084268 -0.149657 0.967320 0.669281 0.585621 0.000000 
-0.253008 -0.025968 -0.052819 0.921569 0.621569 0.539216 1.000000 
-0.154400 -0.039048 -0.085213 0.917647 0.676471 0.427451 0.000000 
-0.237809 -0.031084 -0.061654 0.896078 0.598039 0.554902 1.000000 
0.007786 0.063694 -0.106132 0.498039 0.266667 0.201961 0.000000 
-0.183326 -0.042199 -0.101108 0.582353 0.300000 0.215686 0.000000 
0.033233 -0.089595 -0.175695 0.471242 0.183007 0.164052 0.000000 
0.009012 0.059831 -0.119943 0.514510 0.283922 0.221569 0.000000 
0.007243 0.056301 -0.116845 0.767320 0.543791 0.483660 0.000000 
-0.008407 -0.098186 -0.183661 0.939216 0.705882 0.478431 0.000000 
-0.115559 -0.057943 -0.136537 0.413725 0.143137 0.125490 0.000000 
-0.175512 -0.050645 -0.102599 0.935294 0.664706 0.484314 0.000000 
-0.252383 -0.023863 -0.086382 0.450980 0.276471 0.370588 1.000000 
-0.137254 -0.052581 -0.146408 0.435294 0.162745 0.172549 0.000000 
-0.135203 -0.060477 -0.115490 0.775817 0.513726 0.549020 0.333333 
0.029881 -0.040974 -0.229692 0.700000 0.580392 0.590196 0.000000 
0.072460 -0.063453 -0.299479 0.669118 0.416176 0.340686 0.000000 
0.045705 -0.121728 -0.316220 0.959804 0.714706 0.542157 0.000000 
0.070211 -0.119795 -0.333907 0.616993 0.333333 0.216993 0.000000 
0.054757 -0.124251 -0.334582 0.537255 0.262745 0.213725 0.000000 
0.063565 -0.122108 -0.336854 0.956863 0.698039 0.588235 0.000000 
0.035980 0.017349 0.297275 1.000000 0.947059 0.584314 0.000000 
0.051324 0.028177 0.284636 0.467647 0.103922 0.059804 0.000000 
0.044676 0.006648 0.242424 1.000000 0.941176 0.923529 0.000000 
0.050210 0.016164 0.235413 1.000000 0.917647 0.888235 0.000000 
-0.031178 -0.029146 0.217904 1.000000 0.782353 0.549020 0.000000 
-0.012440 -0.037059 0.202140 0.984314 0.678431 0.515686 0.000000 
-0.101427 -0.025261 0.190264 0.996078 0.952941 0.833333 0.000000 
-0.115089 -0.031683 0.191641 0.943137 0.858824 0.728105 0.000000 
0.014855 -0.051220 0.140710 0.795425 0.575163 0.434641 0.000000 
0.018539 0.116567 0.167141 0.315686 0.223529 0.184314 0.000000 
0.024120 -0.095593 0.062197 0.592157 0.323529 0.213725 0.000000 
-0.066815 -0.056026 0.080094 0.886275 0.594118 0.388235 0.000000 
-0.295134 -0.036014 0.149456 0.900980 0.719608 0.605882 0.666667 
-0.264370 -0.045543 0.112570 0.481373 0.187255 0.128922 0.500000 
-0.102030 -0.047651 0.003545 1.000000 0.745098 0.521569 0.000000 
-0.257433 -0.022137 0.040160 1.000000 0.827451 0.619608 1.000000 
-0.111743 -0.049246 0.004484 0.379412 0.157843 0.128431 0.000000 
-0.270342 -0.020747 0.030848 0.945098 0.635294 0.570588 1.000000 
-0.006765 0.057298 -0.016158 0.715686 0.478431 0.461438 0.000000 
0.030035 -0.083575 -0.097948 0.494118 0.219608 0.184314 0.000000 
-0.141713 -0.048095 -0.063270 0.995098 0.771569 0.567647 0.000000 
-0.074739 -0.055905 -0.088165 0.738562 0.505882 0.500654 0.000000 
-0.144894 -0.051902 -0.085030 0.505882 0.223529 0.154902 0.000000 
-0.245951 -0.027981 -0.066358 0.950980 0.664706 0.598039 1.000000 
-0.006681 0.048169 -0.102964 0.647059 0.423529 0.417647 0.000000 
-0.183918 -0.046339 -0.091141 0.945098 0.637909 0.556863 0.333333 
0.023856 -0.095672 -0.173033 0.546667 0.245882 0.123137 0.000000 
0.015405 -0.110780 -0.243635 0.796078 0.512745 0.388235 0.000000 
0.033154 -0.037037 -0.230100 0.327451 0.282353 0.439216 0.000000 
0.061148 -0.119778 -0.325143 1.000000 0.823529 0.590196 0.000000 
-0.100594 -0.032034 0.182551 0.935294 0.721569 0.446078 0.000000 
0.019377 -0.042980 0.137815 0.649673 0.403268 0.410458 0.000000 
0.041561 -0.108315 0.016228 0.947059 0.631373 0.594118 0.000000 
-0.281674 -0.013807 0.083280 0.996078 0.754902 0.580392 1.000000 
-0.259641 -0.038024 0.076838 0.519118 0.223039 0.233333 0.750000 
-0.252002 -0.040598 0.043441 0.922222 0.628758 0.494118 0.666667 
-0.245052 -0.049112 0.008773 0.932941 0.638431 0.581569 0.600000 
0.013206 -0.096665 -0.124885 0.550980 0.258824 0.200000 0.000000 
-0.161919 -0.037421 -0.072195 0.827451 0.701961 0.566667 0.000000 
-0.272601 -0.018648 -0.039597 0.798039 0.558824 0.527451 1.000000 
-0.235264 -0.030055 -0.073106 0.958824 0.666667 0.492157 1.000000 
-0.233195 -0.034643 -0.088789 0.650980 0.331373 0.266667 1.000000 
-0.159801 -0.051987 -0.108415 0.932026 0.635294 0.518954 0.333333 
0.084499 -0.097406 -0.338496 1.000000 0.941176 0.958824 0.000000 
-0.014776 -0.006846 0.275624 0.911111 0.732026 0.510458 0.000000 
0.002157 0.078873 -0.086038 0.792157 0.598039 0.520588 0.000000 
-0.125614 -0.050636 -0.152062 0.337255 0.137255 0.209804 0.000000 
0.040305 0.004356 0.272333 0.805882 0.486275 0.358824 0.000000 
0.068629 0.026998 0.263787 0.947059 0.688235 0.474510 0.000000 
0.070882 0.044177 0.259125 0.911765 0.650980 0.554902 0.000000 
-0.057867 -0.045425 0.179211 0.697059 0.379412 0.200000 0.000000 
0.032920 0.103900 0.180550 0.458824 0.253922 0.139216 0.000000 
-0.264361 -0.030677 -0.016953 0.540196 0.269608 0.325490 1.000000 
-0.170881 -0.057950 -0.117988 0.613725 0.329412 0.352288 0.000000 
0.107197 -0.060065 -0.022652 0.935294 0.837255 0.772549 0.000000 
-0.319529 0.003955 0.120689 1.000000 0.778431 0.549020 1.000000 
0.048181 -0.117160 -0.294813 0.875980 0.623529 0.320588 0.000000 
0.016577 0.096781 -0.091451 0.988235 0.912418 0.822876 0.000000 
-0.054194 -0.069506 -0.116099 0.239216 0.113725 0.129412 0.000000 
-0.183958 -0.057658 -0.089392 0.889020 0.583529 0.470980 0.400000 
0.017874 -0.017368 0.217885 0.491503 0.187582 0.210458 0.000000 
-0.014473 -0.056135 0.174106 0.736274 0.497059 0.189216 0.000000 
0.014495 0.105334 0.167395 0.574510 0.456863 0.352941 0.000000 
-0.295696 -0.017995 0.123229 0.782353 0.670588 0.701961 1.000000 
-0.120777 -0.055298 -0.108919 0.543137 0.250980 0.164706 1.000000 
-0.166323 -0.058493 -0.094116 0.529412 0.237255 0.137255 0.500000 
0.027811 -0.109748 -0.276732 0.588235 0.300000 0.194118 0.000000 
-0.275818 -0.039999 0.119233 0.541176 0.240196 0.136275 0.500000 
-0.258173 -0.034095 -0.011356 0.950980 0.654902 0.547059 1.000000 
0.005286 0.090203 0.154387 0.394118 0.237255 0.181373 0.000000 
-0.036625 -0.017838 0.252479 0.854902 0.743137 0.741176 0.000000 
0.027597 -0.015974 0.245552 0.970588 0.672549 0.645098 0.000000 
0.074564 0.033619 0.245582 0.445098 0.378431 0.392157 0.000000 
0.076087 0.042645 0.246648 0.492157 0.374510 0.398039 0.000000 
0.017914 -0.016575 0.233741 0.931373 0.615033 0.586275 0.000000 
0.021231 -0.011700 0.233068 0.868627 0.572549 0.584314 0.000000 
0.049637 0.004454 0.230369 0.554902 0.349020 0.343137 0.000000 
-0.058315 -0.023798 0.230460 0.221569 0.148039 0.222549 0.000000 
0.013112 -0.019351 0.214799 0.915686 0.603922 0.594118 0.000000 
0.006100 -0.027867 0.206693 0.560784 0.243137 0.198039 0.000000 
-0.001555 -0.030860 0.199956 0.625490 0.305882 0.227451 0.000000 
0.007395 -0.044916 0.165326 0.981699 0.688889 0.479739 0.000000 
-0.007640 0.079706 0.175786 0.775163 0.534640 0.441830 0.000000 
0.013190 -0.047148 0.144979 0.270588 0.080392 0.000000 0.000000 
0.007937 0.084729 0.160517 0.635294 0.458824 0.366667 0.000000 
0.019230 -0.061867 0.123579 0.543137 0.299346 0.140523 0.000000 
-0.082989 -0.046627 0.136911 0.986274 0.717647 0.529412 0.000000 
-0.296118 -0.046221 0.165957 0.382353 0.359804 0.550000 1.000000 
0.009050 -0.031123 0.077994 0.401961 0.152941 0.166667 0.000000 
-0.038674 -0.070510 0.049608 0.464706 0.180392 0.084314 0.000000 
-0.264729 -0.032163 0.102858 0.803922 0.696078 0.647059 0.000000 
-0.265518 -0.037036 0.084674 0.896078 0.601961 0.539216 1.000000 
-0.256482 -0.035231 0.074807 0.558824 0.249020 0.176471 0.000000 
-0.265755 -0.038495 0.071814 0.633333 0.309804 0.254902 1.000000 
0.111619 -0.077026 -0.036599 1.000000 0.878431 0.849673 0.000000 
0.112096 -0.078865 -0.039984 0.517647 0.358824 0.345098 0.000000 
-0.114486 -0.050200 0.013275 0.868627 0.772549 0.833333 0.000000 
0.021742 -0.073842 -0.030607 0.908823 0.656863 0.573529 0.000000 
0.107134 -0.088931 -0.060364 0.326797 0.135948 0.070588 0.000000 
-0.026252 -0.090209 -0.034052 0.886275 0.600000 0.431373 0.000000 
0.018713 -0.081698 -0.041951 0.866667 0.603922 0.490196 0.000000 
-0.014000 0.039042 -0.015368 0.560784 0.368627 0.394118 0.000000 
0.023703 -0.083783 -0.067539 0.729412 0.449020 0.415686 0.000000 
-0.010714 0.045593 -0.022819 0.679412 0.456863 0.446078 0.000000 
-0.251079 -0.041841 0.009981 0.611765 0.300000 0.252941 1.000000 
0.034583 -0.075021 -0.087591 0.868627 0.588235 0.553922 0.000000 
-0.000249 -0.096790 -0.113481 0.792157 0.509804 0.488235 0.000000 
0.038708 -0.070344 -0.117053 0.458824 0.186275 0.196078 0.000000 
0.037919 -0.075021 -0.116856 0.869935 0.577778 0.581699 0.000000 
0.032547 -0.082922 -0.121698 0.874118 0.579608 0.547059 0.000000 
0.032693 -0.087905 -0.131443 0.527451 0.229412 0.203922 0.000000 
-0.166180 -0.053431 -0.065223 0.562745 0.278431 0.205882 0.000000 
-0.076330 -0.054641 -0.098810 0.752941 0.529412 0.570588 0.000000 
0.000518 0.056480 -0.079866 0.631373 0.421569 0.415686 0.000000 
-0.002969 0.051994 -0.085814 0.598039 0.392157 0.400000 0.000000 
-0.163854 -0.053939 -0.065471 0.864706 0.561765 0.490196 0.000000 
0.010689 0.100445 -0.104483 1.000000 0.963399 0.869935 0.000000 
-0.164405 -0.061548 -0.093400 0.405882 0.117647 0.094118 0.000000 
-0.168482 -0.057948 -0.109554 0.925490 0.637255 0.623529 0.000000 
-0.270945 -0.039739 -0.071113 0.703922 0.735294 0.952941 1.000000 
-0.161431 -0.060215 -0.106253 0.311765 0.092157 0.116667 0.000000 
0.063883 -0.078806 -0.291315 0.997059 0.805882 0.669608 0.000000 
0.063361 -0.082012 -0.297632 0.539216 0.329412 0.247059 0.000000 
0.070154 -0.079439 -0.308463 0.993464 0.911111 0.891503 0.000000 
0.071714 -0.114643 -0.335584 0.747059 0.488235 0.494118 0.000000 
0.027807 0.027082 0.302039 0.974510 0.862745 0.700000 0.000000 
0.016809 0.008568 0.300088 0.913725 0.796078 0.623529 0.000000 
-0.023753 -0.015255 0.260770 0.917647 0.696078 0.574510 0.000000 
0.057481 0.022197 0.218207 1.000000 0.915033 0.892811 0.000000 
-0.027870 -0.055995 0.175252 0.992157 0.821569 0.454902 0.000000 
-0.067728 -0.043013 0.167790 0.998039 0.776471 0.576471 0.000000 
0.024748 0.137068 0.187178 0.178431 0.211765 0.409804 0.000000 
0.032042 0.135896 0.173063 0.307843 0.272549 0.400000 0.000000 
-0.283998 -0.048471 0.154393 0.956209 0.813072 0.688235 0.666667 
-0.094349 -0.049146 0.083599 1.000000 0.766667 0.600000 0.000000 
-0.311680 -0.026391 0.130633 0.427451 0.184314 0.270588 1.000000 
-0.265388 -0.059905 0.119652 0.502614 0.192157 0.181046 0.333333 
-0.038758 -0.073480 0.033800 0.604902 0.285294 0.199020 0.000000 
0.097050 -0.046883 -0.008812 1.000000 0.973529 0.948039 0.000000 
-0.279663 -0.036053 0.080525 0.496078 0.205882 0.182353 1.000000 
-0.027937 -0.083955 0.003277 0.638235 0.367647 0.158824 0.000000 
-0.267313 -0.040254 0.022765 1.000000 0.747059 0.601961 1.000000 
-0.090318 -0.057119 -0.034225 0.911765 0.605882 0.464706 0.000000 
-0.114371 -0.056883 -0.019708 0.988235 0.755882 0.594118 0.000000 
0.035709 -0.073572 -0.078347 0.466667 0.205882 0.196078 0.000000 
0.036242 -0.069042 -0.077439 0.884314 0.616667 0.593137 0.000000 
-0.015040 0.041091 -0.048691 0.598039 0.417647 0.415686 0.000000 
0.023383 -0.087861 -0.110324 0.549020 0.257843 0.193137 0.000000 
0.026391 -0.087142 -0.111684 0.860131 0.567974 0.507843 0.000000 
0.035869 -0.081857 -0.132315 0.543791 0.248366 0.226144 0.000000 
0.042326 -0.075212 -0.139110 0.476471 0.184314 0.174510 0.000000 
-0.228675 -0.056127 -0.036396 0.983333 0.749020 0.555882 0.000000 
0.013835 0.095487 -0.110084 0.422876 0.281046 0.197386 0.000000 
0.013328 0.106016 -0.090335 0.629412 0.429412 0.349020 0.000000 
-0.255040 -0.058120 -0.041343 0.627451 0.655556 0.867974 0.666667 
0.009682 -0.115102 -0.264149 1.000000 0.869608 0.620588 0.000000 
-0.013874 0.037033 0.158570 0.162745 0.105098 0.130196 0.000000 
-0.279547 -0.035914 0.075822 0.966667 0.690196 0.556863 1.000000 
-0.271627 -0.038914 0.051280 0.872549 0.560784 0.462745 1.000000 
0.021779 -0.086844 -0.084035 0.538235 0.240196 0.185294 0.000000 
0.023843 -0.087133 -0.094193 0.494118 0.198039 0.146405 0.000000 
-0.262998 -0.039256 -0.006639 0.868627 0.586275 0.447059 1.000000 
0.029577 -0.086287 -0.141439 0.905882 0.608333 0.473529 0.000000 
0.028651 0.079863 -0.120896 0.611765 0.382353 0.262745 0.000000 
0.024030 0.136393 0.158801 0.952941 0.888235 0.878431 0.000000 
0.106261 -0.078454 -0.066306 0.337255 0.137255 0.132353 0.000000 
0.047834 0.040683 0.281560 0.909804 0.682353 0.523529 0.000000 
-0.156085 -0.041357 -0.059971 0.911765 0.676471 0.386275 0.000000 
-0.137739 -0.055782 -0.051100 0.531373 0.254902 0.290196 0.000000 
0.054910 0.017846 0.274211 0.375490 0.097059 0.088725 0.000000 
-0.248056 -0.055159 0.110754 0.554412 0.299020 0.275000 0.250000 
0.042072 0.021289 0.239692 0.192810 0.145752 0.138562 0.000000 
0.057811 -0.058148 -0.272686 0.960784 0.915686 0.849020 0.000000 
0.005386 -0.028450 0.211758 0.962745 0.670588 0.586275 0.000000 
0.004650 -0.028547 0.204393 0.537255 0.211765 0.184314 0.000000 
-0.259032 -0.051820 0.052378 0.882353 0.549020 0.517647 1.000000 
0.008002 -0.087683 -0.050503 0.908823 0.620588 0.561765 0.000000 
0.031251 -0.083822 -0.113636 0.513726 0.233333 0.176471 0.000000 
0.017217 -0.115351 -0.291722 0.700000 0.468627 0.445098 0.000000 
0.095989 -0.077672 -0.016866 0.765359 0.472549 0.419608 0.000000 
0.049789 0.010078 0.280073 0.996078 0.783006 0.546405 0.000000 
0.048383 0.021042 0.282034 0.974510 0.694118 0.492157 0.000000 
0.052761 0.016516 0.276283 0.576471 0.224837 0.177778 0.000000 
0.013030 -0.022922 0.252310 0.931373 0.643137 0.529412 0.000000 
0.063175 0.004580 0.241076 0.274510 0.143137 0.145098 0.000000 
0.022436 -0.018221 0.237853 0.560784 0.256863 0.217647 0.000000 
0.016718 -0.018403 0.220582 0.813725 0.498039 0.498039 0.000000 
-0.058704 -0.026662 0.226250 0.666667 0.384314 0.147059 0.000000 
0.019893 -0.015729 0.214629 0.725490 0.433333 0.464706 0.000000 
-0.073660 -0.028883 0.218157 0.929412 0.747059 0.425490 0.000000 
0.005276 -0.029570 0.198898 0.563725 0.246078 0.214706 0.000000 
-0.104145 -0.033047 0.206223 0.894118 0.811765 0.672549 0.000000 
0.003424 -0.030529 0.191694 0.950980 0.645098 0.541176 0.000000 
0.000053 -0.034241 0.187508 0.591177 0.281373 0.178431 0.000000 
0.011167 -0.052965 0.143941 0.725490 0.447059 0.313726 0.000000 
-0.021983 0.060505 0.167908 0.831373 0.698039 0.582353 0.000000 
-0.016419 0.067325 0.167126 0.637255 0.441176 0.354902 0.000000 
0.011513 0.093724 0.151952 0.831373 0.645098 0.517647 0.000000 
0.004266 -0.093210 0.092071 1.000000 0.680392 0.647059 0.000000 
0.006869 -0.042996 0.089849 0.337255 0.137255 0.139216 0.000000 
-0.248557 -0.052934 0.122704 0.974510 0.831373 0.825490 0.000000 
-0.049001 -0.070570 0.063744 0.637255 0.349020 0.160784 0.000000 
-0.048455 -0.073812 0.047568 1.000000 0.770588 0.619608 0.000000 
-0.252443 -0.059607 0.097101 0.913725 0.617647 0.560784 0.000000 
0.098984 -0.068478 -0.019729 1.000000 0.882353 0.849020 0.000000 
0.115721 -0.063178 -0.037927 0.988235 0.906863 0.877451 0.000000 
0.020264 -0.065998 -0.012763 0.490196 0.223529 0.121569 0.000000 
0.025035 -0.066580 -0.027087 0.900000 0.647059 0.552941 0.000000 
-0.226886 -0.055188 0.051057 0.807843 0.709804 0.809804 0.000000 
-0.005069 -0.090563 -0.031341 0.894118 0.607843 0.480392 0.000000 
0.109248 -0.088773 -0.081653 1.000000 0.945098 0.917647 0.000000 
0.028020 -0.074385 -0.048668 0.879412 0.594118 0.561765 0.000000 
-0.013988 -0.094837 -0.071446 0.517647 0.229412 0.143137 0.000000 
-0.006506 0.047607 -0.046730 0.341176 0.139216 0.165686 0.000000 
0.037916 -0.069602 -0.097776 0.474510 0.192157 0.194118 0.000000 
-0.244276 -0.063160 0.002811 0.978431 0.729412 0.631373 0.000000 
-0.139704 -0.058518 -0.053371 0.666667 0.400000 0.180392 0.000000 
0.016078 -0.091185 -0.130508 0.933333 0.631373 0.494118 0.000000 
-0.108956 -0.061012 -0.082537 0.903922 0.619608 0.590196 0.000000 
-0.082434 -0.055215 -0.092328 0.760784 0.531373 0.543137 0.000000 
-0.144337 -0.063399 -0.075773 0.901961 0.590196 0.539216 0.000000 
-0.114039 -0.062608 -0.084731 0.740196 0.474510 0.506863 0.000000 
-0.115996 -0.060014 -0.098966 0.358824 0.127451 0.160784 0.000000 
0.007287 0.067447 -0.119244 0.780392 0.545098 0.476471 0.000000 
0.032764 0.095690 -0.147076 0.411765 0.320588 0.434314 0.000000 
0.006894 -0.114481 -0.272242 0.921569 0.666667 0.529412 0.000000 
0.071091 -0.107766 -0.322595 0.986274 0.721569 0.601961 0.000000 
0.020015 0.030523 0.301689 0.229412 0.186275 0.266667 0.000000 
0.063948 0.008288 0.248859 0.958824 0.709804 0.527451 0.000000 
-0.064039 -0.023915 0.251905 0.925490 0.829412 0.743137 0.000000 
0.001930 -0.027434 0.235811 0.912745 0.593137 0.494118 0.000000 
0.055138 0.011279 0.223329 1.000000 0.921569 0.872549 0.000000 
0.052171 0.039639 0.218156 0.868627 0.647059 0.637255 0.000000 
0.015695 -0.050178 0.137465 0.815686 0.609804 0.464706 0.000000 
0.008835 0.114926 0.140298 0.405882 0.263725 0.174510 0.000000 
0.024461 0.143311 0.138355 1.000000 0.956863 0.949020 0.000000 
-0.140254 -0.048154 0.112221 0.877451 0.696078 0.559804 0.000000 
-0.245161 -0.051312 0.114014 0.360784 0.176471 0.156863 0.000000 
-0.243674 -0.066165 0.117698 0.396078 0.131373 0.133333 0.000000 
-0.233911 -0.069458 0.090656 0.959477 0.739869 0.556863 0.000000 
-0.231527 -0.065234 0.081970 0.801961 0.562745 0.512745 0.000000 
-0.235962 -0.058449 0.067887 0.527451 0.239216 0.184314 0.000000 
-0.014743 -0.091302 -0.026000 0.886275 0.598039 0.464706 0.000000 
-0.236758 -0.061934 0.038893 0.629412 0.313726 0.227451 0.000000 
-0.010435 0.041274 -0.010522 0.586275 0.375490 0.399020 0.000000 
-0.247768 -0.059249 0.025018 0.513726 0.223529 0.243137 0.000000 
-0.213238 -0.054787 -0.003339 0.894118 0.633333 0.462745 0.000000 
-0.222098 -0.066059 -0.029379 0.594118 0.313726 0.227451 0.000000 
-0.195574 -0.070950 -0.056528 0.719608 0.538235 0.600980 0.000000 
0.035091 -0.080505 -0.171744 0.449020 0.190196 0.200000 0.000000 
0.014254 0.119239 -0.103407 0.550980 0.368627 0.284314 0.000000 
-0.018756 -0.011848 0.271213 0.929412 0.717647 0.484314 0.000000 
0.051431 0.000682 0.230107 1.000000 0.966667 0.929412 0.000000 
0.037803 0.110677 0.160396 0.333333 0.194118 0.035294 0.000000 
0.018092 0.132770 0.140728 0.472549 0.292157 0.172549 0.000000 
-0.281159 -0.069797 0.161941 0.890196 0.589216 0.499020 0.000000 
-0.256022 -0.068632 0.140385 1.000000 0.743791 0.560784 0.333333 
-0.052595 -0.076415 0.040514 1.000000 0.780392 0.576471 0.000000 
-0.041535 -0.080592 0.022725 0.978431 0.794118 0.541176 0.000000 
-0.117519 -0.059245 -0.021446 0.478431 0.286275 0.386275 0.000000 
-0.038544 0.034926 -0.035505 0.492157 0.488235 0.735294 0.000000 
-0.138663 -0.063269 -0.039762 0.529412 0.231373 0.256863 0.000000 
-0.220733 -0.062877 -0.044983 0.601961 0.329412 0.319608 0.000000 
0.019897 0.131999 0.165032 1.000000 0.988235 0.968627 0.000000 
0.045615 -0.035740 -0.250237 0.986274 0.941176 0.929412 0.000000 
0.036166 0.029654 0.293873 1.000000 0.928105 0.566013 0.000000 
0.064875 0.007404 0.243776 0.887255 0.589216 0.459804 0.000000 
-0.061041 -0.023926 0.248905 0.925490 0.768627 0.380392 0.000000 
0.014379 0.112867 0.151852 0.796078 0.678431 0.509804 0.000000 
0.114707 -0.063125 -0.041652 0.852288 0.797386 0.762091 0.000000 
0.106527 -0.093518 -0.052936 0.728431 0.434314 0.369608 0.000000 
0.109881 -0.093280 -0.071992 0.911111 0.833987 0.781699 0.000000 
-0.160977 -0.058598 -0.047293 0.574510 0.282353 0.315686 0.000000 
0.077786 0.037311 0.242340 0.947059 0.698039 0.594118 0.000000 
0.030361 0.113424 0.169512 1.000000 0.876471 0.717647 0.000000 
0.113399 -0.071991 -0.061045 0.985294 0.962745 0.925490 0.000000 
-0.006327 -0.107768 -0.236815 0.903922 0.666667 0.374510 0.000000 
0.005384 0.108039 0.162588 0.474510 0.268627 0.213725 0.000000 
0.021233 0.124148 0.158134 0.492157 0.354902 0.262745 0.000000 
-0.172306 -0.070336 -0.067706 0.822222 0.554248 0.466667 0.333333 
0.004409 -0.067016 -0.201031 0.525490 0.287255 0.291176 0.000000 
-0.098612 -0.038078 0.194610 0.937255 0.709804 0.488235 0.000000 
0.008512 0.093560 0.153274 0.792157 0.533333 0.421569 0.000000 
0.008585 -0.014324 0.097112 0.874510 0.662745 0.654902 0.000000 
0.096897 -0.060578 -0.010993 1.000000 0.964706 0.935294 0.000000 
0.026403 -0.076955 -0.045508 0.470588 0.184314 0.133333 0.000000 
0.038258 -0.073398 -0.122120 0.580392 0.286275 0.282353 0.000000 
0.025879 -0.089514 -0.155847 0.519608 0.217647 0.166667 0.000000 
-0.000472 0.055655 -0.121060 0.694118 0.458824 0.411765 0.000000 
0.049209 -0.002440 0.234860 0.943137 0.868627 0.843137 0.000000 
-0.050738 -0.026896 0.239317 0.911765 0.719608 0.568627 0.000000 
0.057327 0.007137 0.220468 0.209804 0.043137 0.025490 0.000000 
0.061067 0.011963 0.215116 0.276471 0.098039 0.060784 0.000000 
0.007500 -0.026618 0.194092 0.988235 0.676471 0.645098 0.000000 
0.011405 -0.025628 0.181836 0.825490 0.503922 0.484314 0.000000 
-0.005456 -0.060293 0.172467 0.739216 0.419608 0.262745 0.000000 
-0.024455 0.050688 0.173618 0.327451 0.201961 0.041176 0.000000 
-0.012513 0.072585 0.161800 0.533333 0.301961 0.164706 0.000000 
0.022048 -0.039645 0.129992 0.811765 0.549020 0.549020 0.000000 
0.019704 -0.049361 0.124790 0.341176 0.125490 0.060784 0.000000 
0.003122 0.088585 0.146360 0.449020 0.211765 0.100000 0.000000 
0.002140 0.087723 0.143063 0.770588 0.564706 0.437255 0.000000 
0.022428 -0.039817 0.117640 0.739216 0.482353 0.498039 0.000000 
-0.261359 -0.078787 0.171095 1.000000 0.762745 0.525490 0.000000 
0.002354 -0.049840 0.092610 0.578431 0.382353 0.378431 0.000000 
-0.230585 -0.068354 0.141007 0.401961 0.368627 0.590196 0.000000 
0.040274 -0.088608 0.048999 0.990196 0.698039 0.600000 0.000000 
-0.234010 -0.072413 0.121691 0.462745 0.198039 0.198039 0.000000 
0.012794 -0.019368 0.055378 0.866667 0.592157 0.570588 0.000000 
0.014209 -0.015729 0.047019 0.807843 0.529412 0.531373 0.000000 
-0.238550 -0.080279 0.102864 1.000000 0.694118 0.639216 0.000000 
-0.219322 -0.070130 0.090219 0.821569 0.678431 0.615686 0.000000 
0.118389 -0.066906 -0.048495 1.000000 0.933333 0.927451 0.000000 
-0.011338 0.039483 -0.002111 0.715686 0.490196 0.503922 0.000000 
0.034080 -0.068753 -0.055986 0.503922 0.211765 0.176471 0.000000 
-0.015290 0.037109 -0.016240 0.550980 0.352941 0.384314 0.000000 
0.035451 -0.064424 -0.064141 0.478431 0.200000 0.200000 0.000000 
-0.194128 -0.069518 0.008448 0.886275 0.662745 0.496078 0.000000 
0.040689 -0.066560 -0.089464 0.845098 0.556863 0.550980 0.000000 
-0.203405 -0.078973 -0.002510 0.558824 0.282353 0.182353 0.000000 
0.037001 -0.069819 -0.105070 0.468627 0.170588 0.186275 0.000000 
-0.145482 -0.068226 -0.030606 0.515686 0.235294 0.200000 0.000000 
-0.183858 -0.073189 -0.020342 0.888235 0.627451 0.429412 0.000000 
-0.115167 -0.068236 -0.055429 0.854902 0.560784 0.496078 0.000000 
0.041852 -0.069382 -0.124668 0.535294 0.247059 0.262745 0.000000 
0.032090 -0.082082 -0.130018 0.939216 0.645098 0.549020 0.000000 
-0.244401 -0.082487 -0.017963 0.643137 0.668627 0.874510 0.000000 
-0.002995 0.058647 -0.096871 0.717647 0.476471 0.460784 0.000000 
0.029097 -0.083565 -0.162361 0.841176 0.554902 0.511765 0.000000 
-0.161592 -0.073549 -0.071572 0.607843 0.384314 0.464706 0.000000 
-0.253268 0.140153 0.101957 0.394771 0.230065 0.291503 0.666667 
0.034807 -0.086208 -0.180874 0.576471 0.296078 0.213725 0.000000 
0.014110 -0.100949 -0.234086 0.613725 0.317647 0.194118 0.000000 
0.064145 -0.062320 -0.292053 0.639216 0.370588 0.268627 0.000000 
0.020353 0.005807 0.295326 0.966667 0.849020 0.658824 0.000000 
0.063822 0.025812 0.204782 1.000000 0.952941 0.923529 0.000000 
0.004509 0.102624 0.136209 0.335294 0.211765 0.129412 0.000000 
0.018462 -0.067834 0.103968 0.531373 0.327451 0.115686 0.000000 
0.002364 -0.001525 0.103831 0.813725 0.633333 0.637255 0.000000 
-0.230045 -0.066808 0.138368 0.803922 0.698039 0.698039 0.000000 
-0.228890 -0.073842 0.113401 0.466667 0.172549 0.080392 0.000000 
-0.236555 -0.082338 0.092470 0.915686 0.605882 0.566667 0.000000 
0.116981 -0.073396 -0.035240 0.996078 0.921569 0.864706 0.000000 
0.117647 -0.060099 -0.046001 1.000000 0.952941 0.935294 0.000000 
-0.012006 0.037299 0.008365 0.654902 0.425490 0.431373 0.000000 
-0.220470 -0.081260 0.004417 0.496078 0.198039 0.188235 0.000000 
-0.191546 -0.071699 -0.006173 0.525490 0.268627 0.233333 0.000000 
-0.190579 -0.073040 -0.012842 0.911765 0.641176 0.519608 0.000000 
-0.185504 -0.075086 -0.025176 0.862745 0.605882 0.431373 0.000000 
-0.146142 -0.067480 -0.083772 0.176471 0.088235 0.164706 0.000000 
0.027619 0.076758 -0.161195 0.758824 0.511765 0.423529 0.000000 
0.012816 0.058200 -0.160143 0.578431 0.398039 0.382353 0.000000 
0.074680 -0.061094 -0.306137 0.321569 0.170588 0.231373 0.000000 
0.044286 -0.012317 0.290325 0.927451 0.764706 0.607843 0.000000 
0.059786 0.022098 0.269578 0.554902 0.164706 0.109804 0.000000 
-0.024091 0.068320 0.176769 0.819608 0.637255 0.384314 0.000000 
0.003016 0.100989 0.162255 0.798039 0.615686 0.615686 0.000000 
-0.024532 0.055932 0.155855 0.207843 0.133333 0.164706 0.000000 
0.014751 -0.012258 0.138121 0.974510 0.903922 0.876471 0.000000 
0.113497 -0.065013 -0.051754 0.225490 0.056863 0.078431 0.000000 
-0.209263 -0.075588 0.015774 0.501961 0.211765 0.211765 0.000000 
0.015821 0.062302 -0.163958 0.184314 0.101961 0.125490 0.000000 
0.067065 -0.078175 -0.292266 0.668627 0.452941 0.388235 0.000000 
0.082563 -0.093530 -0.327068 1.000000 0.962745 0.978431 0.000000 
-0.243329 -0.075493 0.138627 0.952941 0.672549 0.533333 0.000000 
-0.235522 -0.079495 0.097603 0.458824 0.168627 0.168627 0.000000 
-0.225330 -0.077691 0.064287 0.837255 0.560784 0.429412 0.000000 
-0.237235 -0.080570 0.046264 0.578431 0.270588 0.335294 0.000000 
0.071640 -0.073402 -0.286405 1.000000 0.964706 0.901961 0.000000 
-0.234278 -0.076058 0.130232 0.433333 0.172549 0.178431 0.000000 
-0.202087 -0.068641 0.013968 0.813725 0.578431 0.339216 0.000000 
0.005410 0.113080 -0.122550 0.684314 0.425490 0.264706 0.000000 
0.021826 0.004463 0.291770 0.955882 0.800980 0.465686 0.000000 
0.011162 -0.007946 0.281445 0.960784 0.790196 0.550980 0.000000 
0.102414 -0.062848 -0.021472 0.692157 0.398039 0.417647 0.000000 
-0.236014 -0.084301 0.064380 0.909804 0.647059 0.454902 0.000000 
-0.192734 -0.072493 -0.001141 0.513726 0.250980 0.249020 0.000000 
-0.022599 0.044623 0.162676 0.207843 0.127451 0.080392 0.000000 
0.062765 0.033767 0.262128 0.960784 0.735294 0.437255 0.000000 
0.055979 -0.056366 -0.264553 0.901961 0.796078 0.776471 0.000000 
0.005049 0.005045 0.147119 0.870588 0.800000 0.780392 0.000000 
