0.002285 -0.009678 0.258759 0.900000 0.633333 0.470588 0.000000 
-0.024360 -0.026209 0.217380 0.905882 0.643137 0.427451 0.000000 
0.050345 0.112377 0.208546 0.374510 0.337255 0.450980 0.000000 
0.042261 0.117125 0.200886 0.374510 0.213726 0.179412 0.000000 
-0.046649 -0.052546 0.141316 0.990196 0.815686 0.433333 0.000000 
-0.026800 -0.063996 0.138837 0.713726 0.441176 0.231373 0.000000 
-0.117156 -0.017231 0.144619 0.713726 0.625490 0.301961 0.000000 
-0.058370 -0.056519 0.064830 0.839216 0.521569 0.380392 0.000000 
-0.094314 -0.036085 0.070132 0.721569 0.452941 0.345098 0.000000 
-0.057619 -0.063025 0.044568 0.588235 0.301961 0.121569 0.000000 
-0.120637 -0.056186 0.031817 0.684314 0.480392 0.185294 0.000000 
0.103321 -0.040301 0.013757 0.429412 0.437255 0.733333 0.000000 
-0.037901 -0.087682 -0.017743 0.739216 0.427451 0.298039 0.000000 
-0.093014 -0.045679 0.003710 0.947712 0.698039 0.385621 0.000000 
-0.038275 -0.085559 -0.027287 0.925490 0.692157 0.433333 0.000000 
-0.050121 -0.083884 -0.028153 0.541176 0.254902 0.186275 0.000000 
-0.126440 -0.029749 -0.015763 0.415686 0.417647 0.668627 0.000000 
-0.114284 -0.045247 -0.053078 0.550980 0.266667 0.150980 0.000000 
0.024196 -0.077673 -0.082829 0.666667 0.405882 0.317647 0.000000 
-0.257035 0.006162 -0.052039 0.609804 0.327451 0.286275 0.000000 
-0.267764 0.005708 -0.081683 0.662745 0.384314 0.243137 1.000000 
-0.269981 0.008392 -0.093649 0.527451 0.258824 0.160784 1.000000 
-0.135827 -0.052085 -0.171597 0.468627 0.192157 0.207843 0.000000 
-0.155725 -0.044439 -0.184421 0.901961 0.660784 0.407843 0.000000 
-0.205863 -0.028026 -0.198800 0.537255 0.229412 0.235294 0.000000 
-0.260020 0.003007 -0.190112 0.496078 0.319608 0.419608 1.000000 
0.016288 -0.114234 -0.275129 0.888235 0.611765 0.429412 0.000000 
-0.249716 0.003928 -0.202999 0.513726 0.262745 0.270588 1.000000 
-0.167666 -0.050949 -0.240816 0.650980 0.362745 0.235294 0.000000 
-0.006808 -0.116650 -0.284973 0.931373 0.817647 0.539216 0.000000 
-0.231862 -0.011937 -0.224077 0.784314 0.519608 0.388235 0.000000 
0.009615 -0.125639 -0.296174 0.831373 0.594118 0.313726 0.000000 
0.074546 -0.067460 -0.290791 0.381863 0.285294 0.370098 0.000000 
0.030115 -0.126715 -0.336745 0.423529 0.245098 0.296078 0.000000 
0.038087 0.024002 0.310141 0.909150 0.759150 0.382026 0.000000 
0.053055 0.034928 0.310311 0.380392 0.416667 0.550980 0.000000 
0.046374 0.027050 0.299214 0.699346 0.377778 0.369935 0.000000 
0.066579 0.032834 0.272509 0.458824 0.416176 0.475000 0.000000 
0.044561 0.010134 0.256647 0.537255 0.403922 0.425490 0.000000 
-0.065612 -0.013367 0.224318 0.858824 0.664706 0.266667 0.000000 
-0.086265 -0.011761 0.189876 0.988235 0.921569 0.498039 0.000000 
-0.097914 -0.014447 0.169405 0.403922 0.443137 0.723529 0.000000 
0.187682 0.261280 0.173230 0.405042 0.441036 0.688936 0.000000 
-0.020630 -0.070866 0.104566 0.831373 0.521569 0.519608 0.000000 
-0.047992 -0.065198 0.055625 0.974510 0.682353 0.539216 0.000000 
-0.099405 -0.025296 0.054166 0.758824 0.498039 0.362745 0.000000 
-0.091497 -0.046632 0.010055 0.688235 0.388235 0.301961 0.000000 
0.100207 -0.058175 -0.013717 0.942484 0.843791 0.800000 0.000000 
-0.050592 -0.079510 -0.013955 0.664706 0.419608 0.147059 0.000000 
-0.052730 -0.085880 -0.039079 0.578431 0.288235 0.268627 0.000000 
-0.261478 0.008945 -0.065890 0.619608 0.325490 0.307843 0.000000 
-0.085794 -0.061225 -0.120827 0.703922 0.407843 0.340196 0.000000 
0.015844 -0.098391 -0.193504 0.870588 0.625490 0.394118 0.000000 
-0.160956 -0.040056 -0.164545 0.553431 0.250980 0.317157 0.250000 
-0.227086 -0.020703 -0.156123 0.856863 0.589706 0.364706 0.250000 
0.009709 -0.123487 -0.301885 0.705882 0.471895 0.189542 0.000000 
-0.194333 -0.046486 -0.256558 0.733333 0.464706 0.425490 0.000000 
0.034808 -0.114756 -0.303463 0.900980 0.655882 0.404902 0.000000 
0.053701 -0.122151 -0.335967 0.452941 0.253922 0.310457 0.000000 
0.067338 0.042297 0.288012 0.766667 0.535294 0.358824 0.000000 
0.034376 -0.003866 0.275303 0.994118 0.809804 0.651961 0.000000 
0.047471 0.020941 0.265829 0.337255 0.394118 0.531373 0.000000 
0.010931 -0.014957 0.248381 0.674510 0.368627 0.295098 0.000000 
-0.041189 -0.051694 0.144196 0.809804 0.615686 0.252941 0.000000 
-0.044312 -0.075269 -0.001688 0.998693 0.779085 0.603922 0.000000 
-0.124736 -0.024735 -0.010762 0.445098 0.464706 0.752941 0.000000 
-0.041061 -0.091920 -0.063438 0.545098 0.272549 0.113725 0.000000 
-0.036146 -0.095935 -0.066073 0.590196 0.300000 0.152941 0.000000 
-0.119768 -0.041701 -0.053893 0.631373 0.349020 0.292157 0.000000 
-0.110501 -0.053839 -0.126523 0.660784 0.388235 0.398039 0.000000 
0.009266 -0.098963 -0.175893 0.625490 0.339216 0.243137 0.000000 
-0.149076 -0.026666 -0.167036 0.892157 0.619608 0.401961 0.000000 
-0.216368 -0.023766 -0.202834 0.696078 0.425490 0.241176 0.000000 
-0.171409 -0.048757 -0.243130 0.921569 0.643137 0.494118 0.000000 
0.043586 -0.119505 -0.303713 0.898039 0.658824 0.374510 0.000000 
-0.015133 -0.117344 -0.305446 0.821569 0.562745 0.300000 0.000000 
0.054613 -0.120288 -0.334947 0.198693 0.109804 0.206536 0.000000 
-0.032056 -0.075199 0.098520 0.493137 0.219608 0.152941 0.000000 
0.098709 -0.048586 0.015953 0.580392 0.464706 0.480392 0.000000 
-0.112895 -0.047274 -0.129010 0.535294 0.261765 0.259804 0.000000 
0.021699 -0.090951 -0.157207 0.735294 0.466667 0.307843 0.000000 
-0.230502 -0.024151 -0.165980 0.704575 0.391503 0.288235 0.333333 
-0.015329 -0.072812 0.122027 0.970588 0.649020 0.633333 0.000000 
-0.110636 -0.042716 0.013849 0.821569 0.566667 0.462745 0.000000 
-0.034091 -0.079107 -0.021181 0.932353 0.718627 0.439216 0.000000 
-0.056036 -0.082103 -0.026686 0.871895 0.597386 0.439216 0.000000 
-0.131656 -0.029607 -0.084752 0.849020 0.749020 0.717647 0.000000 
0.014308 -0.093023 -0.171688 0.525490 0.243137 0.170588 0.000000 
-0.116181 -0.059541 -0.203177 0.576471 0.284314 0.196078 0.000000 
0.059748 0.017570 0.267026 0.362745 0.403922 0.534314 0.000000 
-0.107768 -0.014090 0.153839 0.687255 0.442157 0.138235 0.000000 
-0.111137 -0.018712 0.123265 0.423529 0.447059 0.709804 0.000000 
-0.033853 -0.068423 0.022587 0.864706 0.615686 0.494118 0.000000 
-0.058963 -0.077342 0.003172 0.966667 0.699020 0.426471 0.000000 
-0.060817 -0.084997 -0.046071 0.776471 0.476471 0.390196 0.000000 
-0.295739 0.038130 -0.021974 0.584314 0.335294 0.337255 1.000000 
0.061776 -0.107386 -0.332040 0.149020 0.149020 0.300980 0.000000 
-0.009132 -0.046370 0.124703 0.965359 0.661438 0.660784 0.000000 
-0.102594 -0.028632 0.075769 0.690196 0.423529 0.290196 0.000000 
-0.071380 -0.055312 0.065299 0.758824 0.482353 0.258824 0.000000 
-0.117176 -0.036422 -0.089833 0.850980 0.550980 0.390196 0.000000 
-0.211932 -0.072175 -0.291098 0.227451 0.211765 0.360784 0.000000 
-0.196767 -0.041191 -0.275796 0.210784 0.247059 0.450980 0.000000 
0.057711 -0.092328 -0.327050 0.300000 0.352941 0.680392 0.000000 
-0.071097 -0.069836 0.001338 0.725490 0.452941 0.215686 0.000000 
-0.206145 -0.030345 -0.189148 0.819608 0.533333 0.440523 0.333333 
-0.163461 -0.040170 -0.164986 0.725980 0.424510 0.286275 0.000000 
-0.214441 -0.027456 -0.269789 0.260784 0.300000 0.537255 0.000000 
-0.044120 -0.015490 0.187803 0.949412 0.749020 0.438824 0.000000 
-0.095524 -0.016356 0.198536 0.305882 0.354902 0.456863 0.000000 
-0.128438 -0.048671 -0.129206 0.576471 0.269608 0.256863 0.000000 
-0.129574 -0.040782 -0.111273 0.781373 0.577451 0.260784 0.000000 
-0.087601 -0.048655 0.017370 0.580392 0.278431 0.200000 0.000000 
-0.169447 -0.021630 -0.111199 0.433987 0.458170 0.735294 0.666667 
-0.160628 0.005399 -0.214357 0.215686 0.147059 0.260784 1.000000 
0.071981 0.044062 0.272466 0.806536 0.562092 0.458824 0.000000 
-0.009203 -0.007983 0.268088 0.966667 0.713726 0.480392 0.000000 
0.010945 -0.014505 0.257083 0.623529 0.350980 0.245098 0.000000 
-0.094143 -0.019181 0.203813 0.350980 0.388235 0.517647 0.000000 
0.100915 -0.046762 0.006695 0.992157 0.890196 0.858824 0.000000 
-0.292427 0.004151 0.055064 0.743627 0.447549 0.338726 0.750000 
-0.067492 -0.074282 -0.045897 0.701961 0.396078 0.309804 0.000000 
-0.118844 -0.044486 -0.102400 0.667647 0.330392 0.271569 0.000000 
-0.141580 -0.032974 -0.110930 0.807843 0.486275 0.347059 0.000000 
-0.159266 -0.024375 -0.107955 0.611765 0.356863 0.215686 0.000000 
0.026055 -0.091819 -0.157069 0.792157 0.515686 0.354902 0.000000 
0.023594 -0.096156 -0.160945 0.715686 0.443137 0.264706 0.000000 
0.017225 -0.098801 -0.170736 0.700000 0.415686 0.307843 0.000000 
-0.185914 -0.017011 -0.125353 0.427451 0.464706 0.713726 0.000000 
-0.220081 -0.021637 -0.144088 0.870588 0.639216 0.368627 0.000000 
-0.223320 -0.022649 -0.198218 0.482353 0.237255 0.298039 0.000000 
0.044262 -0.088145 -0.274345 0.639216 0.411765 0.245098 0.000000 
0.026825 -0.118296 -0.292825 0.696078 0.435294 0.350980 0.000000 
-0.263412 0.009016 -0.198499 0.619608 0.649020 0.852941 1.000000 
0.041048 -0.126612 -0.325719 0.727451 0.431373 0.288235 0.000000 
0.020451 -0.116109 -0.322888 0.773529 0.508824 0.390196 0.000000 
0.055165 -0.122636 -0.333717 0.433333 0.182353 0.188235 0.000000 
0.059941 0.044396 0.290258 0.914706 0.694118 0.370588 0.000000 
-0.069121 -0.012015 0.219672 0.364706 0.374510 0.539216 0.000000 
-0.054915 -0.013767 0.213084 0.882353 0.570588 0.360784 0.000000 
0.003703 -0.020644 0.201158 0.701961 0.421569 0.394118 0.000000 
-0.023957 -0.036787 0.189611 0.805882 0.637255 0.317647 0.000000 
0.036054 0.119662 0.204918 0.245098 0.131373 0.174510 0.000000 
0.020207 0.094596 0.191340 0.484967 0.260131 0.240523 0.000000 
0.032172 0.123248 0.184812 0.636275 0.563725 0.542157 0.000000 
-0.136944 -0.022963 0.096482 0.370588 0.156863 0.000000 0.000000 
-0.041168 -0.073448 0.002964 0.856863 0.578431 0.449020 0.000000 
-0.010214 -0.089773 -0.031042 0.643137 0.403922 0.174510 0.000000 
-0.085423 -0.059880 -0.075863 0.429412 0.149020 0.011765 0.000000 
-0.000215 -0.101624 -0.178322 0.676471 0.401961 0.331373 0.000000 
-0.122562 -0.056061 -0.149638 0.800000 0.507843 0.372549 0.000000 
-0.013222 -0.091188 -0.184807 0.827451 0.560784 0.327451 0.000000 
-0.231521 -0.013738 -0.102628 0.574510 0.280392 0.251961 0.000000 
-0.170630 -0.038994 -0.175240 0.766667 0.476471 0.284314 0.000000 
0.027077 -0.109390 -0.250783 0.627451 0.347059 0.324510 0.000000 
-0.031643 -0.095972 -0.259911 0.341176 0.374510 0.584314 0.000000 
-0.156473 -0.047146 -0.224675 0.268627 0.203922 0.276471 0.000000 
0.062590 -0.056418 -0.263020 0.954902 0.788235 0.703922 0.000000 
0.057487 0.037985 0.292732 0.903922 0.674510 0.376471 0.000000 
0.034025 -0.002677 0.277010 0.874510 0.698039 0.533333 0.000000 
0.021194 -0.018493 0.134738 0.452941 0.443137 0.700000 0.000000 
-0.147489 -0.030947 0.032671 0.919608 0.733333 0.445098 0.000000 
-0.054459 -0.078022 -0.001497 0.722222 0.491503 0.197386 0.000000 
-0.058571 -0.075970 -0.025547 0.543137 0.237255 0.188235 0.000000 
-0.049103 -0.086394 -0.031062 0.625490 0.368627 0.288235 0.000000 
0.110553 -0.066611 -0.040744 0.421569 0.460784 0.771569 0.000000 
-0.133567 -0.026673 -0.013031 0.800000 0.562745 0.335294 0.000000 
-0.092281 -0.051584 -0.108771 0.798039 0.509804 0.400000 0.000000 
0.021941 -0.098484 -0.165191 0.713726 0.437255 0.280392 0.000000 
0.014690 -0.099263 -0.176798 0.617647 0.327451 0.256863 0.000000 
0.031931 -0.084776 -0.197892 0.688235 0.435294 0.292157 0.000000 
-0.203433 -0.028596 -0.136967 0.712418 0.448366 0.204902 0.333333 
0.001151 -0.112297 -0.247804 0.505882 0.219608 0.119608 0.000000 
-0.176150 -0.034322 -0.199311 0.580392 0.296078 0.276471 0.333333 
-0.046294 -0.014924 0.251154 0.346275 0.388235 0.526275 0.000000 
0.032263 0.114459 0.210311 0.756863 0.486275 0.394118 0.000000 
-0.071965 -0.022386 0.180045 0.698039 0.425490 0.341176 0.000000 
-0.259926 -0.002938 0.019282 0.535294 0.332680 0.376471 0.333333 
0.005505 -0.110149 -0.248137 0.515686 0.215686 0.139216 0.000000 
-0.154737 -0.050309 -0.231914 0.170588 0.178431 0.317647 0.000000 
-0.074644 -0.007410 0.220085 0.350980 0.392157 0.500000 0.000000 
-0.066651 -0.039174 0.116190 0.939216 0.719608 0.366667 0.000000 
0.102684 -0.060818 -0.017411 0.866667 0.809804 0.834314 0.000000 
-0.112732 -0.047315 -0.101626 0.623529 0.341176 0.364706 0.000000 
-0.205847 -0.023020 -0.143712 0.490196 0.192157 0.143137 0.000000 
-0.201277 -0.028620 -0.171774 0.711765 0.447059 0.196078 0.000000 
0.059068 0.036578 0.283521 0.798039 0.548039 0.318627 0.000000 
-0.102745 -0.016895 0.186628 0.354902 0.388235 0.543137 0.000000 
-0.042594 -0.081663 -0.056403 0.833333 0.552941 0.396078 0.000000 
-0.111604 -0.043824 -0.073847 0.760784 0.443137 0.294118 0.000000 
-0.010513 -0.112115 -0.330996 0.280392 0.321569 0.621569 0.000000 
0.032465 0.006394 0.252117 0.504902 0.277941 0.333333 0.000000 
-0.075871 -0.019280 0.178398 0.372549 0.288235 0.394118 0.000000 
-0.107980 -0.042578 -0.072698 0.803922 0.501961 0.360784 0.000000 
-0.220498 -0.020493 -0.169765 0.782353 0.501961 0.419608 0.000000 
-0.006774 -0.109729 -0.337522 0.305882 0.345098 0.680392 0.000000 
-0.053102 -0.011231 0.223687 0.709804 0.379412 0.177451 0.000000 
-0.069511 -0.065606 0.008393 1.000000 0.809804 0.488235 0.000000 
-0.217576 -0.023659 -0.167555 0.776471 0.494118 0.398039 0.000000 
-0.106922 -0.017203 0.200029 0.350327 0.384967 0.518301 0.000000 
-0.127248 -0.039655 -0.121272 0.765686 0.458824 0.428431 0.000000 
-0.188767 -0.035436 -0.141260 0.900392 0.602745 0.445882 0.200000 
-0.104053 -0.025164 0.161126 0.703922 0.519608 0.174510 0.000000 
-0.102199 -0.023219 0.148012 0.437255 0.439216 0.717647 0.000000 
-0.169179 -0.045010 -0.188452 0.761765 0.480392 0.500000 0.500000 
0.063580 -0.037816 -0.247325 0.382353 0.398039 0.660784 0.000000 
-0.095622 -0.037371 0.130565 0.435294 0.435294 0.674510 1.000000 
0.031667 0.076417 -0.083434 0.845098 0.717647 0.674510 0.000000 
-0.037573 -0.018824 0.220410 0.886275 0.627451 0.337255 0.000000 
-0.017067 -0.003890 0.285096 0.320261 0.355556 0.498039 0.000000 
-0.016461 -0.000285 0.281599 0.350980 0.296078 0.409804 0.000000 
0.028237 -0.008905 0.269216 0.964706 0.743137 0.654902 0.000000 
-0.017846 -0.010391 0.267205 0.982353 0.749020 0.523529 0.000000 
0.024978 -0.011301 0.262987 0.949020 0.737255 0.635294 0.000000 
-0.036204 -0.007078 0.261425 0.335294 0.370588 0.531373 0.000000 
0.036920 0.126669 0.211286 0.333333 0.388235 0.529412 0.000000 
-0.047957 -0.047120 0.169208 0.850980 0.670588 0.313726 0.000000 
-0.060035 -0.039953 0.168970 0.698039 0.382353 0.184314 0.000000 
-0.030584 -0.064896 0.135169 0.643137 0.382353 0.282353 0.000000 
0.094316 -0.053660 -0.000084 0.988235 0.985621 0.948039 0.000000 
-0.307530 0.019244 0.062007 0.641176 0.343137 0.286275 1.000000 
-0.272138 0.005411 0.040686 0.892157 0.633333 0.394118 0.000000 
-0.277061 0.001658 0.009856 0.782353 0.490196 0.339216 1.000000 
-0.126047 -0.036447 -0.050596 0.852941 0.550980 0.376471 0.000000 
-0.258778 -0.025430 -0.021105 0.699216 0.385098 0.322353 0.600000 
-0.087972 -0.052657 -0.122292 0.619608 0.345098 0.301961 0.000000 
-0.168576 -0.030187 -0.104650 0.607843 0.298039 0.190196 0.000000 
-0.263114 -0.009049 -0.086729 0.709804 0.443137 0.384314 1.000000 
-0.215810 -0.024427 -0.109962 0.635294 0.321569 0.341176 0.000000 
-0.127924 -0.052838 -0.131085 0.600000 0.300000 0.195098 0.000000 
0.003416 0.047816 -0.120076 0.652941 0.413725 0.400000 0.000000 
-0.192972 -0.034441 -0.127635 0.537255 0.239216 0.237255 0.000000 
-0.173974 -0.044560 -0.161640 0.676471 0.354902 0.223529 0.000000 
0.028665 -0.122386 -0.334464 0.413725 0.249020 0.317647 0.000000 
0.050017 0.040471 0.298701 0.376471 0.396078 0.526797 0.000000 
0.013300 -0.019085 0.250176 0.734641 0.431373 0.367320 0.000000 
-0.064511 -0.018029 0.237769 0.859804 0.661765 0.276471 0.000000 
-0.115625 -0.023837 0.175462 0.644444 0.501961 0.111111 0.000000 
0.038914 0.110315 0.185981 0.447059 0.270588 0.203922 0.000000 
-0.076125 -0.035954 0.159696 0.900000 0.631373 0.468627 0.000000 
-0.118634 -0.068972 0.090547 0.341176 0.333333 0.545098 1.000000 
-0.127938 -0.030183 0.066874 0.531373 0.258824 0.123529 0.000000 
-0.293097 -0.001936 0.106398 0.822549 0.555229 0.347059 0.333333 
-0.317982 0.031814 0.074208 0.643137 0.374510 0.403922 1.000000 
0.086483 -0.076963 -0.016614 0.850980 0.517647 0.517647 0.000000 
0.100694 -0.065243 -0.024752 1.000000 0.954902 0.925490 0.000000 
0.094572 -0.081373 -0.031263 0.696078 0.396078 0.378431 0.000000 
0.101508 -0.041636 -0.016692 0.421569 0.447059 0.766667 0.000000 
-0.048277 -0.080803 -0.032603 0.654902 0.362745 0.178431 0.000000 
-0.264328 -0.001388 0.024761 0.650980 0.405882 0.417647 0.000000 
-0.273229 0.163554 0.042929 0.550980 0.282353 0.286275 1.000000 
-0.240079 -0.018832 -0.134380 0.676471 0.390196 0.425490 0.000000 
0.007619 -0.010320 0.269152 1.000000 0.896078 0.709804 0.000000 
-0.097680 -0.023392 0.177199 0.588235 0.409804 0.117647 0.000000 
0.026285 0.104583 0.194158 0.484314 0.270588 0.205882 0.000000 
-0.035839 -0.042340 0.165010 0.974510 0.841176 0.466667 0.000000 
-0.114595 -0.026597 0.139962 0.417647 0.450980 0.709804 0.000000 
0.000078 0.082958 -0.056131 0.735294 0.615686 0.456863 0.000000 
-0.200702 -0.034898 -0.151961 0.915686 0.627451 0.496078 0.000000 
-0.185190 -0.041309 -0.159517 0.917647 0.603922 0.484314 0.000000 
0.006374 -0.120659 -0.291763 0.868627 0.652941 0.368627 0.000000 
0.071634 -0.106719 -0.343293 0.170588 0.129412 0.223529 0.000000 
0.007639 0.008110 0.287257 0.984804 0.823529 0.560784 0.000000 
0.029664 -0.002441 0.271548 0.817647 0.609804 0.486275 0.000000 
-0.003434 0.017114 0.271707 0.921569 0.735294 0.580392 0.000000 
-0.080766 -0.029428 0.166914 0.450980 0.123529 0.007843 0.000000 
-0.287510 0.018066 0.062478 0.729412 0.454902 0.323529 1.000000 
-0.177632 -0.042760 -0.173817 0.847059 0.564706 0.554902 0.000000 
-0.133571 -0.053404 -0.169896 0.733333 0.449020 0.417647 0.000000 
0.039997 -0.003708 0.255533 0.545098 0.278431 0.325490 0.000000 
-0.113810 -0.010719 0.150886 0.425490 0.456863 0.705882 0.000000 
-0.040405 -0.060462 0.131629 0.780392 0.507843 0.296078 0.000000 
-0.264883 -0.001242 -0.050354 0.764706 0.464706 0.350980 1.000000 
-0.130676 -0.019709 0.124381 0.401961 0.168627 0.035294 0.000000 
-0.172711 -0.040547 -0.156992 1.000000 0.731373 0.617647 0.000000 
0.048497 -0.129241 -0.361417 0.291176 0.349020 0.661765 0.000000 
-0.149383 -0.045588 -0.155351 0.809804 0.490196 0.407843 0.000000 
-0.151147 -0.050034 -0.204995 0.256863 0.303922 0.566667 0.000000 
-0.222322 -0.043021 -0.144188 0.303922 0.343137 0.611765 0.000000 
-0.153095 -0.046408 -0.132873 0.733333 0.417647 0.409804 0.000000 
0.049367 0.037598 0.225547 0.409804 0.360784 0.474510 0.000000 
-0.016282 -0.095616 -0.055075 0.627451 0.337255 0.174510 0.000000 
-0.150639 0.451493 0.198304 0.444444 0.477451 0.741830 1.000000 
-0.028653 -0.036233 0.182367 0.862745 0.656863 0.305882 0.000000 
-0.014487 0.011037 0.300161 0.340931 0.372794 0.501961 0.000000 
0.019559 0.024708 0.304630 0.982353 0.815686 0.537255 0.000000 
0.010253 -0.013280 0.270200 0.996078 0.819608 0.631373 0.000000 
0.023143 -0.012533 0.268782 1.000000 0.854902 0.739216 0.000000 
0.069557 0.046931 0.269487 0.892157 0.594118 0.400000 0.000000 
0.041782 -0.002977 0.234728 0.419608 0.218137 0.249510 0.000000 
0.044829 0.010767 0.231511 0.468627 0.288235 0.364706 0.000000 
0.054087 0.015950 0.216416 0.388235 0.372549 0.467320 0.000000 
-0.084502 -0.024581 0.212559 1.000000 0.990196 0.586275 0.000000 
0.008401 0.095210 0.184964 0.645098 0.451961 0.421569 0.000000 
-0.089365 -0.037797 0.134613 0.950980 0.645098 0.541176 0.000000 
-0.124055 -0.026631 0.091842 0.505882 0.315686 0.109804 0.000000 
0.090247 -0.038704 0.017779 0.415686 0.450980 0.749020 0.000000 
0.097664 -0.044902 -0.003773 0.429412 0.462745 0.733333 0.000000 
-0.268348 -0.016475 0.063049 0.678431 0.374510 0.349020 0.000000 
-0.284531 -0.013446 0.064817 0.694118 0.372549 0.303922 0.000000 
-0.257762 -0.021367 -0.009448 0.854902 0.554902 0.413725 0.000000 
-0.135356 -0.034350 -0.055123 0.888235 0.715686 0.543137 0.000000 
-0.011129 0.105225 -0.050828 0.731373 0.615686 0.482353 0.000000 
-0.228183 -0.031810 -0.064707 0.750980 0.484314 0.319608 0.000000 
-0.252791 -0.025837 -0.075359 0.698039 0.407843 0.403922 0.000000 
0.021258 -0.101946 -0.185918 0.941176 0.686275 0.500000 0.000000 
-0.203358 -0.044747 -0.138102 0.400000 0.264706 0.360784 0.000000 
0.008077 -0.115549 -0.294714 0.603922 0.339216 0.186275 0.000000 
0.023181 -0.121538 -0.308257 0.746078 0.471569 0.335294 0.000000 
0.063600 -0.123270 -0.331763 0.894118 0.639216 0.421569 0.000000 
0.054822 0.035190 0.280067 0.897386 0.639869 0.379739 0.000000 
-0.020400 -0.012824 0.267979 0.886275 0.633333 0.433333 0.000000 
-0.074732 -0.021978 0.219092 1.000000 0.972549 0.709804 0.000000 
-0.069801 -0.022651 0.216088 0.560784 0.329412 0.096078 0.000000 
0.000791 -0.027666 0.199471 0.794118 0.468627 0.425490 0.000000 
-0.098995 -0.024305 0.189387 1.000000 0.862745 0.641176 0.000000 
0.035095 0.113850 0.193335 0.882353 0.750000 0.600980 0.000000 
0.017702 0.112373 0.174147 0.643137 0.527451 0.390196 0.000000 
0.010155 0.085751 0.165478 0.390196 0.207843 0.213725 0.000000 
0.019915 -0.063605 0.130382 0.698039 0.441176 0.307843 0.000000 
-0.109240 -0.035808 0.100527 0.380392 0.447059 0.774510 0.000000 
-0.119021 -0.050574 0.092700 0.423529 0.458824 0.725490 0.000000 
-0.130966 -0.033759 0.082267 0.598039 0.341176 0.190196 0.000000 
-0.150206 -0.030987 0.073317 1.000000 0.864706 0.592157 0.000000 
0.108519 -0.061554 -0.027532 0.912745 0.811765 0.757843 0.000000 
-0.256603 -0.033053 -0.009501 0.580392 0.295098 0.199020 0.000000 
-0.188063 -0.028844 -0.059128 0.384314 0.427451 0.645098 0.000000 
-0.231213 -0.027907 -0.051549 0.650980 0.376471 0.343137 0.000000 
-0.126308 -0.049409 -0.096176 0.768627 0.452941 0.350980 0.000000 
0.029662 -0.096436 -0.182422 0.649020 0.359804 0.290196 0.000000 
-0.204114 -0.043024 -0.122699 0.619608 0.319608 0.235294 0.000000 
-0.273712 -0.014131 -0.103633 0.574510 0.600000 0.819608 1.000000 
0.021916 -0.112522 -0.273053 0.550000 0.258824 0.158824 0.000000 
0.033259 -0.110033 -0.281763 0.865359 0.611111 0.341830 0.000000 
0.072271 -0.092121 -0.321713 0.956209 0.838562 0.698039 0.000000 
-0.017486 -0.025684 0.244230 0.937255 0.668627 0.443137 0.000000 
-0.114497 -0.031796 0.138150 0.709804 0.537255 0.357843 0.000000 
-0.317284 -0.006421 0.125263 1.000000 0.784804 0.561765 1.000000 
-0.034635 -0.082911 -0.001444 0.954902 0.762745 0.478431 0.000000 
-0.272852 -0.019962 -0.028594 0.801961 0.501961 0.396078 1.000000 
0.033318 -0.125667 -0.328772 0.574510 0.352941 0.354902 0.000000 
0.038962 -0.123952 -0.331098 0.603922 0.382353 0.398039 0.000000 
0.035345 -0.000875 0.233869 0.350980 0.194118 0.239216 0.000000 
-0.094273 -0.035965 0.153050 0.426471 0.452941 0.697059 0.000000 
-0.106341 -0.048905 -0.038965 0.775490 0.470588 0.290196 0.000000 
0.004733 0.054364 -0.113420 0.480392 0.250980 0.207843 0.000000 
0.009577 0.058401 -0.114274 0.682353 0.460784 0.398039 0.000000 
-0.182100 -0.045487 -0.131152 0.924510 0.621569 0.527451 0.000000 
0.054428 0.038005 0.296255 0.356863 0.403922 0.558824 0.000000 
-0.037292 -0.081078 0.022275 0.639216 0.374510 0.225490 0.000000 
-0.197937 -0.043842 -0.140746 0.364706 0.243137 0.313726 0.000000 
0.031586 -0.100418 -0.292130 0.917647 0.672549 0.374510 0.000000 
0.073261 -0.120792 -0.348344 0.584314 0.333333 0.372549 0.000000 
-0.075865 -0.024992 0.234461 0.354902 0.375490 0.512745 0.000000 
0.003660 0.091515 0.170439 0.641176 0.393137 0.275490 0.000000 
0.001594 0.080115 0.166802 0.327451 0.137255 0.080392 0.000000 
-0.071266 -0.040074 0.052259 0.784314 0.515686 0.288235 0.000000 
0.078217 -0.078267 -0.014522 0.907843 0.588235 0.574510 0.000000 
-0.006514 -0.108808 -0.269871 0.764706 0.521569 0.260784 0.000000 
-0.020965 -0.026786 0.231667 0.864706 0.513726 0.396078 0.000000 
-0.058954 -0.024757 0.215666 0.964706 0.694118 0.490196 0.000000 
-0.367382 0.393854 0.247045 0.415686 0.439216 0.688235 1.000000 
-0.042101 -0.019701 0.252563 0.353922 0.368627 0.526471 0.000000 
0.017606 0.023852 0.297205 0.958824 0.761765 0.397059 0.000000 
-0.103074 -0.021146 0.208817 0.345098 0.401961 0.496078 0.000000 
-0.046907 -0.070549 0.207995 0.343137 0.384314 0.492157 0.000000 
-0.281964 -0.027874 0.045906 0.735294 0.427451 0.321569 1.000000 
0.053982 0.017840 0.281298 0.372549 0.101961 0.085294 0.000000 
0.009518 0.001740 0.291402 0.915686 0.756863 0.405882 0.000000 
0.044461 0.013270 0.286216 0.996569 0.850980 0.486765 0.000000 
0.044167 0.000219 0.268264 0.801961 0.476471 0.339216 0.000000 
-0.048839 -0.045028 0.179812 0.913725 0.682353 0.362745 0.000000 
0.034161 0.103021 0.175248 0.535294 0.300000 0.172549 0.000000 
-0.133209 -0.032941 0.155255 0.356863 0.366667 0.570588 0.000000 
0.019282 -0.082133 0.091804 0.835294 0.564706 0.458824 0.000000 
0.014804 -0.082411 -0.043203 0.733333 0.466667 0.349020 0.000000 
-0.220313 -0.055733 -0.004347 0.457843 0.210294 0.173039 0.250000 
-0.214414 -0.049757 -0.020603 0.784314 0.526797 0.315033 0.333333 
-0.214762 -0.047072 -0.044595 0.592157 0.292157 0.286275 0.000000 
-0.151924 -0.045739 -0.062706 0.980392 0.747059 0.466667 0.000000 
0.019890 -0.091120 -0.144477 0.825490 0.533333 0.358824 0.000000 
0.040099 -0.026983 -0.233139 0.330392 0.346078 0.614706 0.000000 
0.081570 -0.083747 -0.325332 0.154902 0.125490 0.215686 0.000000 
0.028422 -0.001356 0.295404 0.890196 0.707843 0.315686 0.000000 
0.054027 0.019436 0.277490 0.518627 0.239216 0.228431 0.000000 
0.052799 -0.004599 0.253840 0.958824 0.754902 0.556863 0.000000 
0.077310 0.037772 0.247275 0.942157 0.697059 0.583333 0.000000 
-0.034248 -0.010872 0.250773 0.870588 0.623529 0.413725 0.000000 
0.056194 0.020614 0.219799 0.535294 0.356863 0.372549 0.000000 
0.055638 0.027318 0.219022 0.970588 0.780392 0.762745 0.000000 
0.036661 0.123383 0.184562 0.578431 0.590196 0.719608 0.000000 
-0.122145 -0.036116 0.153275 0.986274 0.935294 0.762745 0.000000 
-0.135088 -0.035578 0.105709 0.856863 0.784314 0.772549 0.000000 
-0.267146 -0.036406 0.099916 0.784314 0.517647 0.345098 0.000000 
-0.041821 -0.072936 0.039521 0.941176 0.649020 0.530392 0.000000 
-0.259742 -0.037198 0.082981 0.672549 0.413725 0.421569 0.000000 
0.100563 -0.090481 -0.048970 0.709804 0.413725 0.376471 0.000000 
-0.254222 -0.043647 0.044172 0.856863 0.550980 0.431373 0.000000 
-0.119230 -0.051551 -0.002380 0.419608 0.452941 0.725490 0.000000 
-0.247938 -0.039019 0.031551 0.413725 0.201961 0.219608 0.000000 
-0.248685 -0.047314 -0.024812 0.819608 0.517647 0.425490 0.000000 
0.037218 -0.081472 -0.143320 0.753333 0.457255 0.373726 0.000000 
0.015132 0.084591 -0.088928 0.874510 0.692157 0.607843 0.000000 
-0.195449 -0.058172 -0.089767 0.495425 0.281046 0.363399 0.333333 
0.028020 0.086021 -0.123969 0.596078 0.423529 0.405882 0.000000 
0.028108 -0.112827 -0.277200 0.874020 0.610294 0.357843 0.000000 
0.019068 -0.047759 0.111738 0.445098 0.221569 0.237255 0.000000 
-0.227389 -0.050407 -0.049715 0.776471 0.498039 0.331373 0.000000 
-0.162747 -0.056084 -0.072901 0.773529 0.467647 0.351961 0.000000 
-0.015582 -0.079834 -0.155920 0.790196 0.535294 0.272549 0.000000 
0.036166 0.117183 0.168456 0.372549 0.247059 0.178431 0.000000 
-0.259952 -0.039329 0.044270 0.917647 0.590196 0.512745 0.000000 
-0.148147 -0.054762 -0.109043 0.663725 0.368137 0.328922 0.500000 
-0.057672 -0.021651 0.244289 0.911765 0.741176 0.327451 0.000000 
-0.284683 -0.029257 0.117968 0.666667 0.378431 0.221569 0.000000 
-0.073819 -0.064565 0.037863 0.637255 0.341176 0.166667 0.000000 
-0.137142 -0.055255 -0.116195 0.841176 0.560784 0.533333 0.000000 
-0.129522 -0.032068 0.149792 0.529412 0.280392 0.086275 0.000000 
-0.129701 -0.031086 0.144976 0.582353 0.360784 0.090196 0.000000 
-0.263271 -0.035099 0.018660 0.778431 0.464706 0.372549 0.000000 
-0.048316 -0.099424 -0.216890 0.293137 0.330392 0.573529 0.000000 
-0.005909 0.007833 0.189125 0.575490 0.336275 0.349020 0.000000 
0.016597 0.109067 0.166116 0.600980 0.517647 0.425490 0.000000 
-0.063361 -0.064484 -0.098345 0.537255 0.329412 0.356863 0.000000 
-0.209038 -0.056656 -0.114723 0.286275 0.319608 0.574510 0.000000 
0.031226 0.003995 0.222003 0.346078 0.332353 0.431373 0.000000 
0.037330 0.036360 -0.180147 0.198039 0.235294 0.486275 0.000000 
-0.180125 -0.035998 -0.058660 0.701961 0.429412 0.350980 0.000000 
0.019426 -0.015199 0.262199 0.933333 0.698039 0.596078 0.000000 
-0.131557 -0.045403 -0.000158 0.610784 0.306863 0.230392 0.000000 
0.044687 0.007444 0.240260 0.165686 0.116667 0.121569 0.000000 
0.053838 0.008209 0.236203 0.201961 0.166667 0.160784 0.000000 
-0.088840 -0.026572 0.235823 0.347059 0.372549 0.503922 0.000000 
0.060495 0.027498 0.219183 0.615686 0.319608 0.309804 0.000000 
-0.014904 -0.040314 0.202731 0.939216 0.680392 0.413725 0.000000 
-0.325303 0.163084 0.217932 0.847059 0.550980 0.380392 1.000000 
0.013371 0.142970 0.179779 0.405882 0.439216 0.721569 0.000000 
0.002391 -0.013377 0.136650 0.637255 0.400000 0.382353 0.000000 
0.019653 -0.014100 0.130232 0.905882 0.813725 0.782353 0.000000 
0.019080 -0.047389 0.120061 0.398039 0.181373 0.171569 0.000000 
-0.024290 0.036012 0.137989 0.458824 0.421569 0.594118 0.000000 
-0.274274 -0.059077 0.136329 0.835294 0.554902 0.409804 0.000000 
0.006676 -0.027727 0.067629 0.488235 0.262745 0.288235 0.000000 
-0.039436 -0.081293 0.019215 0.990196 0.837255 0.564706 0.000000 
-0.126439 -0.052482 -0.032060 0.968627 0.735294 0.445098 0.000000 
-0.139357 -0.055433 -0.038805 0.529412 0.252941 0.260784 0.000000 
0.025434 -0.087319 -0.115805 0.605229 0.301961 0.287582 0.000000 
-0.196946 -0.066069 -0.064223 0.639216 0.354902 0.292157 0.000000 
0.071934 -0.063857 -0.298795 0.827451 0.607843 0.525490 0.000000 
0.089086 0.320054 -0.216031 0.570588 0.603922 0.843137 1.000000 
0.045173 -0.001074 0.277270 0.961765 0.785294 0.535294 0.000000 
-0.031078 -0.017378 0.256058 0.747059 0.541176 0.388235 0.000000 
0.019311 -0.024189 0.247252 0.801961 0.494118 0.421569 0.000000 
-0.018695 0.043463 0.161243 0.254248 0.181046 0.137909 0.000000 
-0.084529 -0.052808 0.152360 1.000000 0.747059 0.527451 0.000000 
0.015154 0.113115 0.151983 0.796078 0.678431 0.509804 0.000000 
0.021939 -0.075794 0.092329 0.617647 0.390196 0.239216 0.000000 
-0.257193 -0.067644 0.161057 0.419608 0.422222 0.632680 0.333333 
-0.260122 -0.066450 0.152763 0.930719 0.687582 0.508497 0.333333 
-0.259067 -0.067396 0.086383 0.731373 0.447059 0.325490 0.000000 
-0.237078 -0.055115 0.065031 0.592157 0.335294 0.300000 0.000000 
-0.247723 -0.072840 0.055478 0.944118 0.681373 0.498039 0.000000 
-0.228648 -0.058865 0.028874 0.425490 0.215686 0.227451 0.000000 
-0.162035 -0.052842 -0.013432 0.450980 0.458824 0.694118 0.000000 
-0.231357 -0.059902 0.003473 0.558824 0.258824 0.168627 0.000000 
-0.161742 -0.053666 -0.024533 0.884314 0.711765 0.511765 0.000000 
-0.199533 -0.065267 -0.010463 0.573529 0.297059 0.307843 0.000000 
0.022999 0.094273 -0.124874 0.996078 0.982353 0.905882 0.000000 
-0.015356 -0.098331 -0.217090 0.847059 0.601961 0.329412 0.000000 
-0.630417 0.421790 0.304701 0.325490 0.368627 0.584314 1.000000 
0.076512 0.039759 0.246405 0.852941 0.613725 0.470588 0.000000 
0.010369 -0.020822 0.108784 0.629412 0.402941 0.426471 0.000000 
0.013909 -0.050970 0.099900 0.359477 0.190850 0.220261 0.000000 
-0.219165 -0.070569 -0.030722 0.694118 0.411765 0.319608 0.000000 
0.008124 -0.071705 -0.124616 0.733333 0.429412 0.321569 0.000000 
0.025019 -0.110617 -0.248127 0.721569 0.423529 0.364706 0.000000 
0.071453 -0.071366 -0.312803 0.131373 0.096078 0.166667 0.000000 
0.016944 -0.040404 0.138585 0.782353 0.519608 0.535294 0.000000 
0.025834 0.087275 -0.136071 0.994118 0.979412 0.936275 0.000000 
0.001653 0.056841 -0.134501 0.643137 0.398693 0.347712 0.000000 
0.068872 -0.065861 0.014211 0.594118 0.321569 0.311765 0.000000 
-0.045176 -0.035555 0.218271 0.627451 0.309804 0.113725 0.000000 
-0.176019 -0.067896 -0.071387 0.839216 0.562745 0.433333 0.000000 
-0.198153 -0.073144 -0.087986 0.249020 0.301961 0.547059 0.000000 
-0.178051 -0.068399 -0.061973 0.845098 0.543137 0.415686 0.000000 
-0.011072 0.106252 -0.135326 0.211765 0.237255 0.476471 0.000000 
-0.121640 -0.076938 -0.127976 0.249020 0.282353 0.526471 0.000000 
0.014811 -0.016742 0.191652 0.633333 0.364706 0.385294 0.000000 
0.100273 -0.061984 -0.019138 0.629412 0.352941 0.368627 0.000000 
0.110505 -0.083430 -0.079216 1.000000 0.933333 0.919608 0.000000 
0.013493 -0.054275 0.139509 0.784314 0.517647 0.352941 0.000000 
0.020843 0.065404 -0.137745 0.700000 0.460784 0.392157 0.000000 
-0.189472 -0.079628 -0.066990 0.231373 0.281373 0.511765 0.500000 
-0.261491 -0.066573 0.147210 0.688235 0.396078 0.217647 1.000000 
0.059735 -0.001952 0.238999 0.490196 0.268627 0.307843 0.000000 
0.068348 0.005622 0.240675 0.876471 0.562745 0.449020 0.000000 
0.058275 0.012271 0.225675 0.254902 0.152941 0.150980 0.000000 
0.011388 0.122522 0.167168 0.423529 0.425490 0.694118 0.000000 
-0.012671 0.030448 0.152401 0.827451 0.737255 0.750980 0.000000 
0.014554 -0.009035 0.140244 1.000000 0.984314 0.949020 0.000000 
0.021400 -0.064317 0.110372 0.696078 0.503922 0.307843 0.000000 
0.023644 0.138597 0.137072 0.982353 0.911765 0.829412 0.000000 
-0.261585 -0.081502 0.161653 0.827451 0.490196 0.478431 0.000000 
0.011607 -0.028179 0.096820 0.462745 0.252941 0.284314 0.000000 
-0.240482 -0.070670 0.148570 0.421569 0.266667 0.315686 0.000000 
-0.242105 -0.081551 0.075132 0.664706 0.372549 0.392157 0.000000 
-0.231259 -0.081227 0.057392 0.741176 0.427451 0.356863 0.000000 
-0.228806 -0.081220 0.050713 0.672549 0.378431 0.286275 0.000000 
-0.238564 -0.080180 0.047891 0.562745 0.256863 0.300000 0.000000 
-0.208280 -0.073759 0.028269 0.466667 0.270588 0.200000 0.000000 
-0.153239 -0.066824 -0.029241 0.639216 0.343137 0.352941 0.000000 
0.037936 -0.069575 -0.119452 0.692157 0.401961 0.427451 0.000000 
-0.199895 -0.078474 -0.026697 0.827451 0.531373 0.435294 0.000000 
-0.152808 -0.073431 -0.056850 0.598039 0.309804 0.250980 0.000000 
-0.142882 -0.073904 -0.087327 0.260784 0.172549 0.282353 0.000000 
0.029502 -0.089209 -0.174975 0.682353 0.384314 0.268627 0.000000 
0.000046 0.048959 -0.147712 0.615686 0.388235 0.376471 0.000000 
0.026361 0.073584 -0.159798 0.815686 0.560784 0.464706 0.000000 
0.024721 -0.026251 -0.217475 0.349020 0.384314 0.641176 0.000000 
0.068790 -0.101038 -0.304987 0.972549 0.776471 0.607843 0.000000 
0.073664 -0.106071 -0.330876 0.200000 0.186275 0.368627 0.000000 
0.020555 0.007279 0.292738 0.947059 0.794118 0.429412 0.000000 
0.041918 0.028649 0.289498 1.000000 0.888235 0.484314 0.000000 
-0.065084 -0.032550 0.253581 0.331373 0.378431 0.503922 0.000000 
0.017228 -0.025337 0.240468 0.637255 0.315686 0.250980 0.000000 
0.025817 0.009223 0.222412 0.327451 0.207843 0.241176 0.000000 
-0.000032 -0.000456 0.176468 0.549020 0.301961 0.325490 0.000000 
0.007746 0.002049 0.173125 0.584314 0.400000 0.415686 0.000000 
0.023175 -0.047102 0.136116 0.647059 0.437255 0.437255 0.000000 
-0.279980 -0.077210 0.185976 0.931373 0.707843 0.443137 0.000000 
0.096906 -0.051963 -0.007791 1.000000 0.984314 0.966667 0.000000 
0.115625 -0.066668 -0.042007 0.890196 0.862745 0.813725 0.000000 
0.105462 -0.092191 -0.064403 0.986274 0.911765 0.841176 0.000000 
-0.196267 -0.058640 0.025137 0.454902 0.423529 0.511765 0.000000 
-0.175041 -0.071636 -0.046450 0.756863 0.472549 0.345098 0.000000 
0.025273 -0.088955 -0.153814 0.621569 0.317647 0.278431 0.000000 
-0.148561 -0.073764 -0.081506 0.439216 0.284314 0.372549 0.000000 
-0.013989 0.086019 -0.102668 0.815686 0.615686 0.517647 0.000000 
0.011041 0.112729 -0.127428 0.625490 0.392157 0.278431 0.000000 
0.008972 0.059430 -0.151630 0.749020 0.492157 0.433333 0.000000 
0.061554 0.011069 0.230039 0.180392 0.135294 0.135294 0.000000 
0.020846 -0.069546 0.085860 0.464706 0.300000 0.276471 0.000000 
0.057935 0.035622 0.263294 0.944118 0.717647 0.426471 0.000000 
-0.012662 0.055765 0.172831 0.660784 0.533333 0.290196 0.000000 
-0.248341 -0.079741 0.154422 0.672549 0.384314 0.247059 0.000000 
0.095560 -0.084499 -0.068136 1.000000 0.911765 0.884314 0.000000 
0.027353 -0.095790 -0.251889 0.864706 0.596078 0.337255 0.000000 
0.028738 0.120412 0.144236 0.464706 0.335294 0.205882 0.000000 
-0.233256 -0.071193 0.128997 0.456863 0.211765 0.201961 0.000000 
-0.246070 -0.080060 0.129637 0.715686 0.409804 0.311765 0.000000 
0.085504 -0.039182 -0.017123 0.586275 0.298039 0.339216 0.000000 
-0.182766 -0.076957 -0.022862 0.670588 0.411765 0.215686 0.000000 
0.047204 0.042584 0.280499 0.335294 0.331373 0.411765 0.000000 
-0.091254 -0.035120 0.223371 0.356863 0.376471 0.490196 0.000000 
0.008077 0.003354 0.176269 0.533333 0.305882 0.327451 0.000000 
0.115517 -0.075704 -0.050617 0.907843 0.788235 0.752941 0.000000 
0.057894 -0.057796 -0.264596 0.882353 0.768627 0.749020 0.000000 
-0.199816 -0.084267 -0.016495 0.813725 0.537255 0.445098 0.000000 
-0.007556 0.054954 -0.067718 0.656863 0.407843 0.403922 0.000000 
