0.002285 -0.009678 0.258759 0.900000 0.633333 0.470588 0.000000 
-0.024360 -0.026209 0.217380 0.905882 0.643137 0.427451 0.000000 
0.050345 0.112377 0.208546 0.374510 0.337255 0.450980 0.000000 
0.042261 0.117125 0.200886 0.374510 0.213726 0.179412 0.000000 
-0.046649 -0.052546 0.141316 0.990196 0.815686 0.433333 0.000000 
-0.026800 -0.063996 0.138837 0.713726 0.441176 0.231373 0.000000 
-0.117156 -0.017231 0.144619 0.713726 0.625490 0.301961 0.000000 
-0.058370 -0.056519 0.064830 0.839216 0.521569 0.380392 0.000000 
-0.094314 -0.036085 0.070132 0.721569 0.452941 0.345098 0.000000 
-0.057619 -0.063025 0.044568 0.588235 0.301961 0.121569 0.000000 
-0.120637 -0.056186 0.031817 0.684314 0.480392 0.185294 0.000000 
0.103321 -0.040301 0.013757 0.429412 0.437255 0.733333 0.000000 
-0.037901 -0.087682 -0.017743 0.739216 0.427451 0.298039 0.000000 
-0.093014 -0.045679 0.003710 0.947712 0.698039 0.385621 0.000000 
-0.038275 -0.085559 -0.027287 0.925490 0.692157 0.433333 0.000000 
-0.050121 -0.083884 -0.028153 0.541176 0.254902 0.186275 0.000000 
-0.126440 -0.029749 -0.015763 0.415686 0.417647 0.668627 0.000000 
-0.114284 -0.045247 -0.053078 0.550980 0.266667 0.150980 0.000000 
0.024196 -0.077673 -0.082829 0.666667 0.405882 0.317647 0.000000 
-0.257035 0.006162 -0.052039 0.609804 0.327451 0.286275 1.000000 
-0.267764 0.005708 -0.081683 0.662745 0.384314 0.243137 1.000000 
-0.269981 0.008392 -0.093649 0.527451 0.258824 0.160784 1.000000 
-0.116555 -0.048551 -0.125715 0.558824 0.288235 0.345098 0.000000 
-0.235173 0.000045 -0.121382 0.492157 0.235294 0.200000 1.000000 
-0.135827 -0.052085 -0.171597 0.468627 0.192157 0.207843 0.000000 
-0.155725 -0.044439 -0.184421 0.901961 0.660784 0.407843 0.000000 
-0.205863 -0.028026 -0.198800 0.537255 0.229412 0.235294 0.000000 
-0.260020 0.003007 -0.190112 0.496078 0.319608 0.419608 1.000000 
0.016288 -0.114234 -0.275129 0.888235 0.611765 0.429412 0.000000 
-0.249716 0.003928 -0.202999 0.513726 0.262745 0.270588 1.000000 
-0.167666 -0.050949 -0.240816 0.650980 0.362745 0.235294 0.000000 
-0.175056 -0.048249 -0.244372 0.778431 0.492157 0.349020 0.000000 
-0.231862 -0.011937 -0.224077 0.784314 0.519608 0.388235 1.000000 
0.009615 -0.125639 -0.296174 0.831373 0.594118 0.313726 0.000000 
0.074546 -0.067460 -0.290791 0.381863 0.285294 0.370098 0.000000 
0.030115 -0.126715 -0.336745 0.423529 0.245098 0.296078 0.000000 
0.053055 0.034928 0.310311 0.380392 0.416667 0.550980 0.000000 
0.046374 0.027050 0.299214 0.699346 0.377778 0.369935 0.000000 
0.066579 0.032834 0.272509 0.458824 0.416176 0.475000 0.000000 
-0.065612 -0.013367 0.224318 0.858824 0.664706 0.266667 0.000000 
-0.086265 -0.011761 0.189876 0.988235 0.921569 0.498039 0.000000 
-0.097914 -0.014447 0.169405 0.403922 0.443137 0.723529 0.000000 
0.067437 0.282016 0.173571 0.401705 0.437340 0.684143 0.043478 
-0.020630 -0.070866 0.104566 0.831373 0.521569 0.519608 0.000000 
-0.047992 -0.065198 0.055625 0.974510 0.682353 0.539216 0.000000 
-0.041556 -0.070051 0.043212 0.500000 0.215686 0.062745 0.000000 
-0.099405 -0.025296 0.054166 0.758824 0.498039 0.362745 0.000000 
-0.091497 -0.046632 0.010055 0.688235 0.388235 0.301961 0.000000 
0.097965 -0.048502 0.002115 0.864706 0.723529 0.670588 0.000000 
-0.050592 -0.079510 -0.013955 0.664706 0.419608 0.147059 0.000000 
-0.052730 -0.085880 -0.039079 0.578431 0.288235 0.268627 0.000000 
-0.261478 0.008945 -0.065890 0.619608 0.325490 0.307843 1.000000 
-0.085794 -0.061225 -0.120827 0.703922 0.407843 0.340196 0.000000 
-0.262682 0.002745 -0.099578 0.637255 0.358824 0.347059 1.000000 
-0.130047 -0.049025 -0.159718 0.743137 0.476471 0.325490 0.000000 
0.015844 -0.098391 -0.193504 0.870588 0.625490 0.394118 0.000000 
-0.160956 -0.040056 -0.164545 0.553431 0.250980 0.317157 0.250000 
-0.227086 -0.020703 -0.156123 0.856863 0.589706 0.364706 1.000000 
0.009709 -0.123487 -0.301885 0.705882 0.471895 0.189542 0.000000 
-0.194333 -0.046486 -0.256558 0.733333 0.464706 0.425490 0.000000 
0.034808 -0.114756 -0.303463 0.900980 0.655882 0.404902 0.000000 
0.053701 -0.122151 -0.335967 0.452941 0.253922 0.310457 0.000000 
0.037973 0.022427 0.309786 0.896471 0.747451 0.364314 0.000000 
0.067338 0.042297 0.288012 0.766667 0.535294 0.358824 0.000000 
0.034376 -0.003866 0.275303 0.994118 0.809804 0.651961 0.000000 
0.047471 0.020941 0.265829 0.337255 0.394118 0.531373 0.000000 
0.010931 -0.014957 0.248381 0.674510 0.368627 0.295098 0.000000 
-0.044002 -0.023436 0.198606 1.000000 0.862745 0.490196 0.000000 
-0.044312 -0.075269 -0.001688 0.998693 0.779085 0.603922 0.000000 
-0.124736 -0.024735 -0.010762 0.445098 0.464706 0.752941 0.000000 
-0.041061 -0.091920 -0.063438 0.545098 0.272549 0.113725 0.000000 
-0.119768 -0.041701 -0.053893 0.631373 0.349020 0.292157 0.000000 
-0.110501 -0.053839 -0.126523 0.660784 0.388235 0.398039 0.000000 
0.012201 -0.099283 -0.165597 0.876471 0.609804 0.441176 0.000000 
0.009266 -0.098963 -0.175893 0.625490 0.339216 0.243137 0.000000 
-0.149076 -0.026666 -0.167036 0.892157 0.619608 0.401961 0.000000 
-0.156429 -0.047503 -0.216843 0.554902 0.252941 0.131373 0.000000 
-0.216635 -0.024590 -0.203116 0.718627 0.448039 0.259804 0.500000 
-0.171409 -0.048757 -0.243130 0.921569 0.643137 0.494118 0.000000 
0.043586 -0.119505 -0.303713 0.898039 0.658824 0.374510 0.000000 
-0.015133 -0.117344 -0.305446 0.821569 0.562745 0.300000 0.000000 
0.054613 -0.120288 -0.334947 0.198693 0.109804 0.206536 0.000000 
-0.032056 -0.075199 0.098520 0.493137 0.219608 0.152941 0.000000 
0.098709 -0.048586 0.015953 0.580392 0.464706 0.480392 0.000000 
-0.112895 -0.047274 -0.129010 0.535294 0.261765 0.259804 0.000000 
-0.230502 -0.024151 -0.165980 0.704575 0.391503 0.288235 1.000000 
-0.015329 -0.072812 0.122027 0.970588 0.649020 0.633333 0.000000 
-0.110636 -0.042716 0.013849 0.821569 0.566667 0.462745 0.000000 
-0.034091 -0.079107 -0.021181 0.932353 0.718627 0.439216 0.000000 
-0.056036 -0.082103 -0.026686 0.871895 0.597386 0.439216 0.000000 
-0.131656 -0.029607 -0.084752 0.849020 0.749020 0.717647 0.000000 
0.014308 -0.093023 -0.171688 0.525490 0.243137 0.170588 0.000000 
0.059582 0.020766 0.268324 0.349020 0.409804 0.541176 0.000000 
-0.107768 -0.014090 0.153839 0.687255 0.442157 0.138235 0.000000 
-0.111137 -0.018712 0.123265 0.423529 0.447059 0.709804 0.000000 
-0.033853 -0.068423 0.022587 0.864706 0.615686 0.494118 0.000000 
-0.058458 -0.077265 0.003267 0.969935 0.709804 0.426144 0.000000 
-0.295739 0.038130 -0.021974 0.584314 0.335294 0.337255 1.000000 
0.061776 -0.107386 -0.332040 0.149020 0.149020 0.300980 0.000000 
-0.009132 -0.046370 0.124703 0.965359 0.661438 0.660784 0.000000 
-0.071380 -0.055312 0.065299 0.758824 0.482353 0.258824 0.000000 
-0.117176 -0.036422 -0.089833 0.850980 0.550980 0.390196 0.000000 
-0.211932 -0.072175 -0.291098 0.227451 0.211765 0.360784 0.000000 
-0.214515 -0.020761 -0.189281 0.766667 0.490196 0.386275 1.000000 
-0.196767 -0.041191 -0.275796 0.210784 0.247059 0.450980 0.000000 
0.057711 -0.092328 -0.327050 0.300000 0.352941 0.680392 0.000000 
-0.071097 -0.069836 0.001338 0.725490 0.452941 0.215686 0.000000 
-0.207504 -0.030317 -0.189697 0.835294 0.550000 0.456863 0.500000 
-0.163461 -0.040170 -0.164986 0.725980 0.424510 0.286275 0.000000 
-0.214441 -0.027456 -0.269789 0.260784 0.300000 0.537255 0.000000 
-0.044120 -0.015490 0.187803 0.949412 0.749020 0.438824 0.000000 
-0.095524 -0.016356 0.198536 0.305882 0.354902 0.456863 0.000000 
-0.128438 -0.048671 -0.129206 0.576471 0.269608 0.256863 0.500000 
-0.129574 -0.040782 -0.111273 0.781373 0.577451 0.260784 0.500000 
-0.087601 -0.048655 0.017370 0.580392 0.278431 0.200000 0.000000 
-0.169447 -0.021630 -0.111199 0.433987 0.458170 0.735294 0.666667 
-0.160628 0.005399 -0.214357 0.215686 0.147059 0.260784 1.000000 
0.071981 0.044062 0.272466 0.806536 0.562092 0.458824 0.000000 
-0.009203 -0.007983 0.268088 0.966667 0.713726 0.480392 0.000000 
0.010945 -0.014505 0.257083 0.623529 0.350980 0.245098 0.000000 
-0.094143 -0.019181 0.203813 0.350980 0.388235 0.517647 0.000000 
0.100915 -0.046762 0.006695 0.992157 0.890196 0.858824 0.000000 
-0.292427 0.004151 0.055064 0.743627 0.447549 0.338726 1.000000 
-0.067492 -0.074282 -0.045897 0.701961 0.396078 0.309804 0.000000 
-0.118844 -0.044486 -0.102400 0.667647 0.330392 0.271569 0.000000 
-0.141580 -0.032974 -0.110930 0.807843 0.486275 0.347059 0.000000 
-0.159266 -0.024375 -0.107955 0.611765 0.356863 0.215686 0.000000 
0.026055 -0.091819 -0.157069 0.792157 0.515686 0.354902 0.000000 
0.023594 -0.096156 -0.160945 0.715686 0.443137 0.264706 0.000000 
0.017225 -0.098801 -0.170736 0.700000 0.415686 0.307843 0.000000 
-0.185914 -0.017011 -0.125353 0.427451 0.464706 0.713726 0.000000 
-0.220081 -0.021637 -0.144088 0.870588 0.639216 0.368627 1.000000 
-0.223320 -0.022649 -0.198218 0.482353 0.237255 0.298039 1.000000 
0.044262 -0.088145 -0.274345 0.639216 0.411765 0.245098 0.000000 
0.026825 -0.118296 -0.292825 0.696078 0.435294 0.350980 0.000000 
-0.263412 0.009016 -0.198499 0.619608 0.649020 0.852941 1.000000 
0.041048 -0.126612 -0.325719 0.727451 0.431373 0.288235 0.000000 
0.020451 -0.116109 -0.322888 0.773529 0.508824 0.390196 0.000000 
0.055165 -0.122636 -0.333717 0.433333 0.182353 0.188235 0.000000 
0.059941 0.044396 0.290258 0.914706 0.694118 0.370588 0.000000 
-0.069121 -0.012015 0.219672 0.364706 0.374510 0.539216 0.000000 
-0.054915 -0.013767 0.213084 0.882353 0.570588 0.360784 0.000000 
0.003703 -0.020644 0.201158 0.701961 0.421569 0.394118 0.000000 
-0.025947 -0.030585 0.193572 0.809804 0.626471 0.327451 0.000000 
0.036054 0.119662 0.204918 0.245098 0.131373 0.174510 0.000000 
0.018723 0.096689 0.188431 0.481046 0.257516 0.237255 0.000000 
0.032172 0.123248 0.184812 0.636275 0.563725 0.542157 0.000000 
-0.136944 -0.022963 0.096482 0.370588 0.156863 0.000000 0.000000 
-0.041168 -0.073448 0.002964 0.856863 0.578431 0.449020 0.000000 
-0.010214 -0.089773 -0.031042 0.643137 0.403922 0.174510 0.000000 
-0.085423 -0.059880 -0.075863 0.429412 0.149020 0.011765 0.000000 
-0.000215 -0.101624 -0.178322 0.676471 0.401961 0.331373 0.000000 
-0.122562 -0.056061 -0.149638 0.800000 0.507843 0.372549 0.000000 
-0.013222 -0.091188 -0.184807 0.827451 0.560784 0.327451 0.000000 
-0.231521 -0.013738 -0.102628 0.574510 0.280392 0.251961 1.000000 
-0.170630 -0.038994 -0.175240 0.766667 0.476471 0.284314 0.000000 
0.027077 -0.109390 -0.250783 0.627451 0.347059 0.324510 0.000000 
-0.031643 -0.095972 -0.259911 0.341176 0.374510 0.584314 0.000000 
-0.156473 -0.047146 -0.224675 0.268627 0.203922 0.276471 0.000000 
0.062590 -0.056418 -0.263020 0.954902 0.788235 0.703922 0.000000 
0.057487 0.037985 0.292732 0.903922 0.674510 0.376471 0.000000 
0.034025 -0.002677 0.277010 0.874510 0.698039 0.533333 0.000000 
0.021194 -0.018493 0.134738 0.452941 0.443137 0.700000 0.000000 
-0.147489 -0.030947 0.032671 0.919608 0.733333 0.445098 0.000000 
-0.054459 -0.078022 -0.001497 0.722222 0.491503 0.197386 0.000000 
-0.058571 -0.075970 -0.025547 0.543137 0.237255 0.188235 0.000000 
-0.049103 -0.086394 -0.031062 0.625490 0.368627 0.288235 0.000000 
0.110553 -0.066611 -0.040744 0.421569 0.460784 0.771569 0.000000 
-0.133567 -0.026673 -0.013031 0.800000 0.562745 0.335294 0.000000 
-0.092281 -0.051584 -0.108771 0.798039 0.509804 0.400000 0.000000 
0.021941 -0.098484 -0.165191 0.713726 0.437255 0.280392 0.000000 
0.014690 -0.099263 -0.176798 0.617647 0.327451 0.256863 0.000000 
0.031931 -0.084776 -0.197892 0.688235 0.435294 0.292157 0.000000 
-0.202982 -0.028131 -0.140174 0.692484 0.428105 0.183333 0.500000 
0.001151 -0.112297 -0.247804 0.505882 0.219608 0.119608 0.000000 
-0.176150 -0.034322 -0.199311 0.580392 0.296078 0.276471 0.333333 
0.006405 -0.120713 -0.295186 0.869608 0.650980 0.370588 0.000000 
-0.046294 -0.014924 0.251154 0.346275 0.388235 0.526275 0.000000 
0.032263 0.114459 0.210311 0.756863 0.486275 0.394118 0.000000 
-0.071965 -0.022386 0.180045 0.698039 0.425490 0.341176 0.000000 
-0.259926 -0.002938 0.019282 0.535294 0.332680 0.376471 1.000000 
0.005505 -0.110149 -0.248137 0.515686 0.215686 0.139216 0.000000 
-0.154737 -0.050309 -0.231914 0.170588 0.178431 0.317647 0.000000 
-0.074644 -0.007410 0.220085 0.350980 0.392157 0.500000 0.000000 
-0.066651 -0.039174 0.116190 0.939216 0.719608 0.366667 0.000000 
0.102684 -0.060818 -0.017411 0.866667 0.809804 0.834314 0.000000 
-0.112484 -0.047665 -0.096146 0.617647 0.341176 0.350000 0.500000 
-0.205847 -0.023020 -0.143712 0.490196 0.192157 0.143137 0.000000 
-0.201277 -0.028620 -0.171774 0.711765 0.447059 0.196078 0.000000 
0.059068 0.036578 0.283521 0.798039 0.548039 0.318627 0.000000 
-0.102745 -0.016895 0.186628 0.354902 0.388235 0.543137 0.000000 
-0.042594 -0.081663 -0.056403 0.833333 0.552941 0.396078 0.000000 
-0.111604 -0.043824 -0.073847 0.760784 0.443137 0.294118 0.000000 
-0.010513 -0.112115 -0.330996 0.280392 0.321569 0.621569 0.000000 
0.032465 0.006394 0.252117 0.504902 0.277941 0.333333 0.000000 
-0.075871 -0.019280 0.178398 0.372549 0.288235 0.394118 0.000000 
-0.039195 -0.077000 0.089454 0.645098 0.366667 0.223529 0.000000 
-0.107980 -0.042578 -0.072698 0.803922 0.501961 0.360784 0.000000 
-0.220498 -0.020493 -0.169765 0.782353 0.501961 0.419608 1.000000 
-0.006774 -0.109729 -0.337522 0.305882 0.345098 0.680392 0.000000 
-0.053102 -0.011231 0.223687 0.709804 0.379412 0.177451 0.000000 
-0.069511 -0.065606 0.008393 1.000000 0.809804 0.488235 0.000000 
-0.108260 -0.009268 0.191222 0.352941 0.386275 0.523529 0.000000 
-0.127248 -0.039655 -0.121272 0.765686 0.458824 0.428431 0.000000 
-0.188767 -0.035436 -0.141260 0.900392 0.602745 0.445882 0.200000 
-0.104053 -0.025164 0.161126 0.703922 0.519608 0.174510 0.000000 
-0.102199 -0.023219 0.148012 0.437255 0.439216 0.717647 0.000000 
0.063580 -0.037816 -0.247325 0.382353 0.398039 0.660784 0.000000 
-0.095622 -0.037371 0.130565 0.435294 0.435294 0.674510 1.000000 
0.031667 0.076417 -0.083434 0.845098 0.717647 0.674510 0.000000 
0.000495 0.010384 0.271341 0.921569 0.736274 0.579412 0.000000 
-0.037573 -0.018824 0.220410 0.886275 0.627451 0.337255 0.000000 
-0.017067 -0.003890 0.285096 0.320261 0.355556 0.498039 0.000000 
-0.016461 -0.000285 0.281599 0.350980 0.296078 0.409804 0.000000 
0.028237 -0.008905 0.269216 0.964706 0.743137 0.654902 0.000000 
-0.017846 -0.010391 0.267205 0.982353 0.749020 0.523529 0.000000 
0.024978 -0.011301 0.262987 0.949020 0.737255 0.635294 0.000000 
-0.036204 -0.007078 0.261425 0.335294 0.370588 0.531373 0.000000 
0.036920 0.126669 0.211286 0.333333 0.388235 0.529412 0.000000 
-0.047957 -0.047120 0.169208 0.850980 0.670588 0.313726 0.000000 
-0.060035 -0.039953 0.168970 0.698039 0.382353 0.184314 0.000000 
-0.030584 -0.064896 0.135169 0.643137 0.382353 0.282353 0.000000 
0.095617 -0.055116 -0.001973 0.989543 0.989325 0.948802 0.000000 
-0.307530 0.019244 0.062007 0.641176 0.343137 0.286275 1.000000 
-0.272138 0.005411 0.040686 0.892157 0.633333 0.394118 1.000000 
-0.277061 0.001658 0.009856 0.782353 0.490196 0.339216 1.000000 
-0.126047 -0.036447 -0.050596 0.852941 0.550980 0.376471 0.000000 
-0.258778 -0.025430 -0.021105 0.699216 0.385098 0.322353 1.000000 
-0.087972 -0.052657 -0.122292 0.619608 0.345098 0.301961 0.000000 
-0.235175 -0.023228 -0.084271 0.627451 0.327451 0.260784 1.000000 
-0.168576 -0.030187 -0.104650 0.607843 0.298039 0.190196 0.000000 
-0.263114 -0.009049 -0.086729 0.709804 0.443137 0.384314 1.000000 
-0.215786 -0.035685 -0.076673 0.597386 0.292157 0.291503 0.333333 
0.003416 0.047816 -0.120076 0.652941 0.413725 0.400000 0.000000 
-0.192972 -0.034441 -0.127635 0.537255 0.239216 0.237255 0.000000 
-0.173974 -0.044560 -0.161640 0.676471 0.354902 0.223529 0.000000 
-0.170725 -0.046281 -0.179750 0.776471 0.505882 0.517647 0.000000 
0.028665 -0.122386 -0.334464 0.413725 0.249020 0.317647 0.000000 
0.050017 0.040471 0.298701 0.376471 0.396078 0.526797 0.000000 
0.013300 -0.019085 0.250176 0.734641 0.431373 0.367320 0.000000 
-0.064511 -0.018029 0.237769 0.859804 0.661765 0.276471 0.000000 
-0.115625 -0.023837 0.175462 0.644444 0.501961 0.111111 0.000000 
0.038914 0.110315 0.185981 0.447059 0.270588 0.203922 0.000000 
-0.076125 -0.035954 0.159696 0.900000 0.631373 0.468627 0.000000 
-0.287097 -0.014068 0.116857 0.832213 0.571709 0.355462 0.714286 
-0.317982 0.031814 0.074208 0.643137 0.374510 0.403922 1.000000 
0.086483 -0.076963 -0.016614 0.850980 0.517647 0.517647 0.000000 
0.100694 -0.065243 -0.024752 1.000000 0.954902 0.925490 0.000000 
0.094572 -0.081373 -0.031263 0.696078 0.396078 0.378431 0.000000 
0.101508 -0.041636 -0.016692 0.421569 0.447059 0.766667 0.000000 
-0.048277 -0.080803 -0.032603 0.654902 0.362745 0.178431 0.000000 
-0.264328 -0.001388 0.024761 0.650980 0.405882 0.417647 1.000000 
-0.273229 0.163554 0.042929 0.550980 0.282353 0.286275 1.000000 
-0.241095 -0.024852 -0.114679 0.667647 0.383333 0.423529 1.000000 
0.007619 -0.010320 0.269152 1.000000 0.896078 0.709804 0.000000 
-0.097680 -0.023392 0.177199 0.588235 0.409804 0.117647 0.000000 
0.026285 0.104583 0.194158 0.484314 0.270588 0.205882 0.000000 
-0.035839 -0.042340 0.165010 0.974510 0.841176 0.466667 0.000000 
-0.114595 -0.026597 0.139962 0.417647 0.450980 0.709804 0.000000 
0.101474 -0.063853 -0.027510 1.000000 0.947059 0.900000 0.000000 
0.000078 0.082958 -0.056131 0.735294 0.615686 0.456863 0.000000 
-0.200702 -0.034898 -0.151961 0.915686 0.627451 0.496078 0.000000 
-0.185190 -0.041309 -0.159517 0.917647 0.603922 0.484314 0.000000 
0.071634 -0.106719 -0.343293 0.170588 0.129412 0.223529 0.000000 
0.007639 0.008110 0.287257 0.984804 0.823529 0.560784 0.000000 
0.030316 -0.003680 0.269972 0.843791 0.643137 0.516340 0.000000 
-0.080766 -0.029428 0.166914 0.450980 0.123529 0.007843 0.000000 
-0.287510 0.018066 0.062478 0.729412 0.454902 0.323529 1.000000 
-0.118270 -0.051319 -0.127200 0.884314 0.598039 0.464706 0.000000 
-0.177632 -0.042760 -0.173817 0.847059 0.564706 0.554902 0.000000 
-0.133571 -0.053404 -0.169896 0.733333 0.449020 0.417647 0.000000 
0.039997 -0.003708 0.255533 0.545098 0.278431 0.325490 0.000000 
-0.113810 -0.010719 0.150886 0.425490 0.456863 0.705882 0.000000 
-0.040405 -0.060462 0.131629 0.780392 0.507843 0.296078 0.000000 
-0.264883 -0.001242 -0.050354 0.764706 0.464706 0.350980 1.000000 
-0.130676 -0.019709 0.124381 0.401961 0.168627 0.035294 0.000000 
-0.207277 -0.035463 -0.143183 0.703922 0.417647 0.292157 0.000000 
-0.172711 -0.040547 -0.156992 1.000000 0.731373 0.617647 0.000000 
0.048497 -0.129241 -0.361417 0.291176 0.349020 0.661765 0.000000 
-0.149383 -0.045588 -0.155351 0.809804 0.490196 0.407843 0.000000 
-0.151147 -0.050034 -0.204995 0.256863 0.303922 0.566667 0.000000 
-0.222322 -0.043021 -0.144188 0.303922 0.343137 0.611765 1.000000 
-0.153095 -0.046408 -0.132873 0.733333 0.417647 0.409804 0.000000 
0.049367 0.037598 0.225547 0.409804 0.360784 0.474510 0.000000 
-0.150639 0.451493 0.198304 0.444444 0.477451 0.741830 1.000000 
-0.012432 0.012850 0.300073 0.338627 0.368824 0.499608 0.000000 
0.019559 0.024708 0.304630 0.982353 0.815686 0.537255 0.000000 
0.010253 -0.013280 0.270200 0.996078 0.819608 0.631373 0.000000 
0.069557 0.046931 0.269487 0.892157 0.594118 0.400000 0.000000 
0.041782 -0.002977 0.234728 0.419608 0.218137 0.249510 0.000000 
0.044829 0.010767 0.231511 0.468627 0.288235 0.364706 0.000000 
0.054087 0.015950 0.216416 0.388235 0.372549 0.467320 0.000000 
-0.084502 -0.024581 0.212559 1.000000 0.990196 0.586275 0.000000 
0.008401 0.095210 0.184964 0.645098 0.451961 0.421569 0.000000 
-0.089365 -0.037797 0.134613 0.950980 0.645098 0.541176 0.000000 
0.090247 -0.038704 0.017779 0.415686 0.450980 0.749020 0.000000 
0.097664 -0.044902 -0.003773 0.429412 0.462745 0.733333 0.000000 
-0.268348 -0.016475 0.063049 0.678431 0.374510 0.349020 1.000000 
-0.284531 -0.013446 0.064817 0.694118 0.372549 0.303922 1.000000 
-0.257762 -0.021367 -0.009448 0.854902 0.554902 0.413725 1.000000 
-0.135356 -0.034350 -0.055123 0.888235 0.715686 0.543137 0.000000 
-0.011129 0.105225 -0.050828 0.731373 0.615686 0.482353 0.000000 
-0.228183 -0.031810 -0.064707 0.750980 0.484314 0.319608 1.000000 
-0.128234 -0.054473 -0.118500 0.639216 0.337255 0.243137 0.000000 
-0.252791 -0.025837 -0.075359 0.698039 0.407843 0.403922 1.000000 
0.021258 -0.101946 -0.185918 0.941176 0.686275 0.500000 0.000000 
0.063600 -0.123270 -0.331763 0.894118 0.639216 0.421569 0.000000 
0.054822 0.035190 0.280067 0.897386 0.639869 0.379739 0.000000 
-0.020400 -0.012824 0.267979 0.886275 0.633333 0.433333 0.000000 
-0.074732 -0.021978 0.219092 1.000000 0.972549 0.709804 0.000000 
-0.069801 -0.022651 0.216088 0.560784 0.329412 0.096078 0.000000 
0.000791 -0.027666 0.199471 0.794118 0.468627 0.425490 0.000000 
-0.098995 -0.024305 0.189387 1.000000 0.862745 0.641176 0.000000 
0.035095 0.113850 0.193335 0.882353 0.750000 0.600980 0.000000 
0.017702 0.112373 0.174147 0.643137 0.527451 0.390196 0.000000 
0.010155 0.085751 0.165478 0.390196 0.207843 0.213725 0.000000 
0.019915 -0.063605 0.130382 0.698039 0.441176 0.307843 0.000000 
-0.109240 -0.035808 0.100527 0.380392 0.447059 0.774510 0.000000 
-0.119021 -0.050574 0.092700 0.423529 0.458824 0.725490 0.000000 
-0.130966 -0.033759 0.082267 0.598039 0.341176 0.190196 0.000000 
-0.150206 -0.030987 0.073317 1.000000 0.864706 0.592157 0.000000 
0.107474 -0.060244 -0.022755 0.878431 0.768627 0.707843 0.000000 
-0.259143 -0.022407 -0.024199 0.552941 0.262745 0.180392 1.000000 
-0.188063 -0.028844 -0.059128 0.384314 0.427451 0.645098 0.000000 
-0.231213 -0.027907 -0.051549 0.650980 0.376471 0.343137 1.000000 
-0.126308 -0.049409 -0.096176 0.768627 0.452941 0.350980 0.000000 
0.029662 -0.096436 -0.182422 0.649020 0.359804 0.290196 0.000000 
-0.204114 -0.043024 -0.122699 0.619608 0.319608 0.235294 0.000000 
-0.273712 -0.014131 -0.103633 0.574510 0.600000 0.819608 1.000000 
0.021916 -0.112522 -0.273053 0.550000 0.258824 0.158824 0.000000 
0.033259 -0.110033 -0.281763 0.865359 0.611111 0.341830 0.000000 
0.072271 -0.092121 -0.321713 0.956209 0.838562 0.698039 0.000000 
-0.017486 -0.025684 0.244230 0.937255 0.668627 0.443137 0.000000 
-0.114497 -0.031796 0.138150 0.709804 0.537255 0.357843 0.000000 
-0.317284 -0.006421 0.125263 1.000000 0.784804 0.561765 1.000000 
-0.066636 -0.062870 0.041388 0.849020 0.582353 0.327451 0.000000 
-0.034635 -0.082911 -0.001444 0.954902 0.762745 0.478431 0.000000 
-0.272852 -0.019962 -0.028594 0.801961 0.501961 0.396078 1.000000 
0.033318 -0.125667 -0.328772 0.574510 0.352941 0.354902 0.000000 
0.038962 -0.123952 -0.331098 0.603922 0.382353 0.398039 0.000000 
0.035345 -0.000875 0.233869 0.350980 0.194118 0.239216 0.000000 
-0.106341 -0.048905 -0.038965 0.775490 0.470588 0.290196 0.000000 
0.004733 0.054364 -0.113420 0.480392 0.250980 0.207843 0.000000 
0.009577 0.058401 -0.114274 0.682353 0.460784 0.398039 0.000000 
-0.182100 -0.045487 -0.131152 0.924510 0.621569 0.527451 0.000000 
0.073351 -0.120944 -0.348371 0.584314 0.333333 0.372549 0.000000 
0.054428 0.038005 0.296255 0.356863 0.403922 0.558824 0.000000 
-0.096476 -0.030936 0.154297 0.425490 0.452941 0.694118 0.000000 
-0.037292 -0.081078 0.022275 0.639216 0.374510 0.225490 0.000000 
-0.197937 -0.043842 -0.140746 0.364706 0.243137 0.313726 0.000000 
0.031586 -0.100418 -0.292130 0.917647 0.672549 0.374510 0.000000 
-0.078100 -0.021713 0.232168 0.354902 0.378431 0.503922 0.000000 
0.003660 0.091515 0.170439 0.641176 0.393137 0.275490 0.000000 
0.078217 -0.078267 -0.014522 0.907843 0.588235 0.574510 0.000000 
-0.006514 -0.108808 -0.269871 0.764706 0.521569 0.260784 0.000000 
-0.049547 -0.018233 0.231352 0.976471 0.703922 0.503922 0.000000 
-0.107087 -0.020228 0.206762 0.349020 0.386275 0.515686 0.000000 
-0.020965 -0.026786 0.231667 0.864706 0.513726 0.396078 0.000000 
-0.058954 -0.024757 0.215666 0.964706 0.694118 0.490196 0.000000 
-0.042101 -0.019701 0.252563 0.353922 0.368627 0.526471 0.000000 
-0.261628 -0.031775 0.025217 0.764706 0.431373 0.405882 1.000000 
0.017606 0.023852 0.297205 0.958824 0.761765 0.397059 0.000000 
-0.121719 -0.049478 0.015218 0.445098 0.245098 0.239216 1.000000 
-0.046907 -0.070549 0.207995 0.343137 0.384314 0.492157 0.000000 
-0.281964 -0.027874 0.045906 0.735294 0.427451 0.321569 1.000000 
0.053982 0.017840 0.281298 0.372549 0.101961 0.085294 0.000000 
0.009518 0.001740 0.291402 0.915686 0.756863 0.405882 0.000000 
0.044461 0.013270 0.286216 0.996569 0.850980 0.486765 0.000000 
0.044167 0.000219 0.268264 0.801961 0.476471 0.339216 0.000000 
-0.048839 -0.045028 0.179812 0.913725 0.682353 0.362745 0.000000 
0.034161 0.103021 0.175248 0.535294 0.300000 0.172549 0.000000 
-0.133209 -0.032941 0.155255 0.356863 0.366667 0.570588 0.000000 
0.019282 -0.082133 0.091804 0.835294 0.564706 0.458824 0.000000 
0.022897 -0.064277 0.085359 0.429412 0.233333 0.245098 0.000000 
0.014804 -0.082411 -0.043203 0.733333 0.466667 0.349020 0.000000 
-0.275583 -0.031111 0.033905 0.584314 0.284314 0.321569 1.000000 
-0.220313 -0.055733 -0.004347 0.457843 0.210294 0.173039 0.250000 
-0.214414 -0.049757 -0.020603 0.784314 0.526797 0.315033 0.333333 
-0.151924 -0.045739 -0.062706 0.980392 0.747059 0.466667 0.000000 
-0.198793 -0.046663 -0.052320 0.756863 0.519608 0.301961 0.000000 
0.019890 -0.091120 -0.144477 0.825490 0.533333 0.358824 0.000000 
0.040099 -0.026983 -0.233139 0.330392 0.346078 0.614706 0.000000 
0.021285 -0.119281 -0.299630 0.762745 0.488235 0.350980 0.000000 
0.028422 -0.001356 0.295404 0.890196 0.707843 0.315686 0.000000 
0.054027 0.019436 0.277490 0.518627 0.239216 0.228431 0.000000 
0.052758 -0.004654 0.253934 0.964706 0.758170 0.558170 0.000000 
0.077310 0.037772 0.247275 0.942157 0.697059 0.583333 0.000000 
-0.034248 -0.010872 0.250773 0.870588 0.623529 0.413725 0.000000 
0.056194 0.020614 0.219799 0.535294 0.356863 0.372549 0.000000 
0.055638 0.027318 0.219022 0.970588 0.780392 0.762745 0.000000 
0.036661 0.123383 0.184562 0.578431 0.590196 0.719608 0.000000 
-0.122145 -0.036116 0.153275 0.986274 0.935294 0.762745 0.000000 
-0.135088 -0.035578 0.105709 0.856863 0.784314 0.772549 0.000000 
-0.097544 -0.030537 0.091445 0.821569 0.550980 0.313726 0.000000 
-0.267146 -0.036406 0.099916 0.784314 0.517647 0.345098 1.000000 
-0.041821 -0.072936 0.039521 0.941176 0.649020 0.530392 0.000000 
-0.259742 -0.037198 0.082981 0.672549 0.413725 0.421569 0.000000 
0.100563 -0.090481 -0.048970 0.709804 0.413725 0.376471 0.000000 
-0.254222 -0.043647 0.044172 0.856863 0.550980 0.431373 1.000000 
-0.119230 -0.051551 -0.002380 0.419608 0.452941 0.725490 0.000000 
-0.247938 -0.039019 0.031551 0.413725 0.201961 0.219608 1.000000 
-0.248685 -0.047314 -0.024812 0.819608 0.517647 0.425490 1.000000 
0.035903 -0.080806 -0.137966 0.754342 0.456022 0.375070 0.000000 
0.015132 0.084591 -0.088928 0.874510 0.692157 0.607843 0.000000 
-0.195449 -0.058172 -0.089767 0.495425 0.281046 0.363399 0.333333 
0.028020 0.086021 -0.123969 0.596078 0.423529 0.405882 0.000000 
0.019068 -0.047759 0.111738 0.445098 0.221569 0.237255 0.000000 
-0.227389 -0.050407 -0.049715 0.776471 0.498039 0.331373 0.000000 
-0.162747 -0.056084 -0.072901 0.773529 0.467647 0.351961 0.000000 
-0.015582 -0.079834 -0.155920 0.790196 0.535294 0.272549 0.000000 
0.036166 0.117183 0.168456 0.372549 0.247059 0.178431 0.000000 
-0.259952 -0.039329 0.044270 0.917647 0.590196 0.512745 1.000000 
-0.148147 -0.054762 -0.109043 0.663725 0.368137 0.328922 0.500000 
-0.057672 -0.021651 0.244289 0.911765 0.741176 0.327451 0.000000 
-0.284683 -0.029257 0.117968 0.666667 0.378431 0.221569 1.000000 
-0.073819 -0.064565 0.037863 0.637255 0.341176 0.166667 0.000000 
-0.137142 -0.055255 -0.116195 0.841176 0.560784 0.533333 0.000000 
-0.129522 -0.032068 0.149792 0.529412 0.280392 0.086275 0.000000 
-0.129701 -0.031086 0.144976 0.582353 0.360784 0.090196 0.000000 
-0.263271 -0.035099 0.018660 0.778431 0.464706 0.372549 1.000000 
-0.048316 -0.099424 -0.216890 0.293137 0.330392 0.573529 0.000000 
-0.005909 0.007833 0.189125 0.575490 0.336275 0.349020 0.000000 
0.016597 0.109067 0.166116 0.600980 0.517647 0.425490 0.000000 
-0.063361 -0.064484 -0.098345 0.537255 0.329412 0.356863 0.000000 
0.020061 0.091171 -0.094844 0.788235 0.652941 0.552941 0.000000 
-0.209038 -0.056656 -0.114723 0.286275 0.319608 0.574510 0.000000 
0.031226 0.003995 0.222003 0.346078 0.332353 0.431373 0.000000 
0.037330 0.036360 -0.180147 0.198039 0.235294 0.486275 0.000000 
-0.180125 -0.035998 -0.058660 0.701961 0.429412 0.350980 0.000000 
0.019426 -0.015199 0.262199 0.933333 0.698039 0.596078 0.000000 
-0.131557 -0.045403 -0.000158 0.610784 0.306863 0.230392 0.500000 
0.029061 -0.113914 -0.275115 0.871895 0.608497 0.352941 0.000000 
0.019423 -0.068477 0.082650 0.500980 0.315686 0.297059 0.000000 
0.044687 0.007444 0.240260 0.165686 0.116667 0.121569 0.000000 
0.053838 0.008209 0.236203 0.201961 0.166667 0.160784 0.000000 
-0.088840 -0.026572 0.235823 0.347059 0.372549 0.503922 0.000000 
0.060495 0.027498 0.219183 0.615686 0.319608 0.309804 0.000000 
-0.014904 -0.040314 0.202731 0.939216 0.680392 0.413725 0.000000 
-0.325303 0.163084 0.217932 0.847059 0.550980 0.380392 1.000000 
0.013371 0.142970 0.179779 0.405882 0.439216 0.721569 0.000000 
0.002391 -0.013377 0.136650 0.637255 0.400000 0.382353 0.000000 
0.019653 -0.014100 0.130232 0.905882 0.813725 0.782353 0.000000 
-0.025252 -0.035715 0.117060 0.415033 0.203268 0.193464 0.333333 
-0.024290 0.036012 0.137989 0.458824 0.421569 0.594118 0.000000 
-0.274274 -0.059077 0.136329 0.835294 0.554902 0.409804 0.000000 
0.006676 -0.027727 0.067629 0.488235 0.262745 0.288235 0.000000 
-0.039436 -0.081293 0.019215 0.990196 0.837255 0.564706 0.000000 
-0.163735 -0.050652 -0.013037 0.452941 0.460784 0.688235 0.000000 
-0.126439 -0.052482 -0.032060 0.968627 0.735294 0.445098 0.000000 
-0.139357 -0.055433 -0.038805 0.529412 0.252941 0.260784 0.000000 
0.025434 -0.087319 -0.115805 0.605229 0.301961 0.287582 0.000000 
-0.196946 -0.066069 -0.064223 0.639216 0.354902 0.292157 0.000000 
0.071934 -0.063857 -0.298795 0.827451 0.607843 0.525490 0.000000 
0.089086 0.320054 -0.216031 0.570588 0.603922 0.843137 1.000000 
-0.031078 -0.017378 0.256058 0.747059 0.541176 0.388235 0.000000 
0.019311 -0.024189 0.247252 0.801961 0.494118 0.421569 0.000000 
-0.018695 0.043463 0.161243 0.254248 0.181046 0.137909 0.000000 
-0.084529 -0.052808 0.152360 1.000000 0.747059 0.527451 0.000000 
0.015154 0.113115 0.151983 0.796078 0.678431 0.509804 0.000000 
0.021939 -0.075794 0.092329 0.617647 0.390196 0.239216 0.000000 
-0.257193 -0.067644 0.161057 0.419608 0.422222 0.632680 0.333333 
-0.260122 -0.066450 0.152763 0.930719 0.687582 0.508497 0.333333 
-0.237078 -0.055115 0.065031 0.592157 0.335294 0.300000 0.000000 
-0.247723 -0.072840 0.055478 0.944118 0.681373 0.498039 0.000000 
-0.228648 -0.058865 0.028874 0.425490 0.215686 0.227451 0.000000 
-0.231357 -0.059902 0.003473 0.558824 0.258824 0.168627 0.000000 
-0.161742 -0.053666 -0.024533 0.884314 0.711765 0.511765 0.000000 
-0.192089 -0.071420 -0.001979 0.566667 0.293464 0.291503 0.000000 
0.022999 0.094273 -0.124874 0.996078 0.982353 0.905882 0.000000 
-0.015356 -0.098331 -0.217090 0.847059 0.601961 0.329412 0.000000 
-0.004169 -0.110946 -0.242121 0.903922 0.666667 0.343137 0.000000 
-0.630417 0.421790 0.304701 0.325490 0.368627 0.584314 1.000000 
0.043945 -0.000134 0.276837 0.949020 0.770588 0.521569 0.000000 
0.076512 0.039759 0.246405 0.852941 0.613725 0.470588 0.000000 
0.010369 -0.020822 0.108784 0.629412 0.402941 0.426471 0.000000 
0.013909 -0.050970 0.099900 0.359477 0.190850 0.220261 0.000000 
-0.219165 -0.070569 -0.030722 0.694118 0.411765 0.319608 0.000000 
-0.176391 -0.063424 -0.080474 0.764706 0.507843 0.474510 0.000000 
0.025019 -0.110617 -0.248127 0.721569 0.423529 0.364706 0.000000 
0.071453 -0.071366 -0.312803 0.131373 0.096078 0.166667 0.000000 
0.016944 -0.040404 0.138585 0.782353 0.519608 0.535294 0.000000 
0.025834 0.087275 -0.136071 0.994118 0.979412 0.936275 0.000000 
0.055549 0.036854 0.265301 0.947712 0.715033 0.421569 0.000000 
0.001653 0.056841 -0.134501 0.643137 0.398693 0.347712 0.000000 
0.068872 -0.065861 0.014211 0.594118 0.321569 0.311765 0.000000 
-0.045176 -0.035555 0.218271 0.627451 0.309804 0.113725 0.000000 
-0.198153 -0.073144 -0.087986 0.249020 0.301961 0.547059 0.000000 
-0.179985 -0.066013 -0.060249 0.822549 0.521569 0.388235 0.000000 
-0.011072 0.106252 -0.135326 0.211765 0.237255 0.476471 0.000000 
-0.092862 -0.091737 -0.131467 0.254902 0.284967 0.530065 0.000000 
0.015366 -0.016949 0.191613 0.659477 0.388889 0.411111 0.000000 
0.100273 -0.061984 -0.019138 0.629412 0.352941 0.368627 0.000000 
0.111048 -0.083676 -0.077001 0.995098 0.945098 0.915686 0.000000 
0.013493 -0.054275 0.139509 0.784314 0.517647 0.352941 0.000000 
0.020843 0.065404 -0.137745 0.700000 0.460784 0.392157 0.000000 
-0.189472 -0.079628 -0.066990 0.231373 0.281373 0.511765 0.500000 
-0.261491 -0.066573 0.147210 0.688235 0.396078 0.217647 1.000000 
0.059735 -0.001952 0.238999 0.490196 0.268627 0.307843 0.000000 
0.068348 0.005622 0.240675 0.876471 0.562745 0.449020 0.000000 
0.059444 0.011846 0.223408 0.252941 0.152941 0.150980 0.000000 
0.011388 0.122522 0.167168 0.423529 0.425490 0.694118 0.000000 
-0.012671 0.030448 0.152401 0.827451 0.737255 0.750980 0.000000 
0.014554 -0.009035 0.140244 1.000000 0.984314 0.949020 0.000000 
0.021400 -0.064317 0.110372 0.696078 0.503922 0.307843 0.000000 
-0.261585 -0.081502 0.161653 0.827451 0.490196 0.478431 0.000000 
0.011607 -0.028179 0.096820 0.462745 0.252941 0.284314 0.000000 
-0.231169 -0.077180 0.155259 0.420588 0.277451 0.323529 0.000000 
-0.242105 -0.081551 0.075132 0.664706 0.372549 0.392157 0.000000 
-0.231259 -0.081227 0.057392 0.741176 0.427451 0.356863 0.000000 
-0.220751 -0.087260 0.059411 0.726471 0.428431 0.335294 0.000000 
-0.238564 -0.080180 0.047891 0.562745 0.256863 0.300000 0.000000 
-0.208280 -0.073759 0.028269 0.466667 0.270588 0.200000 0.000000 
-0.153239 -0.066824 -0.029241 0.639216 0.343137 0.352941 0.000000 
0.037936 -0.069575 -0.119452 0.692157 0.401961 0.427451 0.000000 
-0.152808 -0.073431 -0.056850 0.598039 0.309804 0.250980 0.000000 
-0.142882 -0.073904 -0.087327 0.260784 0.172549 0.282353 0.000000 
0.029502 -0.089209 -0.174975 0.682353 0.384314 0.268627 0.000000 
0.000046 0.048959 -0.147712 0.615686 0.388235 0.376471 0.000000 
0.030041 0.071789 -0.178568 0.847059 0.585490 0.489804 0.000000 
0.028163 -0.027058 -0.216332 0.333824 0.365196 0.628922 0.000000 
0.065450 -0.099281 -0.294902 0.971242 0.784314 0.613072 0.000000 
0.075895 -0.107284 -0.324985 0.206863 0.220588 0.416667 0.000000 
0.020555 0.007279 0.292738 0.947059 0.794118 0.429412 0.000000 
0.046794 0.027742 0.283683 1.000000 0.921078 0.530882 0.000000 
-0.062562 -0.033834 0.254738 0.337255 0.380392 0.507190 0.000000 
0.017228 -0.025337 0.240468 0.637255 0.315686 0.250980 0.000000 
0.025817 0.009223 0.222412 0.327451 0.207843 0.241176 0.000000 
0.018116 -0.006317 0.171135 0.648039 0.388480 0.405147 0.000000 
0.010377 0.001130 0.173267 0.592157 0.380392 0.394118 0.000000 
0.023175 -0.047102 0.136116 0.647059 0.437255 0.437255 0.000000 
-0.279980 -0.077210 0.185976 0.931373 0.707843 0.443137 0.000000 
-0.249150 -0.078818 0.095422 0.731373 0.447059 0.323529 0.000000 
0.096906 -0.051963 -0.007791 1.000000 0.984314 0.966667 0.000000 
0.115625 -0.066668 -0.042007 0.890196 0.862745 0.813725 0.000000 
0.105462 -0.092191 -0.064403 0.986274 0.911765 0.841176 0.000000 
-0.196267 -0.058640 0.025137 0.454902 0.423529 0.511765 0.000000 
-0.175041 -0.071636 -0.046450 0.756863 0.472549 0.345098 0.000000 
0.025273 -0.088955 -0.153814 0.621569 0.317647 0.278431 0.000000 
-0.148561 -0.073764 -0.081506 0.439216 0.284314 0.372549 0.000000 
-0.009555 0.083144 -0.109939 0.832353 0.626471 0.527451 0.000000 
0.008972 0.059430 -0.151630 0.749020 0.492157 0.433333 0.000000 
0.064513 0.010818 0.225605 0.184314 0.142647 0.144608 0.000000 
-0.012662 0.055765 0.172831 0.660784 0.533333 0.290196 0.000000 
-0.243957 -0.083482 0.163727 0.671569 0.385294 0.245098 0.000000 
0.095560 -0.084499 -0.068136 1.000000 0.911765 0.884314 0.000000 
0.027353 -0.095790 -0.251889 0.864706 0.596078 0.337255 0.000000 
0.028738 0.120412 0.144236 0.464706 0.335294 0.205882 0.000000 
-0.224303 -0.077449 0.135913 0.507843 0.254902 0.248039 0.000000 
-0.246070 -0.080060 0.129637 0.715686 0.409804 0.311765 0.000000 
0.085504 -0.039182 -0.017123 0.586275 0.298039 0.339216 0.000000 
-0.182766 -0.076957 -0.022862 0.670588 0.411765 0.215686 0.000000 
0.045669 0.042975 0.278115 0.368627 0.340196 0.381373 0.000000 
-0.091254 -0.035120 0.223371 0.356863 0.376471 0.490196 0.000000 
0.008077 0.003354 0.176269 0.533333 0.305882 0.327451 0.000000 
0.115517 -0.075704 -0.050617 0.907843 0.788235 0.752941 0.000000 
0.045311 -0.053040 -0.249117 0.863235 0.748039 0.717647 0.000000 
-0.199816 -0.084267 -0.016495 0.813725 0.537255 0.445098 0.000000 
-0.009382 0.055451 -0.070437 0.637255 0.382353 0.375490 0.000000 
0.023265 -0.030593 0.125769 0.586275 0.341176 0.341176 0.000000 
0.106483 -0.055151 -0.025171 0.680392 0.425490 0.439216 0.000000 
0.106355 -0.072274 -0.039879 0.969281 0.955555 0.924510 0.000000 
0.030164 -0.072831 -0.150581 0.557843 0.294118 0.329412 0.000000 
-0.257779 -0.091883 0.162739 0.488235 0.435294 0.601961 1.000000 
0.046000 0.023902 0.281628 0.961765 0.817647 0.458824 0.000000 
0.021641 -0.044347 0.142314 0.704902 0.421569 0.430392 0.000000 
-0.171547 -0.079771 -0.036766 0.787255 0.506863 0.378431 1.000000 
0.036244 -0.018523 0.239645 0.641176 0.337255 0.317647 0.000000 
-0.033858 0.062170 0.186681 0.798039 0.658824 0.327451 0.000000 
0.014165 -0.053654 0.155596 0.792157 0.519608 0.403922 0.000000 
0.014657 -0.053161 0.110608 0.378431 0.227451 0.243137 0.000000 
-0.210837 -0.080718 0.145282 0.390196 0.178431 0.111765 0.000000 
-0.207111 -0.093477 0.141642 0.545098 0.248366 0.283660 0.333333 
-0.234681 -0.097188 0.138495 0.437255 0.462745 0.717647 0.000000 
0.007356 -0.004986 0.074594 0.701961 0.437255 0.429412 0.000000 
-0.221240 -0.093430 0.126487 0.588235 0.280392 0.243137 0.000000 
0.043964 -0.078191 0.047418 0.858824 0.590196 0.431373 0.000000 
-0.208013 -0.087432 0.118918 0.390196 0.188235 0.186275 0.000000 
-0.207548 -0.093456 0.091128 0.852941 0.552941 0.521569 0.000000 
-0.036318 0.016105 -0.006229 0.164706 0.127451 0.145098 0.000000 
-0.174336 -0.072327 0.026079 0.517647 0.335294 0.229412 0.000000 
-0.183152 -0.080595 0.027554 0.837255 0.603922 0.366667 0.000000 
-0.151447 -0.076387 -0.018327 0.943137 0.680392 0.488235 0.000000 
-0.028166 0.036688 -0.064481 0.333333 0.200000 0.252941 0.000000 
0.037651 -0.069539 -0.124784 0.717647 0.414706 0.387255 0.000000 
0.020883 0.101763 -0.171430 0.227451 0.201961 0.403922 0.000000 
0.031620 0.084121 -0.182596 0.272549 0.150980 0.174510 0.000000 
0.065795 -0.111470 -0.306752 0.233333 0.252941 0.509804 0.000000 
0.069928 -0.108711 -0.310470 0.186275 0.219608 0.447059 0.000000 
-0.408222 0.307178 0.093389 0.467647 0.497549 0.778431 1.000000 
0.067163 0.014595 0.260846 0.553922 0.214706 0.196405 0.000000 
0.055461 -0.005537 0.247916 0.962745 0.727451 0.490196 0.000000 
0.074824 0.005803 0.235387 0.979412 0.692157 0.511765 0.000000 
0.012300 -0.035080 0.099445 0.521569 0.290196 0.333333 0.000000 
0.017374 -0.020449 0.083102 0.800000 0.531373 0.543137 0.000000 
-0.216334 -0.089582 0.128328 0.756863 0.452941 0.345098 0.000000 
-0.212696 -0.090938 0.104173 0.770588 0.500000 0.354902 0.000000 
-0.026591 0.097642 -0.099290 0.403922 0.441176 0.690196 0.000000 
0.007890 0.110918 -0.160498 0.686275 0.444444 0.332026 0.333333 
0.043070 -0.038368 -0.234124 0.948039 0.887255 0.813725 0.000000 
0.075912 0.008697 0.244675 0.952941 0.696078 0.468627 0.000000 
-0.027188 0.056138 0.183752 0.608824 0.458824 0.153922 0.000000 
-0.012552 0.030963 0.168929 0.880392 0.747059 0.729412 0.000000 
0.019232 -0.046159 0.124161 0.571569 0.326471 0.328431 0.000000 
0.072343 -0.092672 -0.298416 0.984314 0.982353 0.950980 0.000000 
-0.010290 0.054978 -0.036591 0.662745 0.403922 0.376471 0.000000 
0.027124 -0.084244 -0.139434 0.480392 0.180392 0.192157 0.000000 
0.023308 -0.036280 0.081537 0.576471 0.294118 0.303922 0.000000 
0.070240 -0.073530 -0.285399 0.176471 0.207451 0.374510 0.000000 
0.028627 0.104964 0.122231 0.470588 0.382353 0.221569 0.000000 
0.022860 -0.053794 0.098768 0.369608 0.198039 0.218627 0.000000 
-0.042051 -0.044929 -0.147558 0.482353 0.266667 0.262745 0.000000 
0.021428 -0.055408 0.134202 0.653922 0.462745 0.213726 0.000000 
-0.034284 0.029823 -0.050693 0.429412 0.450980 0.719608 0.000000 
0.068962 0.028448 0.196820 0.733333 0.371242 0.371242 0.000000 
-0.025519 0.065084 0.158524 0.858824 0.675490 0.400000 0.000000 
0.018953 -0.047606 0.131537 0.392157 0.178431 0.150980 0.000000 
0.018046 -0.050478 0.122708 0.308824 0.153922 0.150000 0.000000 
-0.184109 -0.095231 0.085932 0.488235 0.260784 0.176471 0.000000 
-0.204421 -0.105009 0.078959 0.580392 0.452941 0.625490 0.000000 
-0.172958 -0.092173 0.047244 0.505882 0.231373 0.176471 0.000000 
0.015847 -0.095343 -0.188665 0.688235 0.403922 0.374510 0.000000 
-0.003753 0.050701 -0.180377 0.200000 0.219608 0.411765 0.000000 
0.050581 -0.059697 -0.243060 0.996078 0.900000 0.854902 0.000000 
0.053769 -0.081484 -0.228444 1.000000 0.989325 0.955120 0.000000 
0.067501 0.027132 0.253587 0.900000 0.639216 0.413725 0.000000 
-0.229269 -0.107596 0.210795 0.954902 0.674510 0.419608 0.000000 
-0.020152 0.042836 0.155726 0.172549 0.131373 0.156863 0.000000 
0.013139 -0.012406 0.146092 0.944118 0.836275 0.800000 0.000000 
-0.218137 -0.103259 0.178324 0.839216 0.537255 0.466667 0.000000 
0.035493 0.110975 0.118323 0.978431 0.920261 0.779085 0.000000 
0.033478 0.121873 0.108189 0.444118 0.331373 0.218627 0.000000 
0.021755 0.131636 0.120476 0.974510 0.943137 0.929412 0.000000 
0.013584 -0.012879 0.107565 0.647059 0.464706 0.503922 0.000000 
-0.176607 -0.093129 0.058332 0.503922 0.280392 0.178431 0.000000 
0.107672 -0.071163 -0.060319 0.764706 0.470588 0.439216 0.000000 
-0.179456 -0.099519 0.051646 0.635294 0.347059 0.260784 0.000000 
-0.189394 -0.101028 0.050416 0.694118 0.400000 0.315686 0.000000 
-0.024403 0.125355 -0.134496 0.964706 0.933333 0.866667 0.000000 
0.067223 -0.092366 -0.282771 0.962745 0.966667 0.994118 0.000000 
0.054778 -0.005723 0.219844 0.541176 0.309804 0.325490 0.000000 
0.011476 -0.043105 0.091890 0.594118 0.327451 0.335294 0.000000 
-0.195513 -0.100609 0.117044 0.774510 0.476471 0.384314 0.000000 
0.023959 0.103221 -0.200762 0.160784 0.205882 0.364706 0.000000 
-0.026199 0.055310 0.183322 0.839216 0.672549 0.370588 0.000000 
-0.020506 0.064643 0.161084 0.911765 0.733333 0.468627 0.000000 
0.014019 -0.054294 0.107182 0.296078 0.166667 0.194118 0.000000 
0.020472 0.085643 -0.179777 0.992157 1.000000 0.968627 0.000000 
-0.018985 0.061555 0.158282 0.786274 0.635294 0.341176 0.000000 
0.041143 -0.039288 -0.236290 0.943137 0.862745 0.776471 0.000000 
-0.026730 0.105289 -0.163224 0.952941 0.927059 0.869804 0.200000 
0.072272 -0.016137 0.037494 0.750980 0.447059 0.439216 0.000000 
0.033571 -0.052533 -0.223076 0.831699 0.718954 0.655882 0.000000 
0.035881 -0.070201 -0.193527 0.951541 0.806723 0.665546 0.000000 
0.000825 0.092862 -0.210010 0.286275 0.333333 0.641176 0.000000 
0.022074 -0.008827 0.149873 0.980392 0.911765 0.878431 0.000000 
0.021289 -0.019603 0.110138 0.537647 0.333726 0.353725 0.000000 
0.058918 -0.060450 -0.197306 0.996078 0.973109 0.936695 0.000000 
0.014573 -0.091078 0.097207 0.900000 0.576471 0.487255 0.000000 
0.015770 0.005309 0.123872 0.876471 0.790196 0.800000 0.000000 
0.021569 -0.028938 0.116228 0.621569 0.368627 0.394118 0.000000 
0.012879 -0.004820 0.072780 0.831373 0.552941 0.537255 0.000000 
-0.053214 0.000595 -0.021315 0.472549 0.494118 0.737255 0.000000 
-0.007834 0.065448 -0.062965 0.717647 0.427451 0.401961 0.000000 
0.031306 -0.070129 -0.080798 0.765686 0.462745 0.494118 0.000000 
-0.007578 0.071249 -0.088761 0.475294 0.194902 0.206275 0.000000 
0.019437 -0.075205 -0.187557 0.854902 0.607843 0.527451 0.000000 
0.031655 -0.107364 -0.218979 0.850980 0.586275 0.419608 0.000000 
0.038580 0.101354 -0.240021 0.167320 0.119608 0.206536 0.000000 
0.066106 -0.078127 -0.269399 0.164706 0.203922 0.370588 0.000000 
0.065643 -0.102500 -0.273117 0.272549 0.333333 0.596078 0.000000 
0.075356 -0.083871 -0.282876 0.329412 0.356863 0.621569 0.000000 
0.017445 -0.001095 0.168381 0.720261 0.465359 0.472549 0.000000 
0.018363 -0.055110 0.141930 0.566667 0.396078 0.121569 0.000000 
0.002800 0.021474 0.127780 0.876471 0.772549 0.788235 0.000000 
0.015179 -0.016687 0.097191 0.755686 0.488235 0.487059 0.000000 
0.007905 -0.013737 0.083667 0.642745 0.389804 0.407451 0.000000 
0.016826 -0.026296 0.077494 0.529412 0.275490 0.310784 0.000000 
0.013522 -0.027726 0.064795 0.684314 0.374510 0.350980 0.000000 
0.018640 -0.021009 0.014066 0.611765 0.337255 0.354902 0.000000 
-0.017549 0.018993 -0.010565 0.213725 0.109804 0.131373 0.000000 
-0.007196 0.053143 -0.053567 0.627451 0.326797 0.343791 0.000000 
-0.025872 0.071925 -0.061644 0.784967 0.496732 0.430065 0.000000 
-0.016540 0.005732 0.176671 0.676471 0.462745 0.456863 0.000000 
-0.002375 0.031422 0.161166 0.858824 0.715686 0.688235 0.000000 
-0.024527 0.050180 0.163207 0.607843 0.450980 0.141176 0.000000 
0.008215 0.014022 0.117083 0.645098 0.530392 0.562745 0.000000 
0.021949 -0.015649 0.125339 0.811765 0.749020 0.725490 0.000000 
0.047293 0.024805 0.276538 1.000000 0.960784 0.593137 0.000000 
0.069258 0.024937 0.202184 0.654902 0.327451 0.345098 0.000000 
0.016149 -0.054272 0.085635 0.468627 0.286275 0.298039 0.000000 
0.010171 -0.001929 0.070943 0.960784 0.662745 0.656863 0.000000 
0.050838 -0.059878 -0.237165 1.000000 0.942157 0.878431 0.000000 
0.072309 0.028981 0.234138 0.868627 0.594118 0.382353 0.000000 
0.097395 -0.078524 -0.025260 0.990196 0.987255 0.958824 0.000000 
0.025138 -0.061246 0.067332 0.603922 0.380392 0.337255 0.000000 
-0.009817 0.107364 -0.206106 0.201961 0.231373 0.449020 0.000000 
0.068730 -0.074399 -0.291918 0.380392 0.413725 0.727451 0.000000 
0.031167 -0.000274 0.196819 0.547059 0.319608 0.345098 0.000000 
0.013903 0.004642 0.138863 0.986928 0.966013 0.949020 0.000000 
0.039674 -0.009048 -0.022456 0.492157 0.278431 0.313726 0.000000 
-0.009416 0.072338 -0.120067 0.674510 0.411765 0.386275 0.000000 
0.015611 -0.069549 0.164166 0.821569 0.507843 0.441176 0.000000 
0.027652 0.089412 -0.196412 0.898039 0.788235 0.711765 0.000000 
0.031483 0.012748 0.291210 0.350980 0.356863 0.494118 0.000000 
0.047154 0.002333 0.277240 0.984314 0.858824 0.538562 0.000000 
0.036192 0.037640 0.267512 0.905882 0.686275 0.445098 0.000000 
0.089197 0.031281 0.239702 0.996078 0.813725 0.492157 0.000000 
0.014484 -0.005145 0.102964 0.701961 0.507843 0.515686 0.000000 
0.005303 0.007899 0.095108 0.549020 0.294118 0.309804 0.000000 
0.016692 -0.026365 0.085444 0.458824 0.164706 0.184314 0.000000 
0.021386 -0.032944 0.030505 0.540196 0.294118 0.299020 0.000000 
-0.021656 0.127132 -0.210890 0.995098 1.000000 0.941176 0.500000 
0.059620 0.033388 0.256761 0.572549 0.211765 0.196078 0.000000 
-0.019658 0.040778 0.178929 0.733333 0.472549 0.411765 0.000000 
0.011321 0.008862 0.169140 0.733333 0.503922 0.496078 0.000000 
-0.007429 0.034280 0.153215 0.813725 0.682353 0.668627 0.000000 
0.012830 -0.039588 0.100245 0.643137 0.350980 0.347059 0.000000 
0.043220 0.134602 0.071732 0.971569 0.959804 0.894118 0.000000 
0.033144 0.138777 0.042265 0.996078 0.941176 0.778431 0.000000 
0.022091 -0.059438 -0.168811 0.764706 0.515686 0.436275 0.000000 
0.040507 -0.055087 -0.200116 0.837255 0.588235 0.454902 0.000000 
0.019569 0.118645 -0.241986 0.972549 0.953595 0.856863 0.000000 
0.057223 -0.094159 -0.192620 0.989412 0.998039 0.992157 0.000000 
0.058403 -0.046451 -0.246097 0.109804 0.072549 0.225490 0.000000 
0.019448 -0.011611 0.173645 0.849020 0.572549 0.568627 0.000000 
-0.032895 0.050007 0.165206 0.778431 0.608824 0.294118 0.000000 
-0.022898 0.049790 0.161215 0.672549 0.492157 0.184314 0.000000 
0.018150 -0.026646 0.092728 0.841176 0.537255 0.550980 0.000000 
0.062474 -0.074366 -0.249734 0.209804 0.241176 0.423529 0.000000 
0.053824 -0.043542 -0.240213 0.329412 0.355882 0.626471 0.000000 
0.015787 -0.028538 0.083414 0.560784 0.276471 0.298039 0.000000 
0.052639 -0.101180 0.037040 0.437255 0.480392 0.749020 0.000000 
-0.002263 0.104837 -0.195830 1.000000 1.000000 0.964706 0.000000 
0.015362 -0.005301 0.068794 0.945098 0.647059 0.625490 0.000000 
0.014331 -0.093223 -0.100930 0.786274 0.507843 0.390196 0.000000 
-0.026076 -0.077588 -0.128765 0.527451 0.294118 0.266667 0.000000 
0.035324 0.102793 -0.248882 0.166667 0.158824 0.292157 0.000000 
0.054473 -0.043480 -0.201475 0.330719 0.376961 0.651307 0.000000 
0.057662 -0.041655 -0.247544 0.364379 0.398366 0.712745 0.000000 
0.036224 0.131596 0.053685 1.000000 0.980392 0.770588 0.000000 
0.012648 -0.073907 -0.139770 0.615686 0.370588 0.360784 0.000000 
0.025628 -0.008307 0.053561 0.735294 0.417647 0.409804 0.000000 
0.039925 0.119805 0.072534 0.645098 0.490196 0.309804 0.000000 
-0.011549 0.034111 0.016322 0.510784 0.280392 0.287255 0.000000 
0.036341 0.087609 -0.255587 0.190196 0.198039 0.388235 0.000000 
0.050299 -0.065597 -0.200949 0.992810 0.968627 0.925490 0.000000 
0.072792 0.024858 0.264185 0.971569 0.706863 0.353922 0.000000 
0.063645 -0.001497 0.264304 0.988235 0.770588 0.511765 0.000000 
0.075716 0.027599 0.257562 0.967157 0.699020 0.517157 0.000000 
-0.012567 0.039252 0.156088 0.790588 0.519216 0.504706 0.000000 
0.016559 0.005741 0.121829 0.956863 0.878431 0.884314 0.000000 
0.081549 -0.096384 -0.007681 0.423529 0.460784 0.729412 0.000000 
-0.022719 0.071795 -0.040161 0.615686 0.325490 0.327451 0.000000 
-0.016414 0.078023 -0.106658 0.560784 0.276471 0.264706 0.000000 
0.043913 -0.050657 -0.193510 0.978992 0.949020 0.913445 0.000000 
0.033417 -0.024625 -0.216731 0.307843 0.337255 0.592157 0.000000 
0.065205 -0.007645 0.246576 0.913725 0.633333 0.429412 0.000000 
0.076866 0.029797 0.190582 0.725490 0.356863 0.366667 0.000000 
0.020035 0.002172 0.155312 0.969412 0.894902 0.871765 0.000000 
-0.026420 0.065219 0.138513 0.896078 0.701961 0.401961 0.000000 
0.005844 0.021187 0.110150 0.835294 0.712255 0.732843 0.000000 
0.014283 -0.002984 0.102540 0.811765 0.615686 0.610457 0.000000 
-0.016271 0.039502 0.006277 0.734314 0.433333 0.411765 0.000000 
-0.013517 0.036309 -0.006457 0.700000 0.413725 0.396078 0.000000 
0.037539 -0.062576 -0.062758 0.749020 0.454902 0.472549 0.000000 
0.036501 -0.106268 -0.170905 0.872549 0.649020 0.403922 0.000000 
-0.009788 0.088110 -0.186949 0.898039 0.715686 0.627451 0.000000 
0.051350 -0.098020 -0.215447 0.388235 0.422222 0.733333 0.333333 
-0.005401 0.021461 0.087131 0.407843 0.160784 0.192157 0.000000 
0.016848 -0.018230 -0.033287 0.223529 0.168627 0.213725 0.000000 
-0.013460 0.073318 -0.080452 0.872549 0.557843 0.501961 0.000000 
0.012997 -0.099276 -0.137941 0.843627 0.571078 0.396078 0.000000 
-0.002507 0.033110 0.146934 0.818301 0.679085 0.655229 0.000000 
0.011027 0.006278 0.094706 0.775163 0.503268 0.525490 0.000000 
0.018343 -0.011805 0.088910 0.527451 0.249020 0.264706 0.000000 
0.020419 -0.090125 -0.095169 0.815686 0.529412 0.482353 0.000000 
0.058578 0.033322 0.258759 0.752941 0.474510 0.466667 0.000000 
-0.015195 0.034332 0.040978 0.541176 0.321569 0.317647 0.000000 
0.086516 -0.082004 0.026188 0.972059 0.942157 0.887745 0.000000 
0.052663 -0.060678 -0.185573 0.999020 0.969935 0.921569 0.000000 
0.015591 -0.003498 0.063371 0.537255 0.219608 0.207843 0.000000 
0.033691 -0.043638 0.226397 0.341830 0.381046 0.508497 0.000000 
0.010810 -0.042976 0.191480 0.901961 0.605882 0.471569 0.000000 
0.003033 0.098948 -0.288944 0.279739 0.323529 0.629412 0.333333 
0.066202 0.005025 0.281912 0.368627 0.403922 0.549020 0.000000 
0.061919 0.037637 0.265159 0.917647 0.621569 0.439216 0.000000 
0.064175 -0.004349 0.265896 0.835294 0.709804 0.654902 0.000000 
0.001811 0.030630 0.120480 0.968627 0.882353 0.880392 0.000000 
0.014538 -0.000806 0.092146 0.692157 0.433333 0.445098 0.000000 
0.082327 -0.058627 0.044490 1.000000 0.990196 0.919608 0.000000 
-0.004143 0.034375 -0.013213 0.598529 0.326471 0.355882 0.000000 
-0.012741 0.065401 -0.055813 0.592157 0.272549 0.274510 0.000000 
-0.017241 0.072718 -0.082068 0.778431 0.472549 0.421569 0.000000 
0.021088 -0.066240 -0.140577 0.578431 0.354902 0.282353 0.000000 
0.047541 -0.054495 -0.146746 0.983066 0.907308 0.849554 0.000000 
0.074201 0.014129 0.255823 0.649020 0.231373 0.192157 0.000000 
0.067922 0.035560 0.254860 0.776471 0.425490 0.417647 0.000000 
0.085845 0.045306 0.235068 0.932353 0.696569 0.427451 0.000000 
0.003362 0.019516 0.172658 0.737255 0.485294 0.477451 0.000000 
-0.019873 0.052439 0.150224 0.706863 0.556863 0.208824 0.000000 
0.028744 -0.017816 0.134419 0.964706 0.894118 0.882353 0.000000 
0.027688 -0.013023 0.125055 0.993137 0.922549 0.915686 0.000000 
-0.003415 0.023615 0.102791 0.880392 0.688235 0.686275 0.000000 
0.011641 0.005566 0.093184 0.752941 0.476471 0.500000 0.000000 
0.019556 -0.013194 0.087281 0.615686 0.345098 0.372549 0.000000 
0.095030 0.152046 0.006967 0.578758 0.410457 0.488562 0.000000 
-0.000805 0.071021 -0.115182 0.676471 0.386275 0.394118 0.000000 
-0.005259 0.079654 -0.189583 0.856863 0.594118 0.523529 0.000000 
0.059506 -0.077020 -0.180495 0.233726 0.250980 0.416863 0.000000 
0.046289 -0.045878 -0.200961 0.341830 0.354902 0.615033 0.000000 
0.054656 -0.064008 -0.206026 0.373203 0.414379 0.721569 0.000000 
0.011087 0.007718 0.110705 0.772549 0.623529 0.647059 0.000000 
0.015984 -0.004176 0.073368 0.731373 0.425490 0.413725 0.000000 
0.081100 -0.067182 0.054156 0.989216 0.853922 0.722549 0.000000 
-0.044777 0.066689 -0.058123 0.535294 0.264706 0.284314 0.000000 
0.038411 0.101187 -0.284053 0.164706 0.192157 0.339216 0.000000 
-0.004742 0.035464 0.131176 0.872549 0.759314 0.751471 0.000000 
0.017966 -0.034100 0.115856 0.605882 0.335294 0.364706 0.000000 
0.033611 0.126209 -0.298566 0.972014 0.960784 0.879144 0.000000 
0.029990 -0.031456 -0.007296 0.505882 0.235294 0.228758 0.000000 
0.044830 -0.086326 -0.162802 0.854902 0.641176 0.494118 0.000000 
0.013994 -0.025217 -0.184512 0.337255 0.360784 0.601961 0.000000 
0.061366 -0.076505 -0.209726 0.223529 0.288235 0.515686 0.000000 
0.090838 -0.054098 0.019794 0.425490 0.466667 0.696078 0.000000 
0.051139 0.121535 -0.305898 0.175490 0.185294 0.341176 0.000000 
-0.422721 -0.014081 -0.043394 0.481569 0.511765 0.791373 0.800000 
-0.011624 0.074294 0.144807 0.743137 0.550980 0.235294 0.000000 
0.014853 0.015768 0.189599 0.536275 0.288235 0.306863 0.000000 
0.014727 0.007959 0.136737 0.984314 0.976961 0.948039 0.000000 
0.081258 -0.061381 0.055511 1.000000 0.947059 0.880392 0.000000 
-0.008520 0.040125 -0.025745 0.711765 0.403922 0.392157 0.000000 
-0.000596 0.037641 0.140494 0.955882 0.822549 0.801961 0.000000 
0.068570 -0.075264 -0.220758 0.421569 0.456863 0.768627 0.000000 
-0.010573 0.049365 0.144156 0.458824 0.235294 0.178431 0.000000 
0.014277 0.004733 0.067129 0.837255 0.523529 0.509804 0.000000 
-0.377594 -0.368030 0.275688 0.860784 0.609804 0.500000 1.000000 
-0.029540 0.072551 -0.068109 0.722549 0.429412 0.383333 0.000000 
0.029692 -0.043507 -0.054941 0.566667 0.319608 0.321569 0.000000 
-0.008888 0.073644 -0.097817 0.823529 0.515686 0.447059 0.000000 
0.023790 -0.102269 -0.114609 0.880392 0.647059 0.427451 0.000000 
0.043963 -0.106021 -0.123143 0.904575 0.743791 0.601307 0.000000 
0.023667 -0.035226 -0.176887 0.815686 0.672549 0.609804 0.000000 
0.008763 0.084490 -0.227083 0.778431 0.582353 0.484314 0.000000 
0.013138 0.115733 -0.261937 0.994118 0.998039 0.954902 0.000000 
0.048715 0.126621 -0.306420 0.258824 0.131373 0.190196 0.000000 
0.035117 0.143056 -0.319341 0.157843 0.110784 0.169608 0.000000 
0.074868 0.026622 0.191392 0.778431 0.374510 0.378431 0.000000 
-0.312296 -0.040656 0.175199 0.408007 0.443464 0.675327 0.000000 
-0.007143 0.040625 0.130584 0.841176 0.662745 0.641176 0.000000 
-0.010983 0.072904 0.112857 0.921569 0.721569 0.403922 0.000000 
0.086466 -0.068499 0.057922 0.322549 0.215686 0.168627 0.000000 
-0.013775 0.073977 -0.088342 0.678431 0.362745 0.376471 0.000000 
0.028946 -0.079816 -0.129961 0.835294 0.572549 0.468627 0.000000 
0.028745 -0.053890 -0.139308 0.825490 0.579216 0.481176 0.000000 
0.032865 -0.068871 -0.144761 0.724510 0.486275 0.377451 0.000000 
0.067650 -0.104738 -0.143371 0.437909 0.467320 0.775817 0.000000 
-0.000461 0.092698 -0.223761 0.800980 0.527941 0.452941 0.000000 
-0.021895 0.095889 -0.219830 0.829412 0.643137 0.492157 0.000000 
0.043331 0.017473 0.279223 0.982353 0.862745 0.500000 0.000000 
0.000316 0.038938 0.136729 0.948039 0.826471 0.797059 0.000000 
0.082344 -0.086647 0.043952 0.992157 0.939216 0.923529 0.000000 
0.047854 -0.063055 -0.156442 0.986274 0.965686 0.928431 0.000000 
0.054388 -0.095071 -0.161692 0.990196 0.998039 0.981373 0.000000 
0.075361 0.032383 0.270754 0.969935 0.798039 0.437909 0.000000 
0.036597 -0.038821 -0.184980 1.000000 0.990196 0.945098 0.000000 
0.066995 0.037146 0.255734 0.541176 0.196078 0.200000 0.000000 
-0.033603 0.020225 0.194684 0.885294 0.661275 0.400000 0.000000 
0.046445 -0.050361 -0.220152 0.388235 0.425490 0.752941 0.000000 
0.014501 0.089853 -0.247517 0.855882 0.760784 0.661765 0.000000 
0.023893 -0.012729 0.114736 0.637255 0.445098 0.482353 0.000000 
-0.008699 0.089946 -0.117353 0.719608 0.413725 0.349020 0.000000 
0.024272 -0.062669 -0.105908 0.705882 0.480392 0.429412 0.000000 
0.049496 0.092530 -0.271729 0.994118 0.992157 0.978431 0.000000 
0.064684 0.040297 0.216080 0.305882 0.150000 0.158824 0.000000 
-0.045081 0.020868 0.195119 0.843137 0.625490 0.329412 0.000000 
-0.015886 0.048911 0.148784 0.520261 0.271895 0.122876 0.000000 
0.011252 0.013974 0.150612 0.998039 0.954902 0.923529 0.000000 
-0.012863 0.046859 0.121542 0.286275 0.162745 0.156863 0.000000 
-0.179348 -0.099848 0.145727 0.847059 0.615686 0.419608 0.000000 
0.091352 0.159325 0.006858 0.995425 0.994118 0.866667 0.000000 
0.090711 -0.095866 0.050145 0.431373 0.458824 0.749020 0.000000 
0.092811 0.171991 -0.030115 0.749020 0.439216 0.417647 0.000000 
-0.038709 0.074638 -0.048037 0.584314 0.298039 0.280392 0.000000 
-0.003211 -0.041705 -0.048926 0.441176 0.472549 0.705882 0.000000 
-0.008425 0.080067 -0.109667 0.894118 0.588235 0.523529 0.000000 
-0.000758 0.076684 -0.112975 0.800000 0.482353 0.425490 0.000000 
0.029314 -0.073510 -0.117092 0.919608 0.656863 0.586275 0.000000 
0.050715 -0.113519 -0.118920 0.437255 0.460784 0.745098 0.000000 
0.007679 0.120116 -0.269922 0.898039 0.762745 0.580392 0.000000 
0.011154 0.135614 -0.300940 1.000000 0.994118 0.962745 0.000000 
0.046742 0.142969 -0.324798 1.000000 0.987255 0.922549 0.000000 
0.024664 0.141529 -0.313255 1.000000 0.986274 0.968627 0.000000 
0.070488 0.038832 0.256830 0.901961 0.586275 0.566667 0.000000 
0.053826 0.045982 0.200184 0.425490 0.229412 0.278431 0.000000 
-0.201473 -0.124869 0.220257 0.866667 0.637255 0.307843 0.000000 
-0.207590 -0.169156 0.178887 0.640959 0.438998 0.365142 0.444444 
-0.194306 -0.112121 0.202277 0.919608 0.717647 0.423529 0.000000 
-0.010291 0.047625 0.136558 0.588235 0.352941 0.352941 0.000000 
0.088114 -0.103882 0.062928 0.443137 0.476471 0.745098 0.000000 
-0.012236 0.043537 -0.014095 0.774510 0.458824 0.437255 0.000000 
0.029711 -0.037302 -0.042241 0.395098 0.186275 0.195098 0.000000 
0.036292 -0.056786 -0.146732 0.858824 0.629412 0.513726 0.000000 
0.042319 -0.031056 -0.186466 0.974510 0.996078 0.976471 0.000000 
0.051633 0.048611 0.239213 0.856863 0.560784 0.441176 0.000000 
0.071758 0.042544 0.211950 0.366667 0.186275 0.196078 0.000000 
0.016633 0.012660 0.165623 0.723529 0.462745 0.452941 0.000000 
-0.192940 -0.117775 0.205859 0.747059 0.541176 0.227451 0.000000 
-0.020760 0.053452 0.132032 0.806863 0.612745 0.266667 0.000000 
0.002958 -0.047115 -0.070348 0.325490 0.190196 0.194118 0.000000 
-0.025157 0.054749 0.148186 0.907843 0.698039 0.378431 0.000000 
0.038561 -0.074259 0.131607 0.831373 0.607843 0.368627 0.000000 
0.063370 -0.093396 0.106214 0.398039 0.452941 0.713726 0.000000 
0.041130 -0.033971 -0.179475 1.000000 0.994118 0.956863 0.000000 
0.062428 -0.052276 -0.199246 0.380392 0.411765 0.715686 0.000000 
0.086487 -0.058592 0.055668 0.425490 0.447059 0.672549 0.000000 
0.007157 -0.050163 -0.067694 0.354902 0.182353 0.180392 0.000000 
0.038608 0.036410 0.256467 0.792157 0.521569 0.315686 0.000000 
0.081274 0.019870 0.236660 0.816667 0.496078 0.388235 0.000000 
0.013626 0.139801 -0.287926 0.872549 0.733333 0.570588 0.000000 
0.052537 0.120717 -0.339243 0.245098 0.284314 0.537255 0.000000 
0.059386 0.029801 -0.262521 0.354902 0.388235 0.686275 0.000000 
0.004170 -0.013376 -0.134385 0.369608 0.383333 0.583333 0.000000 
0.083227 0.003679 0.264453 0.349020 0.407843 0.531373 0.000000 
0.039170 -0.076162 0.139173 0.831373 0.592157 0.374510 0.000000 
0.096821 0.159971 -0.003863 0.566667 0.258824 0.229412 0.000000 
0.091796 0.165757 -0.016363 0.982353 0.995098 0.905882 0.000000 
-0.040536 0.068250 -0.098904 0.586275 0.335294 0.317647 0.000000 
-0.001240 0.106045 -0.253299 0.560784 0.374510 0.260784 0.000000 
0.078371 -0.037336 0.076196 0.443137 0.474510 0.686275 0.000000 
0.057059 -0.074563 -0.139104 0.945098 0.880392 0.817647 0.000000 
0.077574 0.027087 0.197196 0.652941 0.290196 0.284314 0.000000 
-0.017103 0.027938 0.200633 0.739216 0.452941 0.364706 0.000000 
0.021617 0.001395 0.170603 0.725490 0.456209 0.456209 0.000000 
0.001523 0.033028 0.164820 0.900000 0.617647 0.576471 0.000000 
-0.021964 0.053348 0.152279 0.858824 0.666667 0.296078 0.000000 
0.048258 -0.033337 0.123744 0.362745 0.301961 0.384314 0.000000 
0.024299 0.001607 0.113485 0.864706 0.705882 0.719608 0.000000 
-0.190977 -0.141877 0.155319 0.596078 0.328758 0.216993 0.000000 
0.082306 -0.052334 0.083297 0.350327 0.271895 0.296732 0.000000 
-0.061382 0.029989 0.046315 0.498529 0.248039 0.187745 0.000000 
-0.183210 -0.114345 0.114426 0.796078 0.588235 0.396078 0.000000 
-0.032607 0.041974 0.020389 0.791176 0.473529 0.438235 0.000000 
-0.020739 0.045961 -0.000255 0.857843 0.527451 0.485294 0.000000 
-0.172656 -0.112907 0.063918 0.444444 0.219608 0.193464 0.333333 
-0.028065 0.073895 -0.041109 0.609804 0.300000 0.272549 0.000000 
0.033229 -0.038518 -0.041075 0.652941 0.409804 0.409804 0.000000 
-0.022097 0.085120 -0.092932 0.737255 0.426797 0.399346 0.000000 
-0.148477 -0.085247 0.005823 0.790196 0.635294 0.313726 0.000000 
0.054425 -0.064089 -0.138582 0.972549 0.943137 0.886275 0.000000 
0.057895 0.078459 -0.263689 0.343137 0.370588 0.682353 0.000000 
0.026427 0.158304 -0.349093 0.221569 0.166667 0.264706 0.000000 
0.063416 0.046114 0.239737 0.939216 0.686275 0.469608 0.000000 
0.024886 0.011778 0.186828 0.578431 0.333333 0.370588 0.000000 
-0.023007 0.077243 0.114792 1.000000 0.758824 0.543137 0.000000 
0.026391 0.016826 0.119263 0.941176 0.898039 0.892157 0.000000 
-0.007167 0.060925 0.096894 0.405882 0.278431 0.301961 0.000000 
0.086431 -0.059560 0.099665 1.000000 0.920392 0.787843 0.000000 
0.078093 -0.056289 0.085859 0.429412 0.239216 0.162745 0.000000 
0.096676 -0.074192 0.066080 0.964706 0.947059 0.913725 0.000000 
-0.161308 -0.115938 0.104317 0.438562 0.459477 0.686928 0.333333 
0.078415 0.174339 -0.014996 0.992157 0.994118 0.982353 0.000000 
0.093924 0.162894 -0.008633 0.989216 0.986274 0.913235 0.000000 
0.090786 0.175676 -0.020538 1.000000 0.998039 0.900000 0.000000 
-0.052531 0.028888 0.037512 0.780882 0.520588 0.369118 0.000000 
-0.162128 -0.112516 0.086456 0.327451 0.117647 0.117647 0.000000 
0.103955 0.210551 -0.072278 0.707843 0.382353 0.398039 0.000000 
-0.019238 0.105151 -0.231085 0.556863 0.307190 0.240523 0.000000 
0.024978 0.065246 -0.230668 0.362745 0.388235 0.688235 0.000000 
0.003529 0.103823 -0.258510 0.768627 0.588235 0.494118 0.000000 
-0.048233 0.084723 -0.244777 0.288235 0.323529 0.515686 0.000000 
-0.174525 -0.119374 0.069868 0.447059 0.235294 0.162092 0.333333 
-0.164465 -0.095901 0.025578 0.776471 0.600000 0.309804 0.000000 
0.002550 -0.043173 -0.071079 0.266667 0.172549 0.184314 0.000000 
0.048260 0.149593 -0.326445 0.980392 0.972549 0.903922 0.000000 
0.084848 0.181047 -0.042400 0.986274 0.960784 0.927451 0.000000 
0.000903 -0.062972 -0.091745 0.340196 0.221569 0.206863 0.000000 
0.040993 -0.055353 -0.129530 0.709804 0.500000 0.394118 0.000000 
0.065498 0.046719 0.244302 0.933333 0.670980 0.456863 0.000000 
-0.008153 0.048495 0.141071 0.878431 0.581373 0.555882 0.000000 
0.063588 0.171974 0.009585 0.589216 0.326471 0.252941 0.000000 
0.088338 0.181480 -0.019493 0.970588 1.000000 0.964706 0.000000 
0.060248 -0.089345 -0.125516 0.988235 0.982353 0.960784 0.000000 
0.073672 0.033703 0.277928 1.000000 0.911765 0.594118 0.000000 
0.070551 0.044624 0.223735 0.576471 0.423529 0.429412 0.000000 
-0.008508 0.016699 0.204744 0.544118 0.259804 0.246078 0.000000 
0.042212 0.167028 -0.369143 0.194118 0.227451 0.417647 0.000000 
-0.190046 -0.126553 0.169973 0.823529 0.580392 0.490196 0.000000 
0.047217 0.030663 0.274222 0.921569 0.696078 0.384314 0.000000 
-0.161796 -0.099376 -0.025082 0.221569 0.254902 0.460784 0.000000 
0.051541 -0.050199 -0.145731 0.992157 0.894118 0.837255 0.000000 
0.020996 0.019382 0.210187 0.423529 0.225490 0.254902 0.000000 
0.013389 -0.063581 -0.069225 0.474510 0.280392 0.266667 0.000000 
0.070803 -0.068051 0.201770 0.349020 0.384314 0.505882 0.000000 
0.097273 0.166085 -0.025293 0.500980 0.469608 0.682353 0.000000 
-0.016452 0.088396 -0.119323 0.892157 0.576471 0.574510 0.000000 
0.087729 0.012208 0.204673 0.325490 0.362745 0.496078 0.000000 
-0.189932 -0.133608 0.146093 0.892157 0.739216 0.386275 0.000000 
0.074823 0.139134 0.031806 0.598039 0.460784 0.564706 0.000000 
-0.185456 -0.141915 0.114830 0.853595 0.647059 0.435294 0.333333 
-0.055318 0.029570 0.050692 0.549020 0.309804 0.166667 0.000000 
-0.024570 0.042336 0.018216 0.589542 0.301961 0.288889 0.000000 
-0.179468 -0.128644 0.093699 0.447059 0.229412 0.190196 0.000000 
-0.013720 0.042954 0.001110 0.590850 0.303268 0.295425 0.000000 
0.014180 -0.020246 -0.010948 0.278431 0.176471 0.178431 0.000000 
-0.018936 0.089076 -0.108722 0.562745 0.247059 0.190196 0.000000 
-0.139470 -0.082325 -0.052294 0.500000 0.278431 0.282353 0.000000 
0.058797 -0.108999 -0.082320 0.415686 0.474510 0.745098 0.000000 
0.023997 -0.057413 -0.102598 0.492157 0.266667 0.205882 0.000000 
-0.030528 0.102654 -0.204277 0.623529 0.374510 0.294118 0.000000 
0.061145 0.100525 -0.290149 1.000000 0.994118 0.962745 0.000000 
0.070769 0.017339 0.279698 0.950980 0.741176 0.394118 0.000000 
-0.019783 0.027163 0.188575 0.923529 0.658824 0.431373 0.000000 
-0.206213 -0.189037 0.186349 0.934804 0.722549 0.372549 0.250000 
-0.100403 -0.063031 0.128521 0.398039 0.445098 0.682353 0.000000 
-0.065497 0.035378 0.024568 0.600980 0.330392 0.244608 0.000000 
-0.178030 -0.134300 0.082017 0.426471 0.218627 0.200980 0.500000 
-0.184471 -0.132819 0.077931 0.523529 0.319608 0.105882 0.000000 
-0.011308 0.046854 -0.028668 0.847059 0.556863 0.533333 0.000000 
-0.183789 -0.142179 0.058086 0.711765 0.507843 0.322549 0.000000 
-0.171838 -0.136442 0.016661 0.461275 0.235294 0.050980 0.250000 
-0.146595 -0.102056 0.017499 0.527451 0.337255 0.184314 0.000000 
-0.154156 -0.104568 0.013943 0.533333 0.350980 0.196078 0.000000 
-0.027298 0.092295 -0.129733 0.862745 0.568627 0.566667 0.000000 
0.028427 -0.053360 -0.111548 0.847059 0.603922 0.520261 0.000000 
0.075847 -0.096432 -0.102886 0.424837 0.462745 0.742484 0.000000 
0.007104 0.094366 -0.241346 0.796078 0.507843 0.441176 0.000000 
0.058407 0.124724 -0.319692 0.350980 0.323529 0.564706 0.000000 
0.014432 0.171289 -0.377031 0.203922 0.229412 0.433333 0.000000 
-0.201977 -0.164997 0.183427 0.858824 0.654248 0.362745 0.333333 
0.097456 -0.061056 0.101115 0.432353 0.399020 0.576471 0.000000 
0.024697 -0.019410 0.156200 0.970588 0.936275 0.910784 0.000000 
-0.143804 -0.091267 -0.013925 0.856863 0.682353 0.358824 0.000000 
0.084092 0.015647 0.270421 0.352941 0.388235 0.509804 0.000000 
0.067232 0.035779 0.263917 0.668627 0.350980 0.331373 0.000000 
-0.034480 0.010071 0.215680 0.823529 0.654902 0.300000 0.000000 
-0.023529 0.061514 0.139840 0.739216 0.515686 0.233333 0.000000 
-0.007749 0.051641 0.136623 0.916667 0.615686 0.577451 0.000000 
-0.193569 -0.140356 0.149191 0.894118 0.674510 0.425490 0.000000 
-0.177519 -0.132266 0.036061 0.701471 0.515686 0.261275 0.500000 
0.023609 -0.032085 -0.136685 0.501961 0.298039 0.223529 0.000000 
0.082565 0.021545 0.246649 0.946078 0.698039 0.395098 0.000000 
0.051334 0.152847 0.008559 0.652941 0.403922 0.350980 0.000000 
-0.202176 -0.156505 0.189651 0.858824 0.621569 0.325490 0.000000 
0.029970 0.099389 -0.277545 1.000000 0.986274 0.949020 0.000000 
0.001541 0.109647 -0.352968 0.300000 0.347059 0.654902 0.000000 
-0.128610 -0.052309 -0.032887 0.686275 0.509804 0.200000 0.000000 
0.014448 0.098557 -0.279617 0.974510 0.915686 0.819608 0.000000 
0.034517 0.161323 -0.350683 0.320588 0.279412 0.410784 0.000000 
0.084285 0.015326 0.225010 0.339216 0.381373 0.523529 0.000000 
-0.010230 0.026892 0.212730 0.719608 0.439216 0.313726 0.000000 
-0.053467 -0.014626 0.193987 0.825490 0.638235 0.265686 0.000000 
-0.081153 -0.110832 0.199832 0.319118 0.299510 0.430882 0.750000 
-0.097617 -0.059647 0.155361 0.674510 0.441176 0.390196 0.000000 
-0.181067 -0.226194 0.146603 0.883137 0.687059 0.372549 0.600000 
-0.182267 -0.209218 0.132419 0.944258 0.730252 0.406723 0.714286 
-0.183206 -0.189589 0.102751 0.724837 0.498693 0.269935 0.666667 
-0.062560 0.023924 0.054243 0.568627 0.337255 0.164706 0.000000 
-0.173029 -0.148494 0.085600 0.509804 0.305882 0.111765 0.000000 
-0.185985 -0.155372 0.040515 0.560784 0.296078 0.241176 0.000000 
-0.182890 -0.148676 0.030265 0.764706 0.582353 0.303922 0.000000 
-0.120495 -0.089256 -0.004450 0.494118 0.449020 0.488235 0.000000 
0.033812 -0.068250 -0.087999 0.862745 0.603922 0.541176 0.000000 
0.047058 -0.051034 -0.109799 0.666667 0.427451 0.288235 0.000000 
-0.126317 -0.097237 -0.117270 0.233333 0.163235 0.211765 0.500000 
0.030448 0.168009 -0.367069 0.225490 0.250980 0.449020 0.000000 
0.006792 0.177497 -0.377425 0.168627 0.086275 0.133333 0.000000 
0.060640 0.006297 0.296905 0.366667 0.394118 0.515686 0.000000 
0.036771 0.011433 0.289456 0.911765 0.688235 0.352941 0.000000 
0.055576 0.040829 0.230255 0.121569 0.054902 0.047059 0.000000 
-0.052639 -0.030806 0.207019 0.388235 0.394118 0.478431 0.000000 
-0.066542 -0.031582 0.196927 0.772549 0.505882 0.368627 0.000000 
-0.088988 -0.054838 0.167059 0.454902 0.417647 0.527451 0.000000 
0.030037 -0.032026 0.153730 0.994118 0.949020 0.890196 0.000000 
0.095451 -0.053852 0.094553 0.376471 0.227451 0.207843 0.000000 
0.042891 0.142959 0.029095 0.615686 0.309804 0.266667 0.000000 
0.085832 0.159698 0.016554 0.984314 0.974510 0.941176 0.000000 
-0.050958 0.036555 0.039645 0.552941 0.313726 0.166667 0.000000 
-0.195340 -0.162018 0.117340 0.656863 0.401961 0.298039 0.000000 
-0.002949 0.040648 -0.003812 0.723529 0.358824 0.349020 0.000000 
-0.146630 -0.127932 0.019807 0.413725 0.372549 0.488235 0.000000 
-0.165243 -0.130149 -0.000834 0.827451 0.645098 0.341176 0.000000 
0.039537 -0.061246 -0.088088 0.813725 0.588235 0.408824 0.000000 
-0.147729 -0.112159 -0.073139 0.365686 0.251961 0.324510 0.000000 
0.066586 -0.082851 -0.100163 0.992157 0.998039 0.950980 0.000000 
0.004422 0.104161 -0.271013 0.864706 0.678431 0.568627 0.000000 
-0.010867 0.115207 -0.280534 0.882353 0.631373 0.503922 0.000000 
0.059238 0.094495 -0.264623 0.982353 0.987582 0.941830 0.000000 
0.013743 0.135351 -0.304663 0.954248 0.814379 0.598693 0.000000 
0.046858 0.136595 -0.317025 0.996078 0.990850 0.920261 0.000000 
-0.087930 -0.042324 0.117801 0.394118 0.392157 0.560784 0.000000 
-0.134534 -0.089098 -0.054023 0.588235 0.372549 0.233333 0.000000 
0.062866 -0.087065 -0.095255 0.982353 0.982353 0.958824 0.000000 
0.041236 -0.033822 -0.150624 1.000000 0.992157 0.952941 0.000000 
0.014008 0.096919 -0.260980 0.890196 0.711765 0.594118 0.000000 
0.081148 0.029465 0.243562 0.945098 0.670588 0.503922 0.000000 
0.037833 0.048379 0.235971 0.529412 0.292157 0.303922 0.000000 
-0.005826 0.047500 0.126729 0.854902 0.580392 0.554902 0.000000 
-0.183794 -0.152363 0.057929 0.650980 0.427451 0.237255 0.000000 
0.062584 -0.085500 -0.095905 0.992157 0.990196 0.976471 0.000000 
-0.028204 0.144318 -0.362869 0.273726 0.302353 0.553333 0.000000 
0.035142 0.138954 -0.370521 0.264706 0.298039 0.570588 0.000000 
-0.200896 -0.180107 0.177844 0.625490 0.409804 0.219608 0.000000 
0.066954 0.016619 -0.205307 0.423529 0.439216 0.703922 0.000000 
0.017786 -0.004550 -0.025586 0.368627 0.200000 0.221569 0.000000 
0.095029 0.148806 0.015714 0.413725 0.441176 0.749020 0.000000 
-0.265417 -0.321676 0.035079 0.462745 0.492157 0.744118 1.000000 
-0.125032 -0.120783 -0.029868 0.416667 0.429412 0.657843 1.000000 
-0.102068 -0.004470 -0.198026 0.456863 0.494118 0.680392 1.000000 
0.063582 0.020553 0.238227 0.205882 0.064706 0.070588 0.000000 
0.084743 0.145572 0.024182 0.300000 0.280392 0.591177 0.000000 
0.008621 0.139657 -0.386042 0.332353 0.375490 0.685294 0.000000 
0.025475 0.018003 0.285447 0.917647 0.692157 0.388235 0.000000 
0.100548 0.033441 0.252387 0.915686 0.627451 0.454902 0.000000 
-0.075236 -0.048985 0.198390 0.343137 0.398039 0.529902 0.000000 
-0.042739 0.047509 0.154630 0.762745 0.456863 0.305882 0.000000 
-0.027717 0.104433 0.030208 0.570588 0.305882 0.298039 0.000000 
-0.171649 -0.184461 0.126624 0.405882 0.439216 0.737255 0.000000 
-0.186813 -0.210037 0.120328 0.740196 0.455882 0.333333 0.500000 
-0.059442 0.037450 0.017715 0.516340 0.245752 0.206536 0.000000 
-0.070529 0.031885 0.012829 0.611765 0.341830 0.241176 0.000000 
-0.030951 0.046217 0.013708 0.511765 0.233333 0.241176 0.000000 
-0.181726 -0.176885 0.083841 0.607843 0.374510 0.186275 0.000000 
0.038575 -0.045717 -0.001900 0.554902 0.296078 0.305882 0.000000 
0.033816 -0.031351 -0.021399 0.547059 0.300000 0.301961 0.000000 
-0.178764 -0.173595 0.001941 0.513726 0.286275 0.290196 0.000000 
0.064679 -0.051303 -0.122658 1.000000 0.992157 0.970588 0.000000 
0.049150 0.141544 -0.316933 0.990196 0.968627 0.894118 0.000000 
-0.011072 0.164202 -0.370291 0.198039 0.135294 0.211765 0.000000 
0.035647 0.051065 0.254301 0.978431 0.772549 0.554902 0.000000 
-0.022556 -0.013259 0.249563 0.352941 0.374510 0.484314 0.000000 
-0.019029 0.035915 0.179394 0.968627 0.735294 0.509804 0.000000 
-0.089106 -0.052459 0.141688 0.650327 0.404575 0.249673 0.000000 
-0.189375 -0.204804 0.154547 0.854902 0.639216 0.296078 0.000000 
-0.079141 -0.029722 0.094070 0.515686 0.288235 0.168627 0.000000 
-0.098629 -0.067239 0.098731 0.425490 0.192157 0.113725 0.000000 
-0.080316 -0.013644 0.078972 0.696078 0.521569 0.247059 0.000000 
-0.193679 -0.206547 0.134768 0.566667 0.296078 0.207843 0.000000 
0.085317 0.156408 0.008995 0.994118 0.984967 0.952941 0.000000 
0.088804 0.150049 0.000895 0.993464 0.991503 0.954248 0.000000 
-0.054772 0.040073 0.016859 0.562745 0.313726 0.205882 0.000000 
-0.176019 -0.189374 0.053693 0.613725 0.380392 0.160784 0.500000 
-0.161109 -0.188197 0.007765 0.676471 0.440196 0.201961 0.750000 
-0.105035 -0.055789 -0.073747 0.431373 0.217647 0.143137 0.000000 
-0.132772 -0.097853 -0.071151 0.731373 0.488235 0.358824 0.000000 
-0.003964 0.161237 -0.350338 0.813725 0.719608 0.500980 0.000000 
0.092858 0.045834 0.235906 0.484314 0.454902 0.531373 0.000000 
0.060639 0.049846 0.214273 0.629412 0.372549 0.372549 0.000000 
-0.186905 -0.212113 0.144807 0.861765 0.654902 0.335294 0.500000 
0.064720 0.182714 0.017090 0.600000 0.325490 0.278431 0.000000 
-0.107837 -0.066678 0.090532 0.584314 0.354902 0.317647 0.000000 
0.071298 0.161084 -0.003778 0.703268 0.715033 0.849673 0.000000 
-0.168306 -0.164233 0.026048 0.498039 0.268627 0.205882 0.000000 
-0.090919 -0.011561 0.122544 0.580392 0.345098 0.262745 0.000000 
-0.029529 0.043159 0.019203 0.590196 0.311765 0.300000 0.000000 
-0.145370 -0.112565 -0.055541 0.960784 0.776471 0.505882 0.000000 
-0.023033 0.129863 -0.312567 0.887909 0.692810 0.457516 0.000000 
0.067424 0.040029 0.272468 0.907843 0.545098 0.503922 0.000000 
0.062046 0.039438 0.235020 0.309804 0.152941 0.154902 0.000000 
0.100655 0.139555 0.017106 0.413235 0.447549 0.726471 0.000000 
-0.089859 -0.078213 -0.113403 0.386275 0.388235 0.574510 0.000000 
-0.025341 -0.016055 0.259331 0.347059 0.382353 0.500000 0.000000 
-0.003852 0.020121 0.237223 0.750980 0.517647 0.250980 0.000000 
-0.051481 -0.026104 0.235252 0.341176 0.396078 0.519608 0.000000 
-0.142422 -0.115881 -0.061054 0.876471 0.672549 0.449020 0.000000 
0.007876 0.154967 -0.392566 0.301961 0.345098 0.654902 0.000000 
-0.070540 0.044876 -0.016999 0.878431 0.680392 0.443137 0.000000 
0.002289 0.042208 0.189526 0.647059 0.339216 0.323529 0.000000 
-0.034574 0.012241 0.183016 0.864706 0.664706 0.325490 0.000000 
-0.074857 -0.002300 -0.086132 0.419608 0.252941 0.243137 0.000000 
-0.119891 -0.115494 -0.038376 0.650980 0.427451 0.235294 0.000000 
0.050055 0.044273 0.231283 0.649020 0.382353 0.380392 0.000000 
0.067131 0.147606 0.041873 0.790850 0.478431 0.411111 0.000000 
-0.079011 0.046303 0.189854 0.805882 0.609804 0.425490 0.000000 
-0.021237 0.033721 0.187388 0.725490 0.419608 0.252941 0.000000 
-0.174416 -0.208960 0.138693 0.419608 0.437255 0.705882 1.000000 
-0.116637 -0.090376 -0.068156 0.668627 0.492157 0.170588 1.000000 
0.097449 0.145734 0.005329 0.415686 0.447059 0.743137 0.000000 
0.076978 0.157259 -0.011482 0.913725 0.849020 0.878431 0.000000 
0.032824 0.020151 0.292954 0.927451 0.719608 0.352941 0.000000 
0.085158 0.051449 0.245478 0.676471 0.505882 0.537255 0.000000 
-0.047014 -0.023083 0.211162 0.864706 0.617647 0.421569 0.000000 
-0.072000 -0.022693 0.178506 0.923529 0.664706 0.525490 0.000000 
-0.063028 -0.015866 0.131508 0.766667 0.605882 0.280392 0.000000 
-0.072361 -0.090634 0.144933 0.754902 0.498039 0.401961 0.000000 
0.034438 0.134106 0.044290 0.766667 0.465686 0.378431 0.000000 
0.069459 0.129616 0.029843 0.665686 0.356863 0.323039 0.000000 
-0.027076 0.050469 0.030397 0.533333 0.280392 0.247059 0.000000 
-0.171150 -0.202870 0.098206 0.660784 0.352941 0.243137 1.000000 
-0.076629 0.044867 -0.006210 0.823529 0.633333 0.294118 0.000000 
-0.083928 0.018075 -0.003069 0.677124 0.418301 0.313726 0.000000 
-0.162731 -0.177651 0.056444 0.525490 0.290196 0.225490 0.000000 
-0.102459 -0.077024 -0.026367 0.588235 0.423529 0.160784 0.000000 
-0.123031 -0.102192 -0.062438 0.800000 0.647059 0.380392 0.000000 
-0.142173 -0.155681 -0.059219 0.552941 0.277451 0.236275 0.000000 
-0.124326 -0.102624 -0.084384 0.888235 0.721569 0.370588 0.000000 
-0.126741 -0.109541 -0.134455 0.494118 0.256209 0.252288 0.333333 
-0.144905 -0.147582 -0.100676 0.180392 0.194118 0.350980 0.000000 
-0.000787 0.159181 -0.373177 0.237255 0.264706 0.488235 0.000000 
0.091686 0.034070 0.274532 0.963399 0.737255 0.475817 0.000000 
0.102736 0.034736 0.262434 0.906863 0.627451 0.479412 0.000000 
0.040335 0.056585 0.246831 0.674510 0.364706 0.343137 0.000000 
-0.039819 -0.020606 0.224299 0.395098 0.361765 0.450980 0.000000 
-0.170003 -0.231543 0.134483 0.404902 0.460784 0.724510 1.000000 
-0.052227 0.046029 0.020028 0.631373 0.392157 0.247059 0.000000 
-0.067444 0.028747 0.023482 0.664706 0.417647 0.219608 0.000000 
-0.181938 -0.226131 0.107718 0.450980 0.243137 0.172549 1.000000 
-0.040436 0.048011 0.012532 0.554902 0.282353 0.252941 0.000000 
-0.162023 -0.199032 0.073047 0.779412 0.606863 0.283333 1.000000 
-0.096179 -0.081489 0.029245 0.372549 0.158824 0.029412 0.000000 
-0.097015 -0.047525 -0.005123 0.541176 0.325490 0.205882 0.000000 
-0.165564 -0.188810 0.041584 0.782353 0.531373 0.384314 1.000000 
-0.168445 -0.192614 0.039394 0.862745 0.631373 0.411765 1.000000 
-0.155404 -0.177357 -0.000041 0.637255 0.372549 0.274510 0.000000 
-0.160690 -0.190573 -0.008403 0.861765 0.624510 0.408824 1.000000 
-0.119009 -0.083853 -0.105234 0.770588 0.535294 0.437255 0.000000 
-0.157410 -0.163248 -0.070222 0.672549 0.407843 0.368627 1.000000 
0.028500 0.127408 -0.287392 0.994118 1.000000 0.990196 0.000000 
-0.033841 0.111038 -0.311489 0.750980 0.566667 0.347059 0.000000 
0.042750 0.023851 0.295603 0.974020 0.777451 0.391667 0.000000 
-0.018752 0.028036 0.192522 0.849020 0.547059 0.354902 0.000000 
-0.176785 -0.213139 0.103105 0.876471 0.652941 0.362745 1.000000 
-0.050363 0.045057 -0.002054 0.792157 0.549673 0.332026 0.000000 
-0.110035 -0.076608 -0.039900 0.407843 0.382353 0.537255 0.000000 
-0.115309 -0.117956 -0.048673 0.654902 0.480392 0.162745 0.000000 
-0.136662 -0.153777 -0.041556 0.596078 0.376471 0.192157 0.000000 
-0.129236 -0.104667 -0.086256 0.632353 0.428431 0.241176 0.000000 
-0.013934 0.115895 -0.282984 0.673203 0.415686 0.258824 0.000000 
-0.024178 -0.010415 0.252142 0.339216 0.386275 0.492157 0.000000 
-0.036490 0.003052 0.202402 0.756863 0.588235 0.205882 0.000000 
-0.030543 0.046874 0.166432 0.847059 0.617647 0.272549 0.000000 
-0.150714 -0.162345 -0.025377 0.654902 0.409804 0.260784 0.000000 
0.015650 0.156798 -0.356142 0.243137 0.273529 0.518627 0.000000 
-0.072868 -0.035142 0.163741 0.484314 0.243137 0.139216 0.000000 
-0.074058 0.046698 -0.020470 0.991176 0.831373 0.493137 0.000000 
-0.088098 -0.099757 -0.003267 0.394118 0.156863 0.060784 0.000000 
-0.004193 0.027043 0.240757 0.737255 0.503922 0.217647 0.000000 
-0.040966 0.033499 0.142002 0.639216 0.307843 0.231373 0.000000 
-0.076507 0.043330 -0.030505 0.879412 0.699020 0.363726 0.000000 
-0.177680 -0.232908 0.139916 0.852941 0.607843 0.360784 1.000000 
0.086144 0.132723 0.028931 0.656209 0.607843 0.696732 0.000000 
-0.126914 -0.165942 -0.034394 0.723529 0.576471 0.473529 0.000000 
-0.137036 -0.156047 -0.064901 0.937255 0.700000 0.476471 0.000000 
-0.051883 0.055199 0.045239 0.619608 0.392157 0.327451 0.000000 
-0.121384 -0.117946 -0.090254 0.669281 0.483660 0.162092 0.333333 
-0.078787 0.027438 0.002231 0.662745 0.392157 0.247059 0.000000 
-0.006245 -0.115881 0.097110 0.821569 0.633333 0.352941 1.000000 
-0.022586 0.116270 -0.220553 0.721569 0.443137 0.345098 0.000000 
-0.130579 -0.113587 -0.140770 0.190196 0.109804 0.188235 1.000000 
0.099738 0.141799 0.062022 0.415686 0.447059 0.698039 0.000000 
-0.039848 -0.010198 0.220078 0.427451 0.280392 0.249020 0.000000 
0.013523 0.013000 0.277449 0.907843 0.680392 0.374510 0.000000 
0.085513 0.049547 0.262486 0.994118 0.778431 0.613725 0.000000 
-0.001312 0.029763 0.245434 0.919608 0.698039 0.421569 0.000000 
0.000015 0.033654 0.225904 0.968627 0.719608 0.466667 0.000000 
-0.024637 0.028499 0.209085 0.958824 0.764706 0.423529 0.000000 
-0.015954 0.046018 0.166053 0.898039 0.607843 0.415686 0.000000 
-0.080920 -0.057158 0.165277 0.621569 0.337255 0.133333 0.000000 
-0.082164 -0.062683 0.123627 0.868627 0.600000 0.492157 0.000000 
0.078095 0.110083 0.080816 0.388235 0.392157 0.609804 0.000000 
-0.033838 0.103651 0.064084 0.794118 0.462745 0.376471 0.000000 
0.102618 0.117975 0.063290 0.433333 0.466667 0.754902 0.000000 
-0.078580 -0.023137 0.085973 0.486275 0.272549 0.045098 0.000000 
-0.092157 -0.063589 0.074960 0.429412 0.215686 0.060784 0.000000 
-0.064340 0.038212 0.022345 0.652941 0.396078 0.200000 0.000000 
-0.084849 0.038925 -0.022943 0.749020 0.568627 0.241176 0.000000 
-0.148970 -0.195819 0.000362 0.652941 0.409804 0.280392 1.000000 
-0.101579 -0.068561 -0.054876 0.650980 0.472549 0.239216 0.000000 
-0.095767 -0.068357 -0.070248 0.588235 0.378431 0.207843 0.000000 
-0.101749 -0.064864 -0.093737 0.864706 0.662745 0.407843 0.000000 
-0.154320 -0.200240 -0.042072 0.572549 0.290196 0.205882 1.000000 
-0.126359 -0.145840 -0.073439 0.533333 0.433333 0.447059 0.000000 
-0.152924 -0.194924 -0.053262 0.841176 0.643137 0.329412 1.000000 
-0.127065 -0.134502 -0.093291 0.574510 0.301961 0.119608 0.000000 
-0.138374 -0.150782 -0.091910 0.866667 0.645098 0.354902 0.000000 
-0.130078 -0.113271 -0.119348 0.639216 0.439216 0.123529 0.000000 
-0.133378 -0.127088 -0.123312 0.666667 0.409804 0.237255 0.000000 
0.083685 0.028378 0.292417 0.337255 0.386275 0.533333 0.000000 
0.070783 0.032982 0.283988 0.682353 0.241176 0.221569 0.000000 
0.079448 0.039125 0.280051 0.901961 0.607843 0.349020 0.000000 
0.052071 0.043775 0.276999 0.852941 0.639216 0.292157 0.000000 
0.071561 0.048185 0.262597 0.980392 0.770588 0.517647 0.000000 
0.083688 0.109363 0.091632 0.929412 0.921569 0.864706 0.000000 
0.089413 0.126800 0.067592 1.000000 0.984314 0.968627 0.000000 
0.063738 0.144478 0.034442 0.572549 0.298039 0.280392 0.000000 
0.109002 0.127505 0.040744 0.400000 0.435294 0.717647 0.000000 
-0.056797 0.049429 0.027694 0.743137 0.490196 0.396078 0.000000 
-0.160006 -0.238316 0.103592 0.841176 0.607843 0.266667 1.000000 
-0.071351 0.040786 -0.012160 0.780392 0.598039 0.252941 0.000000 
-0.154662 -0.200609 0.044051 0.690196 0.390196 0.358824 1.000000 
-0.150522 -0.200718 0.021781 0.492157 0.250980 0.202941 1.000000 
-0.150891 -0.195029 -0.031891 0.643137 0.398039 0.198039 1.000000 
-0.136990 -0.173773 -0.039543 0.615686 0.362745 0.239216 0.000000 
-0.154236 -0.201351 -0.031684 0.539216 0.286275 0.094118 1.000000 
-0.118831 -0.120848 -0.090099 0.560784 0.309804 0.160784 0.000000 
-0.145787 -0.179391 -0.065077 0.470588 0.196078 0.015686 1.000000 
-0.122521 -0.126906 -0.098012 0.700000 0.500000 0.213725 0.000000 
-0.140212 -0.167111 -0.080735 0.705882 0.501961 0.166667 1.000000 
-0.116240 -0.090918 -0.123297 0.945098 0.703922 0.511765 0.000000 
0.045476 0.080833 -0.219806 0.994118 0.978431 0.901961 0.000000 
0.001205 0.095902 -0.242415 0.776471 0.500000 0.413725 0.000000 
0.010803 0.159992 -0.343590 0.313726 0.239216 0.280392 0.000000 
-0.012297 0.124815 -0.340286 0.174510 0.213725 0.405882 0.000000 
-0.067918 -0.018329 0.201539 0.733333 0.609804 0.523529 0.000000 
-0.162465 -0.257850 0.115410 0.960784 0.731373 0.403922 1.000000 
-0.118476 -0.132166 -0.066770 0.392157 0.427451 0.572549 0.000000 
-0.039560 0.110743 -0.179399 0.690196 0.433333 0.258824 0.000000 
-0.128059 -0.110937 -0.144032 0.670588 0.417647 0.401961 0.000000 
-0.133634 -0.131351 -0.145067 0.456863 0.303922 0.331373 0.000000 
-0.024920 0.144843 -0.323985 0.892157 0.745098 0.401961 0.000000 
-0.009807 0.150322 -0.352273 0.184314 0.190196 0.337255 0.000000 
0.078357 0.030084 0.232433 0.923529 0.750980 0.731373 0.000000 
-0.050253 -0.037284 0.172463 0.460784 0.235294 0.062745 0.000000 
-0.158714 -0.202800 0.009359 0.749020 0.486275 0.343137 1.000000 
-0.109278 -0.063020 -0.091845 0.656863 0.445098 0.174510 0.000000 
-0.146446 -0.145259 -0.135271 0.337255 0.317647 0.394118 0.000000 
0.085756 0.027400 0.293531 0.360784 0.392157 0.515686 0.000000 
-0.002760 0.013677 0.252003 0.890196 0.658824 0.380392 0.000000 
-0.057469 0.042728 0.137806 0.729412 0.470588 0.288235 0.000000 
-0.148115 -0.210957 0.081872 0.421569 0.456863 0.703922 1.000000 
-0.146840 -0.189897 -0.049402 0.831373 0.635294 0.321569 1.000000 
0.025626 0.132553 -0.307556 1.000000 0.996078 0.972549 0.000000 
-0.053282 -0.020765 0.222850 0.364706 0.392157 0.527451 0.000000 
-0.060252 0.025497 0.110291 0.768627 0.556863 0.409804 0.000000 
-0.022185 0.050594 0.054152 0.545098 0.321569 0.319608 0.000000 
-0.157139 -0.213721 0.058388 0.833333 0.637255 0.298039 1.000000 
-0.112413 -0.098320 -0.110368 0.860784 0.650980 0.341176 0.000000 
-0.096564 0.009557 0.138436 0.500000 0.323529 0.307843 0.000000 
-0.069342 0.042440 0.094794 0.578431 0.370588 0.219608 0.000000 
0.038997 0.048386 0.238291 0.488235 0.243137 0.282353 0.000000 
-0.112708 -0.101661 -0.163803 0.198039 0.227451 0.452941 0.000000 
-0.163178 -0.235254 0.107546 0.421569 0.366667 0.462745 1.000000 
-0.069951 0.064621 -0.043782 0.933333 0.700000 0.445098 0.000000 
0.012031 0.130505 -0.361424 0.311765 0.354902 0.658824 0.000000 
-0.123337 -0.086419 -0.107678 0.635294 0.411765 0.145098 0.000000 
