0.002285 -0.009678 0.258759 0.900000 0.633333 0.470588 0.000000 
-0.024360 -0.026209 0.217380 0.905882 0.643137 0.427451 0.000000 
0.050345 0.112377 0.208546 0.374510 0.337255 0.450980 0.000000 
0.042262 0.117542 0.204505 0.423529 0.268627 0.239216 0.000000 
-0.046649 -0.052546 0.141316 0.990196 0.815686 0.433333 0.000000 
-0.026800 -0.063996 0.138837 0.713726 0.441176 0.231373 0.000000 
-0.117156 -0.017231 0.144619 0.713726 0.625490 0.301961 0.000000 
-0.058370 -0.056519 0.064830 0.839216 0.521569 0.380392 0.000000 
-0.094314 -0.036085 0.070132 0.721569 0.452941 0.345098 0.000000 
-0.057619 -0.063025 0.044568 0.588235 0.301961 0.121569 0.000000 
-0.118601 -0.039089 0.038554 0.684314 0.482353 0.184314 0.000000 
-0.122673 -0.073284 0.025079 0.684314 0.478431 0.186275 0.000000 
0.103321 -0.040301 0.013757 0.429412 0.437255 0.733333 0.000000 
-0.037901 -0.087682 -0.017743 0.739216 0.427451 0.298039 0.000000 
-0.092921 -0.045308 -0.003331 0.950980 0.711765 0.396078 0.000000 
-0.038275 -0.085559 -0.027287 0.925490 0.692157 0.433333 0.000000 
-0.050121 -0.083884 -0.028153 0.541176 0.254902 0.186275 0.000000 
-0.126440 -0.029749 -0.015763 0.415686 0.417647 0.668627 0.000000 
-0.270064 0.018264 -0.016773 0.719608 0.472549 0.394118 1.000000 
-0.114284 -0.045247 -0.053078 0.550980 0.266667 0.150980 0.000000 
-0.257035 0.006162 -0.052039 0.609804 0.327451 0.286275 1.000000 
-0.267764 0.005708 -0.081683 0.662745 0.384314 0.243137 1.000000 
-0.269981 0.008392 -0.093649 0.527451 0.258824 0.160784 1.000000 
-0.135827 -0.052085 -0.171597 0.468627 0.192157 0.207843 0.000000 
-0.247961 -0.012921 -0.152952 0.696078 0.409804 0.329412 1.000000 
-0.155725 -0.044439 -0.184421 0.901961 0.660784 0.407843 0.000000 
-0.205863 -0.028026 -0.198800 0.537255 0.229412 0.235294 1.000000 
-0.260020 0.003007 -0.190112 0.496078 0.319608 0.419608 1.000000 
0.016288 -0.114234 -0.275129 0.888235 0.611765 0.429412 0.000000 
-0.249716 0.003928 -0.202999 0.513726 0.262745 0.270588 1.000000 
-0.167666 -0.050949 -0.240816 0.650980 0.362745 0.235294 0.000000 
-0.006808 -0.116650 -0.284973 0.931373 0.817647 0.539216 0.000000 
-0.231862 -0.011937 -0.224077 0.784314 0.519608 0.388235 1.000000 
0.009615 -0.125639 -0.296174 0.831373 0.594118 0.313726 0.000000 
0.072084 -0.055418 -0.261299 0.441176 0.341176 0.488235 0.000000 
0.030115 -0.126715 -0.336745 0.423529 0.245098 0.296078 0.000000 
0.038658 0.031878 0.311917 0.972549 0.817647 0.470588 0.000000 
0.053333 0.030799 0.310903 0.378431 0.423529 0.558824 0.000000 
0.046524 0.026635 0.301586 0.711765 0.384314 0.382353 0.000000 
0.066391 0.032331 0.277315 0.552941 0.431373 0.452941 0.000000 
-0.065612 -0.013367 0.224318 0.858824 0.664706 0.266667 0.000000 
-0.086265 -0.011761 0.189876 0.988235 0.921569 0.498039 0.000000 
-0.097914 -0.014447 0.169405 0.403922 0.443137 0.723529 0.000000 
0.304956 0.147037 0.174268 0.403922 0.441176 0.690196 0.000000 
-0.020630 -0.070866 0.104566 0.831373 0.521569 0.519608 0.000000 
-0.047992 -0.065198 0.055625 0.974510 0.682353 0.539216 0.000000 
-0.099405 -0.025296 0.054166 0.758824 0.498039 0.362745 0.000000 
-0.091497 -0.046632 0.010055 0.688235 0.388235 0.301961 0.000000 
0.097965 -0.048502 0.002115 0.864706 0.723529 0.670588 0.000000 
-0.050592 -0.079510 -0.013955 0.664706 0.419608 0.147059 0.000000 
-0.052730 -0.085880 -0.039079 0.578431 0.288235 0.268627 0.000000 
-0.261478 0.008945 -0.065890 0.619608 0.325490 0.307843 1.000000 
-0.085503 -0.060570 -0.128683 0.672549 0.372549 0.305882 0.000000 
-0.262682 0.002745 -0.099578 0.637255 0.358824 0.347059 1.000000 
0.015844 -0.098391 -0.193504 0.870588 0.625490 0.394118 0.000000 
-0.158930 -0.038074 -0.192892 0.513726 0.219608 0.268627 0.000000 
-0.222049 -0.026572 -0.212522 0.792157 0.531373 0.309804 1.000000 
0.009559 -0.122727 -0.302593 0.696078 0.450980 0.164706 0.000000 
-0.194333 -0.046486 -0.256558 0.733333 0.464706 0.425490 1.000000 
0.033592 -0.108406 -0.297272 0.886275 0.641176 0.390196 0.000000 
0.050820 -0.104111 -0.318808 0.425490 0.231373 0.292157 0.000000 
0.039468 0.013445 0.311066 0.945098 0.788235 0.421569 0.000000 
0.067338 0.042297 0.288012 0.766667 0.535294 0.358824 0.000000 
0.034173 -0.002733 0.277317 1.000000 0.821569 0.656863 0.000000 
0.065984 0.036436 0.276746 0.500000 0.425490 0.474510 0.000000 
0.047673 0.017025 0.265320 0.343137 0.396078 0.531373 0.000000 
0.010589 -0.013044 0.249716 0.713726 0.415686 0.339216 0.000000 
-0.043922 -0.021739 0.198833 1.000000 0.862745 0.490196 0.000000 
-0.044152 -0.078093 -0.006904 1.000000 0.815686 0.625490 0.000000 
-0.124736 -0.024735 -0.010762 0.445098 0.464706 0.752941 0.000000 
-0.041061 -0.091920 -0.063438 0.545098 0.272549 0.113725 0.000000 
-0.119768 -0.041701 -0.053893 0.631373 0.349020 0.292157 0.000000 
-0.110501 -0.053839 -0.126523 0.660784 0.388235 0.398039 0.000000 
0.009266 -0.098963 -0.175893 0.625490 0.339216 0.243137 0.000000 
-0.168118 -0.023450 -0.144331 0.443137 0.474510 0.737255 0.000000 
-0.149076 -0.026666 -0.167036 0.892157 0.619608 0.401961 0.000000 
-0.216368 -0.023766 -0.202834 0.696078 0.425490 0.241176 1.000000 
-0.171409 -0.048757 -0.243130 0.921569 0.643137 0.494118 0.000000 
0.043586 -0.119505 -0.303713 0.898039 0.658824 0.374510 0.000000 
-0.015133 -0.117344 -0.305446 0.821569 0.562745 0.300000 0.000000 
0.054778 -0.119657 -0.333110 0.241176 0.127451 0.221569 0.000000 
0.005677 -0.007978 0.271554 0.968627 0.774510 0.574510 0.000000 
-0.032008 -0.073913 0.099294 0.458824 0.184314 0.117647 0.000000 
0.098709 -0.048586 0.015953 0.580392 0.464706 0.480392 0.000000 
-0.112555 -0.044565 -0.127754 0.515686 0.243137 0.237255 0.000000 
0.000212 -0.110133 -0.258618 0.641176 0.358824 0.254902 0.000000 
-0.225076 -0.027743 -0.223977 0.660784 0.362745 0.245098 1.000000 
0.047269 0.024857 0.266337 0.331373 0.392157 0.531373 0.000000 
-0.015329 -0.072812 0.122027 0.970588 0.649020 0.633333 0.000000 
-0.032104 -0.076484 0.097747 0.527451 0.254902 0.188235 0.000000 
-0.110636 -0.042716 0.013849 0.821569 0.566667 0.462745 0.000000 
-0.034205 -0.079118 -0.022943 0.939216 0.725490 0.460784 0.000000 
-0.055923 -0.083986 -0.032852 0.841176 0.578431 0.407843 0.000000 
-0.131656 -0.029607 -0.084752 0.849020 0.749020 0.717647 0.000000 
-0.113235 -0.049983 -0.130266 0.554902 0.280392 0.282353 0.000000 
0.014308 -0.093023 -0.171688 0.525490 0.243137 0.170588 0.000000 
-0.226881 -0.035529 -0.229093 0.635294 0.349020 0.235294 1.000000 
0.054719 -0.119710 -0.333703 0.174510 0.101961 0.203922 0.000000 
0.059582 0.020766 0.268324 0.349020 0.409804 0.541176 0.000000 
-0.107484 -0.014470 0.147812 0.654902 0.398039 0.094118 0.000000 
-0.111137 -0.018712 0.123265 0.423529 0.447059 0.709804 0.000000 
-0.033853 -0.068423 0.022587 0.864706 0.615686 0.494118 0.000000 
-0.058110 -0.084338 -0.004262 0.968627 0.707843 0.431373 0.000000 
-0.295739 0.038130 -0.021974 0.584314 0.335294 0.337255 1.000000 
0.060911 -0.102770 -0.323231 0.135294 0.131373 0.270588 0.000000 
-0.008858 -0.028502 0.130142 0.960784 0.654902 0.654902 0.000000 
-0.009299 -0.066461 0.119692 0.968627 0.668627 0.666667 0.000000 
-0.071380 -0.055312 0.065299 0.758824 0.482353 0.258824 0.000000 
-0.117176 -0.036422 -0.089833 0.850980 0.550980 0.390196 0.000000 
-0.211932 -0.072175 -0.291098 0.227451 0.211765 0.360784 1.000000 
-0.196415 -0.040246 -0.275687 0.217647 0.258824 0.468627 1.000000 
-0.009239 -0.044146 0.124274 0.966667 0.660784 0.660784 0.000000 
-0.197118 -0.042136 -0.275904 0.203922 0.235294 0.433333 1.000000 
0.057711 -0.092328 -0.327050 0.300000 0.352941 0.680392 0.000000 
-0.071097 -0.069836 0.001338 0.725490 0.452941 0.215686 0.000000 
-0.205764 -0.042511 -0.218881 0.805882 0.523529 0.429412 1.000000 
-0.160296 -0.020857 -0.204456 0.650980 0.364706 0.201961 0.000000 
-0.214441 -0.027456 -0.269789 0.260784 0.300000 0.537255 1.000000 
-0.043972 -0.030019 0.180698 0.937255 0.676471 0.427451 0.000000 
