0.002285 -0.009678 0.258759 0.900000 0.633333 0.470588 0.000000 
-0.024360 -0.026209 0.217380 0.905882 0.643137 0.427451 0.000000 
0.020915 0.107599 0.215799 0.480392 0.390196 0.429412 0.000000 
0.050345 0.112377 0.208546 0.374510 0.337255 0.450980 0.000000 
0.042262 0.117542 0.204505 0.423529 0.268627 0.239216 0.000000 
-0.046649 -0.052546 0.141316 0.990196 0.815686 0.433333 0.000000 
-0.026800 -0.063996 0.138837 0.713726 0.441176 0.231373 0.000000 
-0.117156 -0.017231 0.144619 0.713726 0.625490 0.301961 0.000000 
-0.058370 -0.056519 0.064830 0.839216 0.521569 0.380392 0.000000 
-0.094314 -0.036085 0.070132 0.721569 0.452941 0.345098 0.000000 
-0.057619 -0.063025 0.044568 0.588235 0.301961 0.121569 0.000000 
-0.118601 -0.039089 0.038554 0.684314 0.482353 0.184314 0.000000 
-0.122673 -0.073284 0.025079 0.684314 0.478431 0.186275 0.000000 
0.045204 -0.092437 0.016768 0.562745 0.292157 0.270588 0.000000 
0.103321 -0.040301 0.013757 0.429412 0.437255 0.733333 0.000000 
-0.037901 -0.087682 -0.017743 0.739216 0.427451 0.298039 0.000000 
-0.092921 -0.045308 -0.003331 0.950980 0.711765 0.396078 0.000000 
-0.038275 -0.085559 -0.027287 0.925490 0.692157 0.433333 0.000000 
-0.050121 -0.083884 -0.028153 0.541176 0.254902 0.186275 0.000000 
-0.126440 -0.029749 -0.015763 0.415686 0.417647 0.668627 0.000000 
-0.114284 -0.045247 -0.053078 0.550980 0.266667 0.150980 0.000000 
-0.257035 0.006162 -0.052039 0.609804 0.327451 0.286275 0.000000 
-0.267764 0.005708 -0.081683 0.662745 0.384314 0.243137 1.000000 
-0.269981 0.008392 -0.093649 0.527451 0.258824 0.160784 1.000000 
-0.127017 -0.055372 -0.165424 0.537255 0.247059 0.198039 0.000000 
-0.135827 -0.052085 -0.171597 0.468627 0.192157 0.207843 0.000000 
-0.247961 -0.012921 -0.152952 0.696078 0.409804 0.329412 0.000000 
-0.155725 -0.044439 -0.184421 0.901961 0.660784 0.407843 0.000000 
-0.205863 -0.028026 -0.198800 0.537255 0.229412 0.235294 0.000000 
-0.260020 0.003007 -0.190112 0.496078 0.319608 0.419608 1.000000 
0.016288 -0.114234 -0.275129 0.888235 0.611765 0.429412 0.000000 
-0.249716 0.003928 -0.202999 0.513726 0.262745 0.270588 1.000000 
-0.167666 -0.050949 -0.240816 0.650980 0.362745 0.235294 0.000000 
-0.175056 -0.048249 -0.244372 0.778431 0.492157 0.349020 0.000000 
-0.231862 -0.011937 -0.224077 0.784314 0.519608 0.388235 0.000000 
0.009615 -0.125639 -0.296174 0.831373 0.594118 0.313726 0.000000 
0.072084 -0.055418 -0.261299 0.441176 0.341176 0.488235 0.000000 
0.030115 -0.126715 -0.336745 0.423529 0.245098 0.296078 0.000000 
0.053333 0.030799 0.310903 0.378431 0.423529 0.558824 0.000000 
0.046524 0.026635 0.301586 0.711765 0.384314 0.382353 0.000000 
0.066391 0.032331 0.277315 0.552941 0.431373 0.452941 0.000000 
-0.065612 -0.013367 0.224318 0.858824 0.664706 0.266667 0.000000 
-0.086265 -0.011761 0.189876 0.988235 0.921569 0.498039 0.000000 
-0.097914 -0.014447 0.169405 0.403922 0.443137 0.723529 0.000000 
0.304956 0.147037 0.174268 0.403922 0.441176 0.690196 0.000000 
-0.020630 -0.070866 0.104566 0.831373 0.521569 0.519608 0.000000 
-0.047992 -0.065198 0.055625 0.974510 0.682353 0.539216 0.000000 
-0.099405 -0.025296 0.054166 0.758824 0.498039 0.362745 0.000000 
-0.091497 -0.046632 0.010055 0.688235 0.388235 0.301961 0.000000 
0.097965 -0.048502 0.002115 0.864706 0.723529 0.670588 0.000000 
-0.050592 -0.079510 -0.013955 0.664706 0.419608 0.147059 0.000000 
-0.052730 -0.085880 -0.039079 0.578431 0.288235 0.268627 0.000000 
-0.261478 0.008945 -0.065890 0.619608 0.325490 0.307843 1.000000 
-0.085503 -0.060570 -0.128683 0.672549 0.372549 0.305882 0.000000 
-0.262682 0.002745 -0.099578 0.637255 0.358824 0.347059 1.000000 
-0.097114 -0.055693 -0.130759 0.835294 0.552941 0.396078 0.000000 
0.015844 -0.098391 -0.193504 0.870588 0.625490 0.394118 0.000000 
-0.158930 -0.038074 -0.192892 0.513726 0.219608 0.268627 0.000000 
-0.222049 -0.026572 -0.212522 0.792157 0.531373 0.309804 0.000000 
0.009559 -0.122727 -0.302593 0.696078 0.450980 0.164706 0.000000 
-0.194333 -0.046486 -0.256558 0.733333 0.464706 0.425490 0.000000 
0.033592 -0.108406 -0.297272 0.886275 0.641176 0.390196 0.000000 
0.050820 -0.104111 -0.318808 0.425490 0.231373 0.292157 0.000000 
0.039468 0.013445 0.311066 0.945098 0.788235 0.421569 0.000000 
0.067338 0.042297 0.288012 0.766667 0.535294 0.358824 0.000000 
0.034173 -0.002733 0.277317 1.000000 0.821569 0.656863 0.000000 
0.065984 0.036436 0.276746 0.500000 0.425490 0.474510 0.000000 
0.047673 0.017025 0.265320 0.343137 0.396078 0.531373 0.000000 
0.010589 -0.013044 0.249716 0.713726 0.415686 0.339216 0.000000 
-0.044152 -0.078093 -0.006904 1.000000 0.815686 0.625490 0.000000 
-0.124736 -0.024735 -0.010762 0.445098 0.464706 0.752941 0.000000 
-0.041061 -0.091920 -0.063438 0.545098 0.272549 0.113725 0.000000 
-0.119768 -0.041701 -0.053893 0.631373 0.349020 0.292157 0.000000 
-0.110501 -0.053839 -0.126523 0.660784 0.388235 0.398039 0.000000 
0.009266 -0.098963 -0.175893 0.625490 0.339216 0.243137 0.000000 
-0.149076 -0.026666 -0.167036 0.892157 0.619608 0.401961 0.000000 
-0.216368 -0.023766 -0.202834 0.696078 0.425490 0.241176 0.000000 
-0.171409 -0.048757 -0.243130 0.921569 0.643137 0.494118 0.000000 
0.043586 -0.119505 -0.303713 0.898039 0.658824 0.374510 0.000000 
-0.015133 -0.117344 -0.305446 0.821569 0.562745 0.300000 0.000000 
0.054778 -0.119657 -0.333110 0.241176 0.127451 0.221569 0.000000 
0.005677 -0.007978 0.271554 0.968627 0.774510 0.574510 0.000000 
-0.032008 -0.073913 0.099294 0.458824 0.184314 0.117647 0.000000 
0.098709 -0.048586 0.015953 0.580392 0.464706 0.480392 0.000000 
-0.112555 -0.044565 -0.127754 0.515686 0.243137 0.237255 0.000000 
0.000212 -0.110133 -0.258618 0.641176 0.358824 0.254902 0.000000 
-0.225076 -0.027743 -0.223977 0.660784 0.362745 0.245098 0.000000 
0.047269 0.024857 0.266337 0.331373 0.392157 0.531373 0.000000 
-0.015329 -0.072812 0.122027 0.970588 0.649020 0.633333 0.000000 
-0.032104 -0.076484 0.097747 0.527451 0.254902 0.188235 0.000000 
-0.110636 -0.042716 0.013849 0.821569 0.566667 0.462745 0.000000 
-0.034205 -0.079118 -0.022943 0.939216 0.725490 0.460784 0.000000 
-0.055923 -0.083986 -0.032852 0.841176 0.578431 0.407843 0.000000 
-0.131656 -0.029607 -0.084752 0.849020 0.749020 0.717647 0.000000 
-0.113235 -0.049983 -0.130266 0.554902 0.280392 0.282353 0.000000 
0.014308 -0.093023 -0.171688 0.525490 0.243137 0.170588 0.000000 
-0.226881 -0.035529 -0.229093 0.635294 0.349020 0.235294 0.000000 
0.054719 -0.119710 -0.333703 0.174510 0.101961 0.203922 0.000000 
0.059582 0.020766 0.268324 0.349020 0.409804 0.541176 0.000000 
-0.070791 -0.018630 0.164348 0.815686 0.566667 0.360784 0.000000 
-0.107484 -0.014470 0.147812 0.654902 0.398039 0.094118 0.000000 
-0.111137 -0.018712 0.123265 0.423529 0.447059 0.709804 0.000000 
-0.033853 -0.068423 0.022587 0.864706 0.615686 0.494118 0.000000 
-0.058110 -0.084338 -0.004262 0.968627 0.707843 0.431373 0.000000 
-0.295739 0.038130 -0.021974 0.584314 0.335294 0.337255 1.000000 
0.060911 -0.102770 -0.323231 0.135294 0.131373 0.270588 0.000000 
-0.008858 -0.028502 0.130142 0.960784 0.654902 0.654902 0.000000 
-0.009299 -0.066461 0.119692 0.968627 0.668627 0.666667 0.000000 
-0.071380 -0.055312 0.065299 0.758824 0.482353 0.258824 0.000000 
-0.117176 -0.036422 -0.089833 0.850980 0.550980 0.390196 0.000000 
-0.107444 -0.030767 -0.087420 0.766667 0.470588 0.331373 0.000000 
-0.211932 -0.072175 -0.291098 0.227451 0.211765 0.360784 0.000000 
-0.196415 -0.040246 -0.275687 0.217647 0.258824 0.468627 0.000000 
-0.009239 -0.044146 0.124274 0.966667 0.660784 0.660784 0.000000 
-0.197118 -0.042136 -0.275904 0.203922 0.235294 0.433333 0.000000 
0.057711 -0.092328 -0.327050 0.300000 0.352941 0.680392 0.000000 
-0.071097 -0.069836 0.001338 0.725490 0.452941 0.215686 0.000000 
-0.205764 -0.042511 -0.218881 0.805882 0.523529 0.429412 0.000000 
-0.160296 -0.020857 -0.204456 0.650980 0.364706 0.201961 0.000000 
-0.214441 -0.027456 -0.269789 0.260784 0.300000 0.537255 0.000000 
-0.043972 -0.030019 0.180698 0.937255 0.676471 0.427451 0.000000 
-0.095524 -0.016356 0.198536 0.305882 0.354902 0.456863 0.000000 
-0.092642 -0.045664 0.003751 0.952941 0.707843 0.392157 0.000000 
-0.125981 -0.051190 -0.149910 0.556863 0.258824 0.237255 0.000000 
0.046391 0.027052 0.299229 0.678431 0.354902 0.350980 0.000000 
-0.127513 -0.041552 -0.130646 0.809804 0.615686 0.290196 0.000000 
-0.158736 -0.039616 -0.176706 0.533333 0.227451 0.296078 1.000000 
0.009698 -0.123596 -0.300974 0.703922 0.474510 0.198039 0.000000 
0.051384 -0.123052 -0.333869 0.445098 0.243137 0.296078 0.000000 
0.050721 -0.111112 -0.326449 0.447059 0.241176 0.298039 0.000000 
0.039073 0.021142 0.309731 0.911765 0.768627 0.394118 0.000000 
-0.087601 -0.048655 0.017370 0.580392 0.278431 0.200000 0.000000 
-0.043812 -0.075217 -0.001293 0.998039 0.733333 0.574510 0.000000 
-0.167384 -0.021665 -0.126967 0.429412 0.447059 0.749020 1.000000 
-0.160628 0.005399 -0.214357 0.215686 0.147059 0.260784 1.000000 
-0.033977 -0.079095 -0.019419 0.925490 0.711765 0.417647 0.000000 
-0.224207 -0.023359 -0.196437 0.690196 0.378431 0.296078 1.000000 
0.039075 0.021118 0.309751 0.911765 0.768627 0.394118 0.000000 
0.052777 0.039058 0.309719 0.382353 0.409804 0.543137 0.000000 
-0.055553 -0.082057 -0.026390 0.837255 0.554902 0.411765 0.000000 
0.054340 -0.121496 -0.338028 0.180392 0.100000 0.194118 0.000000 
0.294688 0.171559 0.171735 0.405882 0.441176 0.684314 0.000000 
0.071794 0.045096 0.276699 0.807843 0.576471 0.482353 0.000000 
-0.009203 -0.007983 0.268088 0.966667 0.713726 0.480392 0.000000 
0.010945 -0.014505 0.257083 0.623529 0.350980 0.245098 0.000000 
-0.094143 -0.019181 0.203813 0.350980 0.388235 0.517647 0.000000 
0.042259 0.116707 0.197267 0.325490 0.158824 0.119608 0.000000 
-0.048581 -0.044553 0.163934 0.919608 0.741176 0.390196 0.000000 
0.100915 -0.046762 0.006695 0.992157 0.890196 0.858824 0.000000 
-0.093478 -0.046065 0.010710 0.939216 0.674510 0.368627 0.000000 
-0.287833 0.019606 0.013611 0.790196 0.488235 0.386275 1.000000 
-0.067492 -0.074282 -0.045897 0.701961 0.396078 0.309804 0.000000 
-0.118159 -0.044132 -0.114184 0.741176 0.403922 0.360784 0.000000 
-0.141580 -0.032974 -0.110930 0.807843 0.486275 0.347059 0.000000 
-0.159266 -0.024375 -0.107955 0.611765 0.356863 0.215686 0.000000 
0.026055 -0.091819 -0.157069 0.792157 0.515686 0.354902 0.000000 
0.023594 -0.096156 -0.160945 0.715686 0.443137 0.264706 0.000000 
0.017225 -0.098801 -0.170736 0.700000 0.415686 0.307843 0.000000 
-0.185914 -0.017011 -0.125353 0.427451 0.464706 0.713726 0.000000 
-0.220081 -0.021637 -0.144088 0.870588 0.639216 0.368627 0.000000 
-0.223320 -0.022649 -0.198218 0.482353 0.237255 0.298039 0.000000 
0.044262 -0.088145 -0.274345 0.639216 0.411765 0.245098 0.000000 
0.026825 -0.118296 -0.292825 0.696078 0.435294 0.350980 0.000000 
-0.263412 0.009016 -0.198499 0.619608 0.649020 0.852941 1.000000 
0.074691 -0.069300 -0.287264 0.466667 0.345098 0.407843 0.000000 
0.041048 -0.126612 -0.325719 0.727451 0.431373 0.288235 0.000000 
0.022257 -0.126340 -0.329724 0.774510 0.511765 0.392157 0.000000 
0.018645 -0.105879 -0.316052 0.772549 0.505882 0.388235 0.000000 
0.055165 -0.122636 -0.333717 0.433333 0.182353 0.188235 0.000000 
0.046205 0.027464 0.296827 0.707843 0.394118 0.376471 0.000000 
0.059469 0.045698 0.293671 0.892157 0.664706 0.376471 0.000000 
-0.069121 -0.012015 0.219672 0.364706 0.374510 0.539216 0.000000 
-0.054915 -0.013767 0.213084 0.882353 0.570588 0.360784 0.000000 
0.003703 -0.020644 0.201158 0.701961 0.421569 0.394118 0.000000 
-0.023957 -0.036787 0.189611 0.805882 0.637255 0.317647 0.000000 
0.036054 0.119662 0.204918 0.245098 0.131373 0.174510 0.000000 
0.020397 0.094509 0.194481 0.501961 0.268627 0.250980 0.000000 
0.033987 0.119749 0.188349 0.684314 0.609804 0.615686 0.000000 
-0.136944 -0.022963 0.096482 0.370588 0.156863 0.000000 0.000000 
-0.041168 -0.073448 0.002964 0.856863 0.578431 0.449020 0.000000 
-0.010214 -0.089773 -0.031042 0.643137 0.403922 0.174510 0.000000 
-0.279687 0.018455 -0.011075 0.625490 0.319608 0.274510 1.000000 
-0.085423 -0.059880 -0.075863 0.429412 0.149020 0.011765 0.000000 
-0.086085 -0.061880 -0.112972 0.735294 0.443137 0.374510 0.000000 
-0.000215 -0.101624 -0.178322 0.676471 0.401961 0.331373 0.000000 
-0.122562 -0.056061 -0.149638 0.800000 0.507843 0.372549 0.000000 
-0.013222 -0.091188 -0.184807 0.827451 0.560784 0.327451 0.000000 
-0.228943 -0.014286 -0.124973 0.564706 0.276471 0.239216 0.000000 
-0.161731 -0.040956 -0.160926 0.564706 0.262745 0.341176 0.000000 
-0.170630 -0.038994 -0.175240 0.766667 0.476471 0.284314 0.000000 
-0.227090 -0.017191 -0.159486 0.854902 0.586275 0.362745 0.000000 
0.028067 -0.112283 -0.253886 0.625490 0.347059 0.323529 0.000000 
-0.031643 -0.095972 -0.259911 0.341176 0.374510 0.584314 0.000000 
-0.156473 -0.047146 -0.224675 0.268627 0.203922 0.276471 0.000000 
0.062590 -0.056418 -0.263020 0.954902 0.788235 0.703922 0.000000 
0.009870 -0.124138 -0.302087 0.717647 0.490196 0.205882 0.000000 
0.036024 -0.121105 -0.309655 0.915686 0.670588 0.419608 0.000000 
0.058458 -0.141141 -0.352075 0.454902 0.258824 0.313726 0.000000 
0.053491 -0.117478 -0.336301 0.456863 0.256863 0.315686 0.000000 
0.036118 0.028240 0.309183 0.856863 0.705882 0.305882 0.000000 
0.057487 0.037985 0.292732 0.903922 0.674510 0.376471 0.000000 
0.034025 -0.002677 0.277010 0.874510 0.698039 0.533333 0.000000 
0.034579 -0.004999 0.273290 0.988235 0.798039 0.647059 0.000000 
0.066751 0.032152 0.268145 0.405882 0.405882 0.482353 0.000000 
0.011272 -0.016870 0.247046 0.635294 0.321569 0.250980 0.000000 
0.021194 -0.018493 0.134738 0.452941 0.443137 0.700000 0.000000 
-0.147489 -0.030947 0.032671 0.919608 0.733333 0.445098 0.000000 
-0.044973 -0.072496 0.003131 0.998039 0.788235 0.611765 0.000000 
-0.054338 -0.076733 -0.004501 0.692157 0.466667 0.170588 0.000000 
-0.058571 -0.075970 -0.025547 0.543137 0.237255 0.188235 0.000000 
-0.049103 -0.086394 -0.031062 0.625490 0.368627 0.288235 0.000000 
0.111195 -0.067503 -0.038077 0.425490 0.466667 0.768627 0.000000 
-0.133567 -0.026673 -0.013031 0.800000 0.562745 0.335294 0.000000 
-0.092294 -0.051696 -0.108646 0.815686 0.529412 0.423529 0.000000 
0.021941 -0.098484 -0.165191 0.713726 0.437255 0.280392 0.000000 
-0.170734 -0.019751 -0.110002 0.441176 0.458824 0.741176 0.000000 
0.014690 -0.099263 -0.176798 0.617647 0.327451 0.256863 0.000000 
0.031931 -0.084776 -0.197892 0.688235 0.435294 0.292157 0.000000 
-0.200866 -0.032055 -0.173184 0.709804 0.449020 0.200000 0.000000 
0.001151 -0.112297 -0.247804 0.505882 0.219608 0.119608 0.000000 
-0.176516 -0.043624 -0.211449 0.568627 0.290196 0.264706 0.000000 
-0.175927 -0.014172 -0.193420 0.519608 0.233333 0.209804 0.000000 
0.006437 -0.120767 -0.298609 0.870588 0.649020 0.372549 0.000000 
0.032263 0.114459 0.210311 0.756863 0.486275 0.394118 0.000000 
-0.071965 -0.022386 0.180045 0.698039 0.425490 0.341176 0.000000 
-0.257792 0.008096 -0.009143 0.519608 0.382353 0.470588 0.000000 
-0.064196 -0.078396 -0.084145 0.596078 0.366667 0.352941 0.000000 
0.005504 -0.110147 -0.248153 0.515686 0.215686 0.139216 0.000000 
-0.154737 -0.050309 -0.231914 0.170588 0.178431 0.317647 0.000000 
0.036131 0.028190 0.309200 0.856863 0.705882 0.305882 0.000000 
0.067190 0.030416 0.267830 0.376471 0.401961 0.490196 0.000000 
-0.074644 -0.007410 0.220085 0.350980 0.392157 0.500000 0.000000 
-0.066651 -0.039174 0.116190 0.939216 0.719608 0.366667 0.000000 
-0.053611 -0.083326 -0.007439 0.717647 0.494118 0.186275 0.000000 
0.100807 -0.056411 -0.011076 0.988235 0.958824 0.986274 0.000000 
-0.056633 -0.080264 -0.020816 0.937255 0.658824 0.498039 0.000000 
-0.112732 -0.047315 -0.101626 0.623529 0.341176 0.364706 0.000000 
-0.092268 -0.051472 -0.108897 0.780392 0.490196 0.376471 0.000000 
-0.205847 -0.023020 -0.143712 0.490196 0.192157 0.143137 0.000000 
-0.201277 -0.028620 -0.171774 0.711765 0.447059 0.196078 0.000000 
0.005506 -0.110150 -0.248122 0.515686 0.215686 0.139216 0.000000 
0.059218 0.036458 0.286470 0.807843 0.552941 0.329412 0.000000 
-0.102745 -0.016895 0.186628 0.354902 0.388235 0.543137 0.000000 
-0.108052 -0.013710 0.159865 0.719608 0.486275 0.182353 0.000000 
0.277213 0.192220 0.171183 0.409804 0.443137 0.692157 0.000000 
-0.059817 -0.070346 0.010605 0.964706 0.690196 0.421569 0.000000 
-0.042594 -0.081663 -0.056403 0.833333 0.552941 0.396078 0.000000 
-0.111604 -0.043824 -0.073847 0.760784 0.443137 0.294118 0.000000 
-0.010513 -0.112115 -0.330996 0.280392 0.321569 0.621569 0.000000 
0.062641 -0.112002 -0.340849 0.162745 0.166667 0.331373 0.000000 
0.033789 0.000357 0.251719 0.517647 0.288235 0.337255 0.000000 
0.028986 0.022802 0.254457 0.517647 0.296078 0.347059 0.000000 
-0.075871 -0.019280 0.178398 0.372549 0.288235 0.394118 0.000000 
-0.039195 -0.077000 0.089454 0.645098 0.366667 0.223529 0.000000 
-0.107980 -0.042578 -0.072698 0.803922 0.501961 0.360784 0.000000 
-0.220498 -0.020493 -0.169765 0.782353 0.501961 0.419608 0.000000 
-0.007098 -0.107417 -0.335101 0.305882 0.345098 0.678431 0.000000 
0.032539 0.005485 0.250213 0.498039 0.270588 0.339216 0.000000 
-0.050448 -0.019692 0.218685 0.617647 0.276471 0.080392 0.000000 
-0.069511 -0.065606 0.008393 1.000000 0.809804 0.488235 0.000000 
-0.217576 -0.023659 -0.167555 0.776471 0.494118 0.398039 0.000000 
0.034547 -0.003067 0.252080 0.486275 0.256863 0.309804 0.000000 
-0.108260 -0.009268 0.191222 0.352941 0.386275 0.523529 0.000000 
-0.006451 -0.112041 -0.339943 0.305882 0.345098 0.682353 0.000000 
-0.128794 -0.027606 -0.128000 0.754902 0.450980 0.427451 0.000000 
-0.209244 -0.018123 -0.160513 0.864706 0.576471 0.484314 0.000000 
-0.162740 -0.040006 -0.182889 0.707843 0.403922 0.278431 0.000000 
-0.186911 -0.030896 -0.180089 0.919608 0.631373 0.452941 0.000000 
-0.046767 -0.008019 0.188773 0.945098 0.754902 0.454902 0.000000 
0.071788 0.043972 0.272330 0.794118 0.556863 0.452941 0.000000 
-0.104241 -0.024008 0.158518 0.676471 0.494118 0.152941 0.000000 
-0.102199 -0.023219 0.148012 0.437255 0.439216 0.717647 0.000000 
0.063580 -0.037816 -0.247325 0.382353 0.398039 0.660784 0.000000 
0.256978 0.225110 0.174875 0.409804 0.447059 0.696078 0.000000 
-0.095622 -0.037371 0.130565 0.435294 0.435294 0.674510 1.000000 
0.109910 -0.065719 -0.043410 0.417647 0.454902 0.774510 0.000000 
-0.170223 -0.023474 -0.096628 0.431373 0.468627 0.715686 1.000000 
0.031667 0.076417 -0.083434 0.845098 0.717647 0.674510 0.000000 
-0.227105 -0.018736 -0.137457 0.864706 0.600000 0.370588 1.000000 
0.057331 -0.136010 -0.348299 0.488235 0.292157 0.347059 0.000000 
-0.037573 -0.018824 0.220410 0.886275 0.627451 0.337255 0.000000 
-0.200415 -0.028286 -0.150180 0.701961 0.443137 0.201961 1.000000 
-0.258905 0.001639 0.008168 0.539216 0.337255 0.392157 1.000000 
-0.200389 -0.028033 -0.150096 0.701961 0.443137 0.201961 1.000000 
-0.176007 -0.045170 -0.193065 0.652941 0.364706 0.354902 1.000000 
0.261218 0.217315 0.169793 0.407843 0.445098 0.694118 0.000000 
-0.186350 -0.031069 -0.161303 0.868627 0.574510 0.386275 1.000000 
-0.046987 -0.005865 0.189798 0.980392 0.770588 0.460784 0.000000 
-0.018333 -0.001245 0.285228 0.317647 0.352941 0.501961 0.000000 
-0.016461 -0.000285 0.281599 0.350980 0.296078 0.409804 0.000000 
0.028237 -0.008905 0.269216 0.964706 0.743137 0.654902 0.000000 
-0.017846 -0.010391 0.267205 0.982353 0.749020 0.523529 0.000000 
0.024978 -0.011301 0.262987 0.949020 0.737255 0.635294 0.000000 
0.072362 0.043118 0.268370 0.817647 0.552941 0.441176 0.000000 
-0.036204 -0.007078 0.261425 0.335294 0.370588 0.531373 0.000000 
0.036920 0.126669 0.211286 0.333333 0.388235 0.529412 0.000000 
-0.047957 -0.047120 0.169208 0.850980 0.670588 0.313726 0.000000 
-0.060035 -0.039953 0.168970 0.698039 0.382353 0.184314 0.000000 
-0.103865 -0.026319 0.163734 0.731373 0.545098 0.196078 0.000000 
-0.030584 -0.064896 0.135169 0.643137 0.382353 0.282353 0.000000 
0.085898 -0.044532 0.018205 1.000000 0.978431 0.945098 0.000000 
-0.307530 0.019244 0.062007 0.641176 0.343137 0.286275 1.000000 
-0.293494 0.008282 0.052655 0.745098 0.445098 0.327451 1.000000 
-0.272138 0.005411 0.040686 0.892157 0.633333 0.394118 0.000000 
-0.277061 0.001658 0.009856 0.782353 0.490196 0.339216 1.000000 
-0.126047 -0.036447 -0.050596 0.852941 0.550980 0.376471 0.000000 
-0.119529 -0.044840 -0.090616 0.594118 0.256863 0.182353 0.000000 
-0.259004 -0.010587 -0.056167 0.664706 0.354902 0.298039 1.000000 
-0.130896 -0.046151 -0.108501 0.596078 0.280392 0.276471 0.000000 
-0.087972 -0.052657 -0.122292 0.619608 0.345098 0.301961 0.000000 
-0.168576 -0.030187 -0.104650 0.607843 0.298039 0.190196 0.000000 
-0.263114 -0.009049 -0.086729 0.709804 0.443137 0.384314 1.000000 
0.006975 -0.102940 -0.188402 0.898039 0.643137 0.380392 0.000000 
-0.215810 -0.024427 -0.109962 0.635294 0.321569 0.341176 0.000000 
0.003416 0.047816 -0.120076 0.652941 0.413725 0.400000 0.000000 
-0.192972 -0.034441 -0.127635 0.537255 0.239216 0.237255 0.000000 
-0.173974 -0.044560 -0.161640 0.676471 0.354902 0.223529 0.000000 
-0.170725 -0.046281 -0.179750 0.776471 0.505882 0.517647 0.000000 
0.028665 -0.122386 -0.334464 0.413725 0.249020 0.317647 0.000000 
0.049330 0.041858 0.301791 0.384314 0.411765 0.521569 0.000000 
0.060414 0.043094 0.286846 0.937255 0.723529 0.364706 0.000000 
0.012183 -0.016851 0.251156 0.796078 0.496078 0.433333 0.000000 
-0.064910 -0.017038 0.234980 0.890196 0.672549 0.294118 0.000000 
-0.115821 -0.022813 0.169708 0.598039 0.458824 0.070588 0.000000 
0.038914 0.110315 0.185981 0.447059 0.270588 0.203922 0.000000 
-0.076125 -0.035954 0.159696 0.900000 0.631373 0.468627 0.000000 
0.030358 0.126746 0.181275 0.588235 0.517647 0.468627 0.000000 
0.227108 0.249443 0.175235 0.411765 0.447059 0.690196 0.000000 
-0.299515 0.012924 0.075838 0.841176 0.576471 0.345098 1.000000 
-0.055426 -0.074007 0.007448 0.756863 0.513726 0.235294 0.000000 
0.086483 -0.076963 -0.016614 0.850980 0.517647 0.517647 0.000000 
0.100694 -0.065243 -0.024752 1.000000 0.954902 0.925490 0.000000 
0.094572 -0.081373 -0.031263 0.696078 0.396078 0.378431 0.000000 
0.101508 -0.041636 -0.016692 0.421569 0.447059 0.766667 0.000000 
-0.048277 -0.080803 -0.032603 0.654902 0.362745 0.178431 0.000000 
-0.273229 0.163554 0.042929 0.550980 0.282353 0.286275 1.000000 
-0.269382 -0.003658 -0.048270 0.950980 0.658824 0.480392 1.000000 
-0.131634 -0.040012 -0.091901 0.752941 0.539216 0.231373 0.000000 
-0.234099 -0.013190 -0.080283 0.584314 0.284314 0.264706 0.000000 
-0.164426 -0.041579 -0.127656 0.601961 0.294118 0.362745 0.000000 
-0.232099 -0.020315 -0.115027 0.915686 0.641176 0.415686 0.000000 
-0.240079 -0.018832 -0.134380 0.676471 0.390196 0.425490 0.000000 
0.026087 -0.106497 -0.247680 0.629412 0.347059 0.325490 0.000000 
0.075172 -0.071490 -0.301739 0.366667 0.262745 0.300000 0.000000 
0.007619 -0.010320 0.269152 1.000000 0.896078 0.709804 0.000000 
-0.097680 -0.023392 0.177199 0.588235 0.409804 0.117647 0.000000 
0.026285 0.104583 0.194158 0.484314 0.270588 0.205882 0.000000 
-0.035839 -0.042340 0.165010 0.974510 0.841176 0.466667 0.000000 
0.020119 0.094741 0.188503 0.470588 0.250980 0.243137 0.000000 
-0.114595 -0.026597 0.139962 0.417647 0.450980 0.709804 0.000000 
0.101474 -0.063853 -0.027510 1.000000 0.947059 0.900000 0.000000 
0.000078 0.082958 -0.056131 0.735294 0.615686 0.456863 0.000000 
-0.079904 -0.054291 -0.123291 0.358824 0.098039 0.117647 0.000000 
-0.200702 -0.034898 -0.151961 0.915686 0.627451 0.496078 0.000000 
-0.185190 -0.041309 -0.159517 0.917647 0.603922 0.484314 0.000000 
0.006374 -0.120659 -0.291763 0.868627 0.652941 0.368627 0.000000 
0.071634 -0.106719 -0.343293 0.170588 0.129412 0.223529 0.000000 
0.011653 -0.002040 0.286590 0.992157 0.837255 0.568627 0.000000 
0.030032 -0.003378 0.271348 0.841176 0.627451 0.511765 0.000000 
-0.003434 0.017114 0.271707 0.921569 0.735294 0.580392 0.000000 
-0.080766 -0.029428 0.166914 0.450980 0.123529 0.007843 0.000000 
-0.287510 0.018066 0.062478 0.729412 0.454902 0.323529 1.000000 
0.104561 -0.065224 -0.023746 0.745098 0.660784 0.682353 0.000000 
-0.205830 -0.025160 -0.127813 0.686275 0.417647 0.170588 0.000000 
-0.236445 -0.011393 -0.118152 0.760784 0.427451 0.331373 0.000000 
-0.177632 -0.042760 -0.173817 0.847059 0.564706 0.554902 0.000000 
0.029296 -0.001504 0.271747 0.794118 0.592157 0.460784 0.000000 
0.001840 -0.105266 0.055712 0.788235 0.474510 0.474510 0.000000 
-0.298740 0.061847 0.086851 0.807843 0.531373 0.354902 0.000000 
-0.205875 -0.024667 -0.127590 0.686275 0.417647 0.170588 0.000000 
-0.235735 -0.019988 -0.122881 0.754902 0.417647 0.319608 0.000000 
-0.133571 -0.053404 -0.169896 0.733333 0.449020 0.417647 0.000000 
0.058918 0.036697 0.280571 0.788235 0.543137 0.307843 0.000000 
0.039997 -0.003708 0.255533 0.545098 0.278431 0.325490 0.000000 
-0.113810 -0.010719 0.150886 0.425490 0.456863 0.705882 0.000000 
-0.040405 -0.060462 0.131629 0.780392 0.507843 0.296078 0.000000 
-0.264883 -0.001242 -0.050354 0.764706 0.464706 0.350980 1.000000 
0.238266 0.236245 0.168217 0.409804 0.445098 0.688235 0.000000 
-0.130676 -0.019709 0.124381 0.401961 0.168627 0.035294 0.000000 
-0.055757 -0.002769 0.228689 0.801961 0.482353 0.274510 0.000000 
-0.172711 -0.040547 -0.156992 1.000000 0.731373 0.617647 0.000000 
0.053379 -0.142586 -0.371009 0.270588 0.325490 0.639216 0.000000 
-0.149383 -0.045588 -0.155351 0.809804 0.490196 0.407843 0.000000 
-0.151147 -0.050034 -0.204995 0.256863 0.303922 0.566667 0.000000 
0.043614 -0.115896 -0.351825 0.311765 0.372549 0.684314 0.000000 
-0.125703 -0.051703 -0.114544 0.776471 0.466667 0.429412 0.000000 
-0.164367 -0.048761 -0.152688 0.754902 0.443137 0.319608 0.000000 
-0.190210 -0.031597 -0.142285 0.949020 0.649020 0.509804 0.000000 
-0.220374 -0.029644 -0.181852 0.301961 0.347059 0.621569 0.000000 
-0.048028 -0.003970 0.191484 0.964706 0.819608 0.468627 0.000000 
-0.153095 -0.046408 -0.132873 0.733333 0.417647 0.409804 0.000000 
-0.017365 -0.004055 0.284944 0.327451 0.370588 0.501961 0.000000 
0.049367 0.037598 0.225547 0.409804 0.360784 0.474510 0.000000 
-0.293604 -0.001181 0.068169 0.711765 0.421569 0.309804 1.000000 
-0.016282 -0.095616 -0.055075 0.627451 0.337255 0.174510 0.000000 
-0.258506 -0.016959 -0.038210 0.729412 0.409804 0.360784 1.000000 
0.049827 0.040352 0.298718 0.376471 0.386275 0.529412 0.000000 
0.013037 -0.019232 0.250158 0.756863 0.452941 0.392157 0.000000 
-0.027937 -0.024383 0.197532 0.813725 0.615686 0.337255 0.000000 
-0.115507 -0.023801 0.175352 0.654902 0.513726 0.105882 0.000000 
0.208471 0.270207 0.174930 0.403922 0.437255 0.686275 0.000000 
-0.090746 0.533639 0.183332 0.468627 0.496078 0.760784 1.000000 
-0.299840 0.006283 0.092030 0.843137 0.562745 0.307843 1.000000 
-0.130595 -0.041692 -0.081580 0.760784 0.554902 0.221569 1.000000 
0.006772 0.010949 0.288313 0.998039 0.837255 0.586275 0.000000 
0.029686 -0.094444 -0.160620 0.784314 0.498039 0.347059 0.000000 
-0.048098 -0.013095 0.249192 0.349020 0.403922 0.533333 0.000000 
-0.234669 -0.026892 -0.105340 0.725490 0.413725 0.301961 1.000000 
-0.204518 -0.030586 -0.112184 0.668627 0.398039 0.154902 1.000000 
-0.024399 0.051409 0.309971 0.343137 0.372549 0.505882 0.000000 
0.019559 0.024708 0.304630 0.982353 0.815686 0.537255 0.000000 
0.054585 -0.085778 0.287859 0.349020 0.382353 0.507843 0.000000 
-0.015502 -0.006369 0.285117 0.315686 0.343137 0.490196 0.000000 
0.069557 0.046931 0.269487 0.892157 0.594118 0.400000 0.000000 
0.039306 0.001908 0.237961 0.466667 0.241176 0.272549 0.000000 
0.044829 0.010767 0.231511 0.468627 0.288235 0.364706 0.000000 
0.049443 0.020533 0.224761 0.417647 0.331373 0.425490 0.000000 
-0.084502 -0.024581 0.212559 1.000000 0.990196 0.586275 0.000000 
0.009181 0.094596 0.188688 0.635294 0.439216 0.407843 0.000000 
-0.089365 -0.037797 0.134613 0.950980 0.645098 0.541176 0.000000 
0.090247 -0.038704 0.017779 0.415686 0.450980 0.749020 0.000000 
-0.294778 -0.010103 0.085820 0.727451 0.435294 0.331373 1.000000 
0.097664 -0.044902 -0.003773 0.429412 0.462745 0.733333 0.000000 
-0.268348 -0.016475 0.063049 0.678431 0.374510 0.349020 0.000000 
-0.284531 -0.013446 0.064817 0.694118 0.372549 0.303922 0.000000 
-0.257762 -0.021367 -0.009448 0.854902 0.554902 0.413725 0.000000 
-0.261099 -0.023408 -0.018595 0.684314 0.368627 0.298039 0.000000 
-0.135356 -0.034350 -0.055123 0.888235 0.715686 0.543137 0.000000 
-0.237938 -0.030238 -0.045858 0.658824 0.345098 0.296078 0.000000 
-0.011129 0.105225 -0.050828 0.731373 0.615686 0.482353 0.000000 
-0.228183 -0.031810 -0.064707 0.750980 0.484314 0.319608 0.000000 
-0.216785 -0.035556 -0.075463 0.564706 0.262745 0.247059 0.000000 
-0.128234 -0.054473 -0.118500 0.639216 0.337255 0.243137 0.000000 
-0.252791 -0.025837 -0.075359 0.698039 0.407843 0.403922 0.000000 
0.021258 -0.101946 -0.185918 0.941176 0.686275 0.500000 0.000000 
0.025078 -0.123794 -0.316885 0.729412 0.454902 0.319608 0.000000 
0.063600 -0.123270 -0.331763 0.894118 0.639216 0.421569 0.000000 
0.050895 0.039205 0.295595 0.368627 0.390196 0.529412 0.000000 
0.055812 0.033431 0.282838 0.929412 0.670588 0.407843 0.000000 
-0.020400 -0.012824 0.267979 0.886275 0.633333 0.433333 0.000000 
0.014680 -0.021173 0.249213 0.650980 0.345098 0.276471 0.000000 
-0.064113 -0.019019 0.240557 0.829412 0.650980 0.258824 0.000000 
0.045570 -0.008120 0.235940 0.441176 0.237255 0.258824 0.000000 
-0.074732 -0.021978 0.219092 1.000000 0.972549 0.709804 0.000000 
-0.069801 -0.022651 0.216088 0.560784 0.329412 0.096078 0.000000 
0.000791 -0.027666 0.199471 0.794118 0.468627 0.425490 0.000000 
-0.098995 -0.024305 0.189387 1.000000 0.862745 0.641176 0.000000 
-0.115545 -0.024899 0.181325 0.680392 0.533333 0.156863 0.000000 
0.039046 0.108404 0.191994 0.913725 0.780392 0.637255 0.000000 
0.031143 0.119295 0.194677 0.850980 0.719608 0.564706 0.000000 
0.017702 0.112373 0.174147 0.643137 0.527451 0.390196 0.000000 
0.010155 0.085751 0.165478 0.390196 0.207843 0.213725 0.000000 
0.019915 -0.063605 0.130382 0.698039 0.441176 0.307843 0.000000 
-0.109240 -0.035808 0.100527 0.380392 0.447059 0.774510 0.000000 
-0.119021 -0.050574 0.092700 0.423529 0.458824 0.725490 0.000000 
-0.130966 -0.033759 0.082267 0.598039 0.341176 0.190196 0.000000 
-0.150206 -0.030987 0.073317 1.000000 0.864706 0.592157 0.000000 
0.086628 -0.046141 0.008723 0.998039 0.972549 0.921569 0.000000 
0.107474 -0.060244 -0.022755 0.878431 0.768627 0.707843 0.000000 
-0.259143 -0.022407 -0.024199 0.552941 0.262745 0.180392 0.000000 
-0.188063 -0.028844 -0.059128 0.384314 0.427451 0.645098 0.000000 
-0.231213 -0.027907 -0.051549 0.650980 0.376471 0.343137 0.000000 
-0.126308 -0.049409 -0.096176 0.768627 0.452941 0.350980 0.000000 
0.030969 -0.098096 -0.186719 0.625490 0.345098 0.282353 0.000000 
-0.242111 -0.030872 -0.094979 0.658824 0.376471 0.421569 0.000000 
-0.204114 -0.043024 -0.122699 0.619608 0.319608 0.235294 0.000000 
-0.155494 -0.049314 -0.146210 0.656863 0.380392 0.380392 0.000000 
-0.273712 -0.014131 -0.103633 0.574510 0.600000 0.819608 1.000000 
0.024182 -0.115321 -0.281156 0.529412 0.243137 0.147059 0.000000 
0.035706 -0.113559 -0.298590 0.860784 0.609804 0.329412 0.000000 
0.072669 -0.092745 -0.322146 0.954902 0.825490 0.676471 0.000000 
0.076235 -0.073633 -0.312863 0.252941 0.192157 0.284314 0.000000 
0.052605 0.038014 0.282260 0.878431 0.625490 0.360784 0.000000 
-0.014772 -0.030755 0.242910 0.927451 0.664706 0.435294 0.000000 
-0.119394 -0.020140 0.141698 0.731373 0.560784 0.376471 0.000000 
-0.109600 -0.043452 0.134603 0.688235 0.513726 0.339216 0.000000 
-0.318648 0.001652 0.119706 1.000000 0.778431 0.549020 1.000000 
-0.066636 -0.062870 0.041388 0.849020 0.582353 0.327451 0.000000 
-0.034635 -0.082911 -0.001444 0.954902 0.762745 0.478431 0.000000 
-0.272852 -0.019962 -0.028594 0.801961 0.501961 0.396078 1.000000 
0.033318 -0.125667 -0.328772 0.574510 0.352941 0.354902 0.000000 
0.038962 -0.123952 -0.331098 0.603922 0.382353 0.398039 0.000000 
-0.002116 0.021282 0.288642 0.990196 0.835294 0.558824 0.000000 
0.035345 -0.000875 0.233869 0.350980 0.194118 0.239216 0.000000 
-0.107886 -0.044975 -0.038042 0.745098 0.441176 0.260784 0.000000 
0.004733 0.054364 -0.113420 0.480392 0.250980 0.207843 0.000000 
0.009577 0.058401 -0.114274 0.682353 0.460784 0.398039 0.000000 
-0.180598 -0.050052 -0.133892 0.927451 0.629412 0.537255 0.000000 
0.054428 0.038005 0.296255 0.356863 0.403922 0.558824 0.000000 
0.015186 0.102092 0.182807 0.472549 0.250980 0.219608 0.000000 
-0.096476 -0.030936 0.154297 0.425490 0.452941 0.694118 0.000000 
-0.318270 -0.000026 0.118924 1.000000 0.796078 0.588235 1.000000 
-0.285273 -0.010814 0.091414 0.713726 0.445098 0.323529 0.000000 
-0.037292 -0.081078 0.022275 0.639216 0.374510 0.225490 0.000000 
-0.263082 -0.018550 0.058822 0.547059 0.278431 0.266667 0.000000 
-0.183602 -0.040921 -0.128413 0.921569 0.613725 0.517647 0.000000 
-0.197937 -0.043842 -0.140746 0.364706 0.243137 0.313726 0.000000 
0.031586 -0.100418 -0.292130 0.917647 0.672549 0.374510 0.000000 
0.073689 -0.094489 -0.323810 0.954902 0.825490 0.676471 0.000000 
0.073261 -0.120792 -0.348344 0.584314 0.333333 0.372549 0.000000 
-0.078100 -0.021713 0.232168 0.354902 0.378431 0.503922 0.000000 
0.005068 0.092127 0.187080 0.649020 0.407843 0.317647 0.000000 
0.078217 -0.078267 -0.014522 0.907843 0.588235 0.574510 0.000000 
-0.104795 -0.052836 -0.039887 0.805882 0.500000 0.319608 0.000000 
-0.006514 -0.108808 -0.269871 0.764706 0.521569 0.260784 0.000000 
-0.191412 -0.038297 -0.108826 0.921569 0.619608 0.474510 0.000000 
-0.107087 -0.020228 0.206762 0.349020 0.386275 0.515686 0.000000 
-0.188952 -0.045323 -0.113799 0.843137 0.539216 0.405882 0.000000 
-0.166440 -0.051057 -0.119910 0.790196 0.486275 0.345098 0.000000 
-0.217621 -0.055866 -0.152413 0.307843 0.345098 0.617647 0.000000 
-0.034845 -0.029578 0.188263 0.919608 0.723529 0.382353 0.000000 
0.003423 0.003760 0.303062 0.343137 0.374510 0.496078 0.000000 
-0.020965 -0.026786 0.231667 0.864706 0.513726 0.396078 0.000000 
-0.058954 -0.024757 0.215666 0.964706 0.694118 0.490196 0.000000 
-0.258373 -0.033249 -0.004402 0.676471 0.368627 0.296078 1.000000 
-0.043927 -0.017903 0.250054 0.349020 0.366667 0.517647 0.000000 
0.042946 -0.004299 0.233803 0.419608 0.215686 0.260784 0.000000 
0.070454 -0.089130 -0.319182 0.958824 0.864706 0.741176 0.000000 
0.020269 0.021775 0.298867 0.943137 0.745098 0.368627 0.000000 
-0.020200 -0.020612 0.245549 0.947059 0.672549 0.450980 0.000000 
-0.316130 -0.013633 0.131280 1.000000 0.784314 0.556863 1.000000 
-0.046907 -0.070549 0.207995 0.343137 0.384314 0.492157 0.000000 
0.049514 0.021227 0.283250 0.407843 0.115686 0.103922 0.000000 
-0.316086 -0.013678 0.131141 1.000000 0.780392 0.552941 1.000000 
0.006354 0.061851 -0.117932 0.668627 0.454902 0.401961 0.000000 
0.009518 0.001740 0.291402 0.915686 0.756863 0.405882 0.000000 
0.040275 0.016342 0.291537 0.998039 0.854902 0.488235 0.000000 
0.044167 0.000219 0.268264 0.801961 0.476471 0.339216 0.000000 
-0.048839 -0.045028 0.179812 0.913725 0.682353 0.362745 0.000000 
0.007621 0.095825 0.181241 0.654902 0.464706 0.435294 0.000000 
0.034161 0.103021 0.175248 0.535294 0.300000 0.172549 0.000000 
-0.133209 -0.032941 0.155255 0.356863 0.366667 0.570588 0.000000 
0.019282 -0.082133 0.091804 0.835294 0.564706 0.458824 0.000000 
0.014804 -0.082411 -0.043203 0.733333 0.466667 0.349020 0.000000 
-0.275583 -0.031111 0.033905 0.584314 0.284314 0.321569 0.000000 
-0.256905 -0.042946 0.011851 0.741176 0.423529 0.358824 0.000000 
-0.228459 -0.042840 -0.025227 0.500000 0.237255 0.172549 0.000000 
-0.216862 -0.044906 -0.033981 0.770588 0.503922 0.272549 0.000000 
-0.214762 -0.047072 -0.044595 0.592157 0.292157 0.286275 0.000000 
-0.151924 -0.045739 -0.062706 0.980392 0.747059 0.466667 0.000000 
0.019890 -0.091120 -0.144477 0.825490 0.533333 0.358824 0.000000 
0.037902 -0.023925 -0.230257 0.309804 0.321569 0.584314 0.000000 
0.021285 -0.119281 -0.299630 0.762745 0.488235 0.350980 0.000000 
-0.571308 0.623174 0.326136 0.452941 0.480392 0.745098 1.000000 
0.028422 -0.001356 0.295404 0.890196 0.707843 0.315686 0.000000 
0.052865 0.020397 0.280200 0.411765 0.162745 0.145098 0.000000 
0.052043 -0.003974 0.255561 0.947059 0.750980 0.550980 0.000000 
0.073921 0.040372 0.251926 0.929412 0.684314 0.566667 0.000000 
-0.045853 -0.016334 0.253555 0.352941 0.380392 0.523529 0.000000 
-0.034248 -0.010872 0.250773 0.870588 0.623529 0.413725 0.000000 
0.039308 -0.001398 0.231208 0.350980 0.178431 0.205882 0.000000 
0.056194 0.020614 0.219799 0.535294 0.356863 0.372549 0.000000 
0.055638 0.027318 0.219022 0.970588 0.780392 0.762745 0.000000 
0.036661 0.123383 0.184562 0.578431 0.590196 0.719608 0.000000 
-0.122145 -0.036116 0.153275 0.986274 0.935294 0.762745 0.000000 
-0.135088 -0.035578 0.105709 0.856863 0.784314 0.772549 0.000000 
-0.295234 -0.026606 0.135809 0.852941 0.574510 0.329412 0.000000 
0.019282 0.365816 0.168955 0.433333 0.468627 0.731373 1.000000 
-0.267146 -0.036406 0.099916 0.784314 0.517647 0.345098 0.000000 
-0.040762 -0.073725 0.033373 0.905882 0.623529 0.501961 0.000000 
-0.259742 -0.037198 0.082981 0.672549 0.413725 0.421569 0.000000 
0.100563 -0.090481 -0.048970 0.709804 0.413725 0.376471 0.000000 
-0.254222 -0.043647 0.044172 0.856863 0.550980 0.431373 0.000000 
-0.119230 -0.051551 -0.002380 0.419608 0.452941 0.725490 0.000000 
-0.247938 -0.039019 0.031551 0.413725 0.201961 0.219608 0.000000 
-0.170097 -0.040833 -0.031527 0.454902 0.462745 0.694118 0.000000 
-0.248685 -0.047314 -0.024812 0.819608 0.517647 0.425490 0.000000 
0.037981 -0.082079 -0.151078 0.703922 0.411765 0.333333 0.000000 
-0.174525 -0.049628 -0.077717 0.774510 0.505882 0.307843 0.000000 
0.015132 0.084591 -0.088928 0.874510 0.692157 0.607843 0.000000 
0.028355 -0.094776 -0.178125 0.672549 0.374510 0.298039 0.000000 
-0.198169 -0.053099 -0.103592 0.486275 0.276471 0.362745 0.000000 
0.028020 0.086021 -0.123969 0.596078 0.423529 0.405882 0.000000 
0.019650 -0.109723 -0.264951 0.570588 0.274510 0.170588 0.000000 
0.025246 -0.109565 -0.283453 0.880392 0.615686 0.372549 0.000000 
0.030234 -0.106656 -0.283138 0.850980 0.598039 0.333333 0.000000 
0.056049 0.034124 0.275104 0.884314 0.623529 0.370588 0.000000 
0.019068 -0.047759 0.111738 0.445098 0.221569 0.237255 0.000000 
-0.240237 -0.039364 0.009819 0.515686 0.262745 0.282353 0.000000 
-0.227389 -0.050407 -0.049715 0.776471 0.498039 0.331373 0.000000 
-0.163829 -0.053197 -0.085686 0.743137 0.437255 0.321569 0.000000 
0.019689 -0.063291 -0.159874 0.486275 0.225490 0.258824 0.000000 
-0.015679 -0.079703 -0.155793 0.790196 0.535294 0.272549 0.000000 
0.014247 0.002247 0.285483 0.958824 0.784314 0.529412 0.000000 
0.036166 0.117183 0.168456 0.372549 0.247059 0.178431 0.000000 
-0.259757 -0.039789 0.044102 0.939216 0.613725 0.535294 0.000000 
-0.149474 -0.053287 -0.114687 0.578431 0.284314 0.250980 0.000000 
0.058451 0.014452 0.279346 0.337255 0.088235 0.066667 0.000000 
-0.044173 -0.018577 0.254236 0.341176 0.374510 0.511765 0.000000 
-0.057672 -0.021651 0.244289 0.911765 0.741176 0.327451 0.000000 
0.146646 0.304363 0.171216 0.400000 0.435294 0.690196 0.000000 
-0.284683 -0.029257 0.117968 0.666667 0.378431 0.221569 0.000000 
-0.073819 -0.064565 0.037863 0.637255 0.341176 0.166667 0.000000 
-0.260146 -0.038869 0.044438 0.896078 0.566667 0.490196 0.000000 
-0.015484 -0.079964 -0.156046 0.790196 0.535294 0.272549 0.000000 
-0.137142 -0.055255 -0.116195 0.841176 0.560784 0.533333 0.000000 
-0.150048 -0.052401 -0.113814 0.727451 0.431373 0.390196 0.000000 
0.008470 0.088056 0.177005 0.647059 0.409804 0.298039 0.000000 
-0.129522 -0.032068 0.149792 0.529412 0.280392 0.086275 0.000000 
-0.129701 -0.031086 0.144976 0.582353 0.360784 0.090196 0.000000 
-0.263271 -0.035099 0.018660 0.778431 0.464706 0.372549 0.000000 
-0.046642 -0.100121 -0.230230 0.303922 0.335294 0.586275 0.000000 
-0.006994 0.008801 0.188795 0.607843 0.354902 0.366667 0.000000 
0.015703 0.095648 -0.091087 0.968627 0.835294 0.735294 0.000000 
0.017969 0.107708 0.165578 0.566667 0.484314 0.394118 0.000000 
-0.063361 -0.064484 -0.098345 0.537255 0.329412 0.356863 0.000000 
-0.228972 -0.043552 -0.098299 0.301961 0.337255 0.596078 0.000000 
0.015226 0.110426 0.166653 0.635294 0.550980 0.456863 0.000000 
0.020061 0.091171 -0.094844 0.788235 0.652941 0.552941 0.000000 
-0.209038 -0.056656 -0.114723 0.286275 0.319608 0.574510 0.000000 
0.023931 0.012291 0.225037 0.350980 0.339216 0.435294 0.000000 
0.037330 0.036360 -0.180147 0.198039 0.235294 0.486275 0.000000 
0.038522 -0.004302 0.218970 0.341176 0.325490 0.427451 0.000000 
-0.180125 -0.035998 -0.058660 0.701961 0.429412 0.350980 0.000000 
0.041562 0.014789 0.289198 0.998039 0.841176 0.478431 0.000000 
0.019426 -0.015199 0.262199 0.933333 0.698039 0.596078 0.000000 
0.054322 0.014729 0.214207 0.380392 0.392157 0.486275 0.000000 
-0.135166 -0.041646 -0.003085 0.558824 0.254902 0.178431 0.000000 
-0.224266 -0.049901 -0.013248 0.466667 0.219608 0.174510 1.000000 
-0.213831 -0.049460 -0.021089 0.774510 0.527451 0.315686 1.000000 
0.029948 -0.114836 -0.280856 0.858824 0.600000 0.341176 0.000000 
-0.383445 0.496475 0.217088 0.452941 0.488235 0.766667 1.000000 
0.053827 0.019183 0.277519 0.547059 0.254902 0.237255 0.000000 
-0.043482 -0.019418 0.254790 0.347059 0.366667 0.517647 0.000000 
0.110267 0.323841 0.174361 0.403922 0.439216 0.694118 0.000000 
0.059612 0.345700 0.147437 0.425490 0.462745 0.715686 1.000000 
0.095214 -0.056012 -0.003419 0.986274 0.982353 0.947059 0.000000 
0.038210 -0.081935 -0.147416 0.725490 0.435294 0.347059 0.000000 
-0.194709 -0.057789 -0.090403 0.496078 0.290196 0.370588 1.000000 
-0.161681 -0.055384 -0.073689 0.758824 0.445098 0.354902 1.000000 
-0.146363 -0.056963 -0.104050 0.674510 0.378431 0.337255 1.000000 
0.004736 0.091163 0.173077 0.639216 0.390196 0.278431 0.000000 
0.111883 0.322895 0.173510 0.398039 0.435294 0.682353 0.000000 
0.062769 0.344152 0.146874 0.433333 0.468627 0.731373 1.000000 
-0.146703 -0.056396 -0.103623 0.674510 0.378431 0.337255 1.000000 
0.006919 0.000855 0.300539 0.339216 0.374510 0.503922 0.000000 
0.043346 0.013838 0.286745 1.000000 0.860784 0.492157 0.000000 
0.042658 0.008587 0.242708 0.160784 0.096078 0.109804 0.000000 
0.053838 0.008209 0.236203 0.201961 0.166667 0.160784 0.000000 
-0.088840 -0.026572 0.235823 0.347059 0.372549 0.503922 0.000000 
0.060495 0.027498 0.219183 0.615686 0.319608 0.309804 0.000000 
0.058495 0.012588 0.210281 0.366667 0.394118 0.490196 0.000000 
-0.014904 -0.040314 0.202731 0.939216 0.680392 0.413725 0.000000 
0.008493 -0.031944 0.172878 0.749020 0.441176 0.313726 0.000000 
-0.325303 0.163084 0.217932 0.847059 0.550980 0.380392 1.000000 
0.018039 0.140169 0.179104 0.401961 0.435294 0.727451 0.000000 
0.008703 0.145772 0.180454 0.409804 0.443137 0.715686 0.000000 
0.002391 -0.013377 0.136650 0.637255 0.400000 0.382353 0.000000 
0.019653 -0.014100 0.130232 0.905882 0.813725 0.782353 0.000000 
0.019261 -0.047496 0.118733 0.384314 0.166667 0.162745 0.000000 
-0.024290 0.036012 0.137989 0.458824 0.421569 0.594118 0.000000 
-0.279978 -0.055248 0.156444 0.876471 0.641176 0.421569 0.000000 
-0.274274 -0.059077 0.136329 0.835294 0.554902 0.409804 0.000000 
0.006676 -0.027727 0.067629 0.488235 0.262745 0.288235 0.000000 
-0.240688 -0.057554 0.085072 0.447059 0.205882 0.282353 0.000000 
-0.039436 -0.081293 0.019215 0.990196 0.837255 0.564706 0.000000 
-0.127949 -0.049160 0.002768 0.662745 0.358824 0.282353 0.000000 
-0.165436 -0.048463 -0.012643 0.454902 0.462745 0.682353 0.000000 
-0.221320 -0.057261 0.000843 0.441176 0.190196 0.166667 0.000000 
-0.126439 -0.052482 -0.032060 0.968627 0.735294 0.445098 0.000000 
-0.212547 -0.054905 -0.006739 0.807843 0.549020 0.356863 0.000000 
-0.139357 -0.055433 -0.038805 0.529412 0.252941 0.260784 0.000000 
0.026026 -0.087818 -0.121336 0.601961 0.301961 0.290196 0.000000 
-0.196946 -0.066069 -0.064223 0.639216 0.354902 0.292157 0.000000 
0.051020 -0.034701 -0.241639 0.339216 0.347059 0.601961 0.000000 
0.035112 -0.119657 -0.278346 0.876471 0.607843 0.356863 0.000000 
0.071934 -0.063857 -0.298795 0.827451 0.607843 0.525490 0.000000 
0.089086 0.320054 -0.216031 0.570588 0.603922 0.843137 1.000000 
0.055190 0.018475 0.274781 0.625490 0.315686 0.311765 0.000000 
0.053555 -0.005223 0.252119 0.970588 0.758824 0.562745 0.000000 
-0.031078 -0.017378 0.256058 0.747059 0.541176 0.388235 0.000000 
-0.040275 -0.021499 0.255073 0.358824 0.370588 0.535294 0.000000 
0.019311 -0.024189 0.247252 0.801961 0.494118 0.421569 0.000000 
0.080699 0.035172 0.242624 0.954902 0.709804 0.600000 0.000000 
-0.017002 0.042566 0.161543 0.264706 0.192157 0.141176 0.000000 
-0.084529 -0.052808 0.152360 1.000000 0.747059 0.527451 0.000000 
0.070400 0.330262 0.175734 0.407843 0.443137 0.698039 0.000000 
0.015154 0.113115 0.151983 0.796078 0.678431 0.509804 0.000000 
0.021939 -0.075794 0.092329 0.617647 0.390196 0.239216 0.000000 
-0.263463 -0.059788 0.152164 0.421569 0.431373 0.654902 0.000000 
-0.270061 -0.054386 0.145167 0.931373 0.701961 0.541176 0.000000 
-0.042881 -0.072147 0.045670 0.976471 0.674510 0.558824 0.000000 
0.097263 -0.057059 -0.007246 0.972549 1.000000 0.966667 0.000000 
-0.237078 -0.055115 0.065031 0.592157 0.335294 0.300000 0.000000 
-0.256209 -0.062830 0.045442 0.954902 0.692157 0.521569 0.000000 
-0.228648 -0.058865 0.028874 0.425490 0.215686 0.227451 0.000000 
-0.162035 -0.052842 -0.013432 0.450980 0.458824 0.694118 0.000000 
-0.231357 -0.059902 0.003473 0.558824 0.258824 0.168627 0.000000 
-0.161742 -0.053666 -0.024533 0.884314 0.711765 0.511765 0.000000 
-0.207189 -0.057124 -0.019556 0.592157 0.309804 0.333333 0.000000 
0.038021 -0.082205 -0.144771 0.790196 0.490196 0.409804 0.000000 
-0.193468 -0.063629 -0.075307 0.503922 0.276471 0.356863 0.000000 
0.022999 0.094273 -0.124874 0.996078 0.982353 0.905882 0.000000 
-0.015356 -0.098331 -0.217090 0.847059 0.601961 0.329412 0.000000 
0.022125 -0.107250 -0.266144 0.880392 0.617647 0.360784 0.000000 
-0.630417 0.421790 0.304701 0.325490 0.368627 0.584314 1.000000 
0.043945 -0.000134 0.276837 0.949020 0.770588 0.521569 0.000000 
0.076466 0.039785 0.246359 0.852941 0.613725 0.470588 0.000000 
0.003947 -0.015292 0.111669 0.598039 0.372549 0.398039 0.000000 
0.012456 -0.050027 0.097824 0.388235 0.211765 0.241176 0.000000 
-0.219165 -0.070569 -0.030722 0.694118 0.411765 0.319608 0.000000 
-0.161666 -0.058971 -0.060115 0.803922 0.498039 0.382353 0.000000 
0.025019 -0.110617 -0.248127 0.721569 0.423529 0.364706 0.000000 
0.071453 -0.071366 -0.312803 0.131373 0.096078 0.166667 0.000000 
0.016944 -0.040404 0.138585 0.782353 0.519608 0.535294 0.000000 
0.023594 0.088751 -0.125476 1.000000 0.970588 0.915686 0.000000 
-0.001081 0.058682 -0.127134 0.572549 0.339216 0.288235 0.000000 
0.014942 0.025929 0.295542 0.974510 0.778431 0.425490 0.000000 
0.050778 0.039319 0.269315 0.954902 0.709804 0.411765 0.000000 
0.076559 0.039732 0.246451 0.852941 0.613725 0.470588 0.000000 
0.000256 0.093299 0.168690 0.639216 0.396078 0.270588 0.000000 
0.073741 0.329084 0.174500 0.401961 0.439216 0.686275 0.000000 
0.016791 -0.026352 0.105900 0.660784 0.433333 0.454902 0.000000 
-0.002080 0.059401 -0.126700 0.572549 0.339216 0.288235 0.000000 
0.068872 -0.065861 0.014211 0.594118 0.321569 0.311765 0.000000 
-0.049989 -0.098727 -0.203550 0.282353 0.325490 0.560784 0.000000 
-0.045176 -0.035555 0.218271 0.627451 0.309804 0.113725 0.000000 
-0.198153 -0.073144 -0.087986 0.249020 0.301961 0.547059 0.000000 
-0.004824 0.006864 0.189456 0.543137 0.317647 0.331373 0.000000 
-0.178051 -0.068399 -0.061973 0.845098 0.543137 0.415686 0.000000 
-0.010824 0.106107 -0.135362 0.211765 0.237255 0.476471 0.000000 
-0.011321 0.106397 -0.135290 0.211765 0.237255 0.476471 0.000000 
-0.103947 -0.089710 -0.154939 0.252941 0.288235 0.531373 0.000000 
-0.036175 0.036598 0.304530 0.335294 0.370588 0.500000 0.000000 
-0.060104 0.056437 0.306521 0.339216 0.364706 0.498039 0.000000 
0.045675 0.011928 0.284523 0.994118 0.850980 0.488235 0.000000 
0.069216 -0.053685 0.277148 0.341176 0.380392 0.507843 0.000000 
0.014289 -0.016545 0.191684 0.629412 0.358824 0.388235 0.000000 
0.100273 -0.061984 -0.019138 0.629412 0.352941 0.368627 0.000000 
0.110505 -0.083430 -0.079216 1.000000 0.933333 0.919608 0.000000 
0.025663 -0.086987 -0.115557 0.627451 0.319608 0.309804 0.000000 
0.041464 -0.026792 -0.234518 0.329412 0.345098 0.625490 0.000000 
0.013493 -0.054275 0.139509 0.784314 0.517647 0.352941 0.000000 
0.045718 0.338338 0.175660 0.396078 0.435294 0.672549 0.000000 
-0.257571 -0.068210 0.160589 0.409804 0.425490 0.647059 1.000000 
-0.260893 -0.067492 0.151846 0.950980 0.700000 0.505882 1.000000 
-0.112065 -0.061930 0.127293 0.500000 0.256863 0.080392 0.000000 
0.099265 -0.058659 -0.007637 0.984314 0.990196 0.947059 0.000000 
0.036895 -0.080738 -0.138960 0.762745 0.462745 0.382353 0.000000 
0.020843 0.065404 -0.137745 0.700000 0.460784 0.392157 0.000000 
0.033839 -0.109882 -0.263561 0.884314 0.625490 0.362745 0.000000 
-0.191794 -0.076382 -0.073373 0.229412 0.284314 0.521569 1.000000 
0.001213 0.056007 -0.134282 0.656863 0.411765 0.364706 0.000000 
-0.261491 -0.066573 0.147210 0.688235 0.396078 0.217647 1.000000 
0.011496 -0.096845 -0.227240 0.631373 0.333333 0.278431 0.000000 
-0.129358 0.078703 0.311653 0.337255 0.362745 0.496078 0.000000 
0.048550 0.010971 0.282058 0.994118 0.837255 0.478431 0.000000 
0.059735 -0.001952 0.238999 0.490196 0.268627 0.307843 0.000000 
0.068348 0.005622 0.240675 0.876471 0.562745 0.449020 0.000000 
0.046716 0.006300 0.237813 0.170588 0.137255 0.133333 0.000000 
0.058275 0.012271 0.225675 0.254902 0.152941 0.150980 0.000000 
0.015333 -0.016939 0.191619 0.637255 0.370588 0.382353 0.000000 
0.011388 0.122522 0.167168 0.423529 0.425490 0.694118 0.000000 
-0.022785 0.035995 0.155360 0.807843 0.727451 0.743137 0.000000 
0.014554 -0.009035 0.140244 1.000000 0.984314 0.949020 0.000000 
0.018899 -0.047282 0.121390 0.411765 0.196078 0.180392 0.000000 
0.021400 -0.064317 0.110372 0.696078 0.503922 0.307843 0.000000 
-0.261585 -0.081502 0.161653 0.827451 0.490196 0.478431 0.000000 
0.011607 -0.028179 0.096820 0.462745 0.252941 0.284314 0.000000 
-0.240482 -0.070670 0.148570 0.421569 0.266667 0.315686 0.000000 
-0.242105 -0.081551 0.075132 0.664706 0.372549 0.392157 0.000000 
-0.231259 -0.081227 0.057392 0.741176 0.427451 0.356863 0.000000 
-0.228806 -0.081220 0.050713 0.672549 0.378431 0.286275 0.000000 
-0.238564 -0.080180 0.047891 0.562745 0.256863 0.300000 0.000000 
-0.208280 -0.073759 0.028269 0.466667 0.270588 0.200000 0.000000 
-0.207206 -0.072931 0.020246 0.423529 0.194118 0.178431 0.000000 
-0.153239 -0.066824 -0.029241 0.639216 0.343137 0.352941 0.000000 
0.024612 -0.087152 -0.110521 0.586275 0.284314 0.262745 0.000000 
0.037936 -0.069575 -0.119452 0.692157 0.401961 0.427451 0.000000 
-0.152808 -0.073431 -0.056850 0.598039 0.309804 0.250980 0.000000 
-0.142882 -0.073904 -0.087327 0.260784 0.172549 0.282353 0.000000 
0.029502 -0.089209 -0.174975 0.682353 0.384314 0.268627 0.000000 
0.000046 0.048959 -0.147712 0.615686 0.388235 0.376471 0.000000 
0.026361 0.073584 -0.159798 0.815686 0.560784 0.464706 0.000000 
0.024721 -0.026251 -0.217475 0.349020 0.384314 0.641176 0.000000 
0.030012 -0.022513 -0.226142 0.343137 0.370588 0.647059 0.000000 
0.068790 -0.101038 -0.304987 0.972549 0.776471 0.607843 0.000000 
0.073664 -0.106071 -0.330876 0.200000 0.186275 0.368627 0.000000 
0.020555 0.007279 0.292738 0.947059 0.794118 0.429412 0.000000 
0.041918 0.028649 0.289498 1.000000 0.888235 0.484314 0.000000 
-0.065084 -0.032550 0.253581 0.331373 0.378431 0.503922 0.000000 
0.017228 -0.025337 0.240468 0.637255 0.315686 0.250980 0.000000 
0.025817 0.009223 0.222412 0.327451 0.207843 0.241176 0.000000 
-0.000032 -0.000456 0.176468 0.549020 0.301961 0.325490 0.000000 
0.007746 0.002049 0.173125 0.584314 0.400000 0.415686 0.000000 
-0.016113 0.042077 0.160197 0.243137 0.168627 0.145098 0.000000 
0.023175 -0.047102 0.136116 0.647059 0.437255 0.437255 0.000000 
-0.002557 0.024901 0.149442 0.847059 0.747059 0.758824 0.000000 
-0.281844 -0.075340 0.186862 0.927451 0.703922 0.439216 0.000000 
-0.250544 -0.074934 0.170419 0.427451 0.409804 0.596078 0.000000 
-0.249411 -0.077471 0.161275 0.909804 0.660784 0.478431 0.000000 
0.101626 -0.059555 -0.009132 0.988235 0.990196 0.960784 0.000000 
-0.249150 -0.078818 0.095422 0.731373 0.447059 0.323529 0.000000 
0.096906 -0.051963 -0.007791 1.000000 0.984314 0.966667 0.000000 
0.115625 -0.066668 -0.042007 0.890196 0.862745 0.813725 0.000000 
-0.239236 -0.082850 0.065515 0.933333 0.670588 0.474510 0.000000 
0.105462 -0.092191 -0.064403 0.986274 0.911765 0.841176 0.000000 
-0.196267 -0.058640 0.025137 0.454902 0.423529 0.511765 0.000000 
-0.191877 -0.073410 -0.001370 0.554902 0.284314 0.282353 0.000000 
0.034984 -0.080404 -0.134375 0.784314 0.486275 0.396078 0.000000 
-0.175041 -0.071636 -0.046450 0.756863 0.472549 0.345098 0.000000 
0.025273 -0.088955 -0.153814 0.621569 0.317647 0.278431 0.000000 
-0.148561 -0.073764 -0.081506 0.439216 0.284314 0.372549 0.000000 
-0.013989 0.086019 -0.102668 0.815686 0.615686 0.517647 0.000000 
0.011041 0.112729 -0.127428 0.625490 0.392157 0.278431 0.000000 
0.008972 0.059430 -0.151630 0.749020 0.492157 0.433333 0.000000 
0.038657 -0.035970 -0.244449 0.884314 0.788235 0.719608 0.000000 
0.061554 0.011069 0.230039 0.180392 0.135294 0.135294 0.000000 
0.016049 -0.052331 0.100430 0.345098 0.180392 0.209804 0.000000 
0.020846 -0.069546 0.085860 0.464706 0.300000 0.276471 0.000000 
0.062021 0.033586 0.262711 0.954902 0.735294 0.429412 0.000000 
0.002153 0.092025 0.158320 0.660784 0.400000 0.264706 0.000000 
-0.248341 -0.079741 0.154422 0.672549 0.384314 0.247059 0.000000 
0.095560 -0.084499 -0.068136 1.000000 0.911765 0.884314 0.000000 
-0.187151 -0.082875 -0.060608 0.233333 0.278431 0.501961 0.000000 
0.005827 0.055114 -0.142520 0.700000 0.445098 0.390196 0.000000 
0.027353 -0.095790 -0.251889 0.864706 0.596078 0.337255 0.000000 
0.053850 0.037657 0.263876 0.933333 0.700000 0.423529 0.000000 
-0.022969 0.045747 0.161990 0.254902 0.182353 0.127451 0.000000 
0.001276 0.092419 0.158464 0.611765 0.354902 0.223529 0.000000 
-0.278115 -0.079081 0.185091 0.935294 0.711765 0.447059 0.000000 
0.028738 0.120412 0.144236 0.464706 0.335294 0.205882 0.000000 
0.013222 -0.050551 0.101446 0.345098 0.180392 0.209804 0.000000 
-0.233256 -0.071193 0.128997 0.456863 0.211765 0.201961 0.000000 
-0.246070 -0.080060 0.129637 0.715686 0.409804 0.311765 0.000000 
0.085504 -0.039182 -0.017123 0.586275 0.298039 0.339216 0.000000 
-0.182766 -0.076957 -0.022862 0.670588 0.411765 0.215686 0.000000 
0.028074 0.085799 -0.146667 0.988235 0.988235 0.956863 0.000000 
0.047204 0.042584 0.280499 0.335294 0.331373 0.411765 0.000000 
-0.091254 -0.035120 0.223371 0.356863 0.376471 0.490196 0.000000 
0.008077 0.003354 0.176269 0.533333 0.305882 0.327451 0.000000 
0.115517 -0.075704 -0.050617 0.907843 0.788235 0.752941 0.000000 
0.057894 -0.057796 -0.264596 0.882353 0.768627 0.749020 0.000000 
-0.199816 -0.084267 -0.016495 0.813725 0.537255 0.445098 0.000000 
-0.139334 -0.064167 -0.101013 0.245098 0.276471 0.521569 0.000000 
-0.007556 0.054954 -0.067718 0.656863 0.407843 0.403922 0.000000 
0.106483 -0.055151 -0.025171 0.680392 0.425490 0.439216 0.000000 
0.113154 -0.071332 -0.058726 0.954902 0.929412 0.894118 0.000000 
0.036118 -0.076671 -0.154102 0.562745 0.294118 0.331373 0.000000 
0.024209 -0.068991 -0.147059 0.552941 0.294118 0.327451 0.000000 
0.026930 0.071909 -0.168692 0.800000 0.547059 0.470588 0.000000 
0.065839 -0.098486 -0.294223 0.970588 0.790196 0.617647 0.000000 
-0.034650 0.024586 0.302813 0.335294 0.368627 0.505882 0.000000 
-0.062671 -0.034116 0.254549 0.345098 0.380392 0.509804 0.000000 
-0.251099 -0.086860 0.179614 0.890196 0.670588 0.405882 1.000000 
-0.257779 -0.091883 0.162739 0.488235 0.435294 0.601961 1.000000 
0.103431 -0.060482 -0.007777 0.988235 1.000000 0.952941 0.000000 
0.097807 -0.057244 -0.005813 0.988235 1.000000 0.958824 0.000000 
0.033631 -0.079072 -0.127469 0.770588 0.466667 0.392157 0.000000 
-0.005121 0.080270 -0.117211 0.849020 0.637255 0.537255 0.000000 
0.045966 0.023949 0.284778 0.978431 0.839216 0.466667 0.000000 
0.019794 -0.043888 0.142068 0.672549 0.398039 0.403922 0.000000 
-0.169682 -0.081264 -0.038820 0.790196 0.501961 0.376471 1.000000 
0.051257 -0.053362 -0.255263 0.852941 0.729412 0.698039 0.000000 
0.026220 0.015614 0.296628 0.323529 0.337255 0.474510 0.000000 
0.036244 -0.018523 0.239645 0.641176 0.337255 0.317647 0.000000 
0.060612 0.011421 0.221141 0.250980 0.152941 0.150980 0.000000 
0.016477 -0.017363 0.191535 0.711765 0.437255 0.462745 0.000000 
-0.033858 0.062170 0.186681 0.798039 0.658824 0.327451 0.000000 
0.014165 -0.053654 0.155596 0.792157 0.519608 0.403922 0.000000 
0.014657 -0.053161 0.110608 0.378431 0.227451 0.243137 0.000000 
-0.221856 -0.083690 0.161949 0.419608 0.288235 0.331373 0.000000 
-0.210837 -0.080718 0.145282 0.390196 0.178431 0.111765 0.000000 
-0.217031 -0.088864 0.136460 0.515686 0.237255 0.280392 0.000000 
-0.234681 -0.097188 0.138495 0.437255 0.462745 0.717647 0.000000 
0.007356 -0.004986 0.074594 0.701961 0.437255 0.429412 0.000000 
-0.221240 -0.093430 0.126487 0.588235 0.280392 0.243137 0.000000 
0.043964 -0.078191 0.047418 0.858824 0.590196 0.431373 0.000000 
-0.208013 -0.087432 0.118918 0.390196 0.188235 0.186275 0.000000 
-0.207548 -0.093456 0.091128 0.852941 0.552941 0.521569 0.000000 
-0.212696 -0.093299 0.068109 0.780392 0.478431 0.384314 0.000000 
0.111591 -0.083922 -0.074786 0.990196 0.956863 0.911765 0.000000 
-0.036318 0.016105 -0.006229 0.164706 0.127451 0.145098 0.000000 
-0.174336 -0.072327 0.026079 0.517647 0.335294 0.229412 0.000000 
-0.183152 -0.080595 0.027554 0.837255 0.603922 0.366667 0.000000 
-0.151447 -0.076387 -0.018327 0.943137 0.680392 0.488235 0.000000 
-0.028166 0.036688 -0.064481 0.333333 0.200000 0.252941 0.000000 
0.038075 -0.069929 -0.127903 0.694118 0.396078 0.370588 0.000000 
0.028064 0.072430 -0.177424 0.858824 0.590196 0.488235 0.000000 
0.020883 0.101763 -0.171430 0.227451 0.201961 0.403922 0.000000 
0.031620 0.084121 -0.182596 0.272549 0.150980 0.174510 0.000000 
0.061721 -0.098320 -0.285496 0.970588 0.786274 0.613725 0.000000 
0.065795 -0.111470 -0.306752 0.233333 0.252941 0.509804 0.000000 
0.069928 -0.108711 -0.310470 0.186275 0.219608 0.447059 0.000000 
0.078125 -0.108497 -0.319093 0.213725 0.254902 0.464706 0.000000 
-0.116809 0.376755 -0.154198 0.480392 0.501961 0.798039 0.000000 
0.043514 0.028053 0.285244 1.000000 0.919608 0.511765 0.000000 
0.062466 0.015306 0.264425 0.594118 0.262745 0.247059 0.000000 
0.055461 -0.005537 0.247916 0.962745 0.727451 0.490196 0.000000 
-0.059932 -0.034837 0.256083 0.335294 0.382353 0.507843 0.000000 
0.069160 0.006721 0.237820 0.998039 0.737255 0.543137 0.000000 
0.015472 -0.006108 0.171838 0.633333 0.374510 0.398039 0.000000 
-0.035292 0.336860 0.174992 0.394118 0.433333 0.670588 0.000000 
0.012300 -0.035080 0.099445 0.521569 0.290196 0.333333 0.000000 
0.017374 -0.020449 0.083102 0.800000 0.531373 0.543137 0.000000 
-0.216334 -0.089582 0.128328 0.756863 0.452941 0.345098 0.000000 
-0.212696 -0.090938 0.104173 0.770588 0.500000 0.354902 0.000000 
0.093420 -0.056364 -0.003659 1.000000 0.990196 0.939216 0.000000 
-0.678447 0.274469 0.267240 0.456863 0.490196 0.768627 1.000000 
0.113508 -0.095637 -0.061791 0.945098 0.850980 0.780392 0.000000 
-0.177202 -0.083726 0.014991 0.552941 0.286275 0.258824 0.000000 
0.031601 -0.079208 -0.121695 0.743137 0.439216 0.364706 0.000000 
-0.026591 0.097642 -0.099290 0.403922 0.441176 0.690196 0.000000 
0.008000 0.112123 -0.148417 0.674510 0.429412 0.315686 0.000000 
0.041820 -0.037182 -0.242655 0.907843 0.841176 0.766667 0.000000 
0.075912 0.008697 0.244675 0.952941 0.696078 0.468627 0.000000 
0.056430 0.012687 0.227162 0.190196 0.137255 0.139216 0.000000 
-0.025464 0.055594 0.183218 0.590196 0.441176 0.133333 0.000000 
-0.012552 0.030963 0.168929 0.880392 0.747059 0.729412 0.000000 
0.018844 -0.046104 0.120969 0.541176 0.305882 0.307843 0.000000 
0.072343 -0.092672 -0.298416 0.984314 0.982353 0.950980 0.000000 
-0.010290 0.054978 -0.036591 0.662745 0.403922 0.376471 0.000000 
0.027124 -0.084244 -0.139434 0.480392 0.180392 0.192157 0.000000 
0.066612 0.013991 0.264371 0.400000 0.096078 0.100000 0.000000 
-0.028913 0.056683 0.184286 0.627451 0.476471 0.174510 0.000000 
0.023488 -0.044806 0.142560 0.737255 0.445098 0.456863 0.000000 
-0.239574 -0.087223 0.173033 0.670588 0.386275 0.243137 0.000000 
-0.215350 -0.083706 0.142830 0.558824 0.298039 0.294118 0.000000 
0.023308 -0.036280 0.081537 0.576471 0.294118 0.303922 0.000000 
0.076955 -0.074850 -0.304308 0.147059 0.131373 0.252941 0.000000 
0.044134 0.043367 0.275732 0.401961 0.349020 0.350980 0.000000 
0.028627 0.104964 0.122231 0.470588 0.382353 0.221569 0.000000 
0.043470 -0.052079 -0.247155 0.876471 0.776471 0.741176 0.000000 
-0.045517 -0.034652 0.196776 0.911765 0.643137 0.388235 0.000000 
0.025258 -0.054298 0.095225 0.388235 0.217647 0.231373 0.000000 
-0.182053 -0.083068 -0.005525 0.756863 0.484314 0.356863 0.000000 
-0.035307 -0.121335 -0.138448 0.266667 0.290196 0.537255 0.000000 
-0.042051 -0.044929 -0.147558 0.482353 0.266667 0.262745 0.000000 
-0.011208 0.055948 -0.073157 0.617647 0.356863 0.347059 0.000000 
0.024410 -0.056671 0.132361 0.686275 0.490196 0.250980 0.000000 
0.020848 -0.050513 0.118607 0.329412 0.164706 0.158824 0.000000 
-0.113916 -0.012366 0.111057 0.449020 0.247059 0.237255 1.000000 
-0.034284 0.029823 -0.050693 0.429412 0.450980 0.719608 0.000000 
0.037228 -0.069149 -0.121665 0.741176 0.433333 0.403922 0.000000 
0.032187 0.070053 -0.187916 0.888235 0.621569 0.509804 0.000000 
0.027668 -0.027204 -0.216479 0.347059 0.382353 0.625490 0.000000 
0.064626 0.014536 0.262693 0.464706 0.133333 0.119608 0.000000 
0.018445 -0.054145 0.136043 0.621569 0.435294 0.176471 0.000000 
0.007874 0.109974 -0.160610 0.688235 0.443137 0.325490 0.000000 
0.065272 0.009693 0.224106 0.172549 0.147059 0.154902 0.000000 
-0.418786 0.288828 0.130218 0.474510 0.507843 0.784314 1.000000 
0.013009 0.000212 0.173410 0.600000 0.360784 0.372549 0.000000 
0.021688 -0.008345 0.171359 0.592157 0.323529 0.354902 0.000000 
-0.063742 0.335668 0.173761 0.392157 0.429412 0.660784 0.000000 
-0.418849 0.288658 0.130297 0.458824 0.490196 0.762745 1.000000 
0.080488 0.004885 0.232955 0.960784 0.647059 0.480392 0.000000 
0.061300 0.028716 0.200299 0.713726 0.366667 0.366667 0.000000 
-0.024561 0.065268 0.162151 0.870588 0.690196 0.425490 0.000000 
0.018499 -0.047541 0.129079 0.433333 0.211765 0.194118 0.000000 
0.016428 -0.050347 0.120584 0.335294 0.182353 0.160784 0.000000 
-0.196979 -0.097199 0.147636 0.560784 0.252941 0.286275 0.000000 
-0.184109 -0.095231 0.085932 0.488235 0.260784 0.176471 0.000000 
-0.204421 -0.105009 0.078959 0.580392 0.452941 0.625490 0.000000 
0.015847 -0.095343 -0.188665 0.688235 0.403922 0.374510 0.000000 
0.012362 -0.060603 -0.192647 0.715686 0.507843 0.445098 0.000000 
0.036661 0.070971 -0.199010 0.872549 0.607843 0.515686 0.000000 
-0.003753 0.050701 -0.180377 0.200000 0.219608 0.411765 0.000000 
0.029844 -0.027370 -0.217280 0.323529 0.354902 0.621569 0.000000 
0.050581 -0.059697 -0.243060 0.996078 0.900000 0.854902 0.000000 
0.059412 -0.081108 -0.269129 1.000000 0.992157 0.933333 0.000000 
0.049835 0.027117 0.281254 1.000000 0.935294 0.556863 0.000000 
0.066896 0.014576 0.260250 0.545098 0.203922 0.166667 0.000000 
0.067501 0.027132 0.253587 0.900000 0.639216 0.413725 0.000000 
0.015357 -0.006093 0.171187 0.719608 0.449020 0.458824 0.000000 
-0.229269 -0.107596 0.210795 0.954902 0.674510 0.419608 0.000000 
-0.020447 0.042885 0.155976 0.172549 0.131373 0.156863 0.000000 
0.017740 -0.013267 0.144282 0.950980 0.847059 0.811765 0.000000 
0.034981 0.111527 0.122974 0.978431 0.901961 0.731373 0.000000 
0.030682 0.122052 0.117224 0.425490 0.305882 0.194118 0.000000 
0.021755 0.131636 0.120476 0.974510 0.943137 0.929412 0.000000 
0.126604 -0.074629 -0.055989 0.950980 0.949020 0.923529 0.000000 
-0.176607 -0.093129 0.058332 0.503922 0.280392 0.178431 0.000000 
0.107672 -0.071163 -0.060319 0.764706 0.470588 0.439216 0.000000 
-0.189394 -0.101028 0.050416 0.694118 0.400000 0.315686 0.000000 
-0.024403 0.125355 -0.134496 0.964706 0.933333 0.866667 0.000000 
0.001024 0.116163 -0.157972 1.000000 0.988235 0.911765 0.000000 
0.007795 0.110658 -0.172465 0.696078 0.460784 0.354902 0.000000 
0.067223 -0.092366 -0.282771 0.962745 0.966667 0.994118 0.000000 
0.074798 0.009823 0.221112 0.194118 0.150980 0.149020 0.000000 
0.054778 -0.005723 0.219844 0.541176 0.309804 0.325490 0.000000 
0.039542 0.000949 0.207771 0.531373 0.335294 0.360784 0.000000 
0.030990 -0.008892 0.168510 0.601961 0.331373 0.343137 0.000000 
0.008538 -0.011546 0.147902 0.937255 0.825490 0.788235 0.000000 
0.011476 -0.043105 0.091890 0.594118 0.327451 0.335294 0.000000 
-0.195513 -0.100609 0.117044 0.774510 0.476471 0.384314 0.000000 
0.028950 0.103024 -0.203171 0.160784 0.201961 0.354902 0.000000 
0.053840 -0.039731 -0.244291 0.952941 0.890196 0.801961 0.000000 
0.068253 -0.073045 -0.286303 0.154902 0.196078 0.349020 0.000000 
0.046033 0.023856 0.278479 0.945098 0.796078 0.450980 0.000000 
-0.026199 0.055310 0.183322 0.839216 0.672549 0.370588 0.000000 
-0.020506 0.064643 0.161084 0.911765 0.733333 0.468627 0.000000 
0.014019 -0.054294 0.107182 0.296078 0.166667 0.194118 0.000000 
0.023798 0.085401 -0.181585 0.992157 1.000000 0.968627 0.000000 
0.018968 0.103419 -0.198353 0.160784 0.209804 0.374510 0.000000 
-0.018985 0.061555 0.158282 0.786274 0.635294 0.341176 0.000000 
-0.019857 0.042788 0.155475 0.172549 0.131373 0.156863 0.000000 
-0.090572 0.325669 0.173422 0.398039 0.431373 0.680392 0.000000 
0.017146 0.085886 -0.177970 0.992157 1.000000 0.968627 0.000000 
0.041143 -0.039288 -0.236290 0.943137 0.862745 0.776471 0.000000 
0.070140 -0.073504 -0.287383 0.137255 0.186275 0.339216 0.000000 
-0.009428 0.113533 -0.143706 0.950980 0.925490 0.847059 0.000000 
0.028624 -0.048922 -0.229456 0.841176 0.717647 0.682353 0.000000 
0.072272 -0.016137 0.037494 0.750980 0.447059 0.439216 0.000000 
0.033230 -0.052684 -0.229941 0.868627 0.749020 0.678431 0.000000 
0.020461 -0.053290 0.102312 0.350980 0.178431 0.205882 0.000000 
0.035815 -0.072826 -0.235516 0.954902 0.805882 0.631373 0.000000 
0.000825 0.092862 -0.210010 0.286275 0.333333 0.641176 0.000000 
